// EVENT 3283
Name "Basilisk Girl"

PictureDisplay(5,"80_basilisk_st02",0,0,0,0,100,100,0,0)
PictureMove(5,null,0,0,0,0,100,100,255,0,30,true)
241(bytes(0x04,0x08,0x6f,0x3a,0x0d,0x52,0x50,0x47,0x3a,0x3a,0x42,0x47,0x4d,0x08,0x3a,0x0a,0x40,0x6e,0x61,0x6d,0x65,0x49,0x22,0x09,0x65,0x72,0x6f,0x31,0x06,0x3a,0x06,0x45,0x54,0x3a,0x0c,0x40,0x76,0x6f,0x6c,0x75,0x6d,0x65,0x69,0x69,0x3a,0x0b,0x40,0x70,0x69,0x74,0x63,0x68,0x69,0x69))
ShowMessageFace("",0,0,2,1)
ShowMessage("\\n<Luka>")
ShowMessage("Unnngh...")
ShowMessageFace("",0,0,2,2)
ShowMessage("Exhausted from my orgasm, I drop to my knees.")
ShowMessage("Standing in front of me, the Basilisk has a cold smile on her face.")
ShowMessageFace("basilisk_fc1",1,0,2,3)
ShowMessage("\\n<Basilisk Girl>")
ShowMessage("Heh, the fun starts now.")
250(bytes(0x04,0x08,0x6f,0x3a,0x0c,0x52,0x50,0x47,0x3a,0x3a,0x53,0x45,0x08,0x3a,0x0a,0x40,0x6e,0x61,0x6d,0x65,0x49,0x22,0x0e,0x6d,0x6f,0x6e,0x5f,0x66,0x6c,0x61,0x73,0x68,0x06,0x3a,0x06,0x45,0x54,0x3a,0x0b,0x40,0x70,0x69,0x74,0x63,0x68,0x69,0x69,0x3a,0x0c,0x40,0x76,0x6f,0x6c,0x75,0x6d,0x65,0x69,0x69))
PictureDisplay(10,"sys_white",0,0,0,0,100,100,0,0)
PictureMove(10,null,0,0,0,0,100,100,255,0,20,true)
PictureMove(10,null,0,0,0,0,100,100,0,0,20,true)
250(bytes(0x04,0x08,0x6f,0x3a,0x0c,0x52,0x50,0x47,0x3a,0x3a,0x53,0x45,0x08,0x3a,0x0a,0x40,0x6e,0x61,0x6d,0x65,0x49,0x22,0x0e,0x6d,0x6f,0x6e,0x5f,0x73,0x74,0x6f,0x6e,0x65,0x06,0x3a,0x06,0x45,0x54,0x3a,0x0b,0x40,0x70,0x69,0x74,0x63,0x68,0x69,0x69,0x3a,0x0c,0x40,0x76,0x6f,0x6c,0x75,0x6d,0x65,0x69,0x69))
ShowMessageFace("",0,0,2,4)
ShowMessage("The Basilisk's eyes shine with a bright light!")
ShowMessage("After seeing that flash of light, my body starts to turn to stone!")
ShowMessageFace("",0,0,2,5)
ShowMessage("\\n<Luka>")
ShowMessage("Ah, aaaah...!")
ShowMessageFace("",0,0,2,6)
ShowMessage("I gradually lose all feeling from my hands, feet, thighs... Everything.")
ShowMessageFace("",0,0,2,7)
ShowMessage("After only a few moments, my body is just like cold stone.")
ShowMessageFace("basilisk_fc1",1,0,2,8)
ShowMessage("\\n<Basilisk Girl>")
ShowMessage("Hehe... Now you're nothing but stone.")
ShowMessage("Even your penis, of course... But only the shaft. I left the tip.")
ShowMessageFace("basilisk_fc1",1,0,2,9)
ShowMessage("\\n<Basilisk Girl>")
ShowMessage("Keep the shaft rock hard and let them feel it through the tip...")
ShowMessage("Just the thought of raping a man like this is making me wet!")
245(bytes(0x04,0x08,0x6f,0x3a,0x0d,0x52,0x50,0x47,0x3a,0x3a,0x42,0x47,0x53,0x08,0x3a,0x0a,0x40,0x6e,0x61,0x6d,0x65,0x49,0x22,0x1e,0x6d,0x6f,0x6e,0x5f,0x68,0x73,0x65,0x61,0x6e,0x30,0x31,0x5f,0x69,0x6e,0x6e,0x65,0x72,0x77,0x6f,0x72,0x6b,0x73,0x5f,0x61,0x31,0x06,0x3a,0x06,0x45,0x54,0x3a,0x0c,0x40,0x76,0x6f,0x6c,0x75,0x6d,0x65,0x69,0x55,0x3a,0x0b,0x40,0x70,0x69,0x74,0x63,0x68,0x69,0x69))
PictureDisplay(6,"ev_basilisk_ct01",0,0,0,0,100,100,255,0)
ShowMessageFace("",0,0,2,10)
ShowMessage("The Basilisk drops down on me, forcing my half stone penis into her wet vagina.")
ShowMessageFace("",0,0,2,11)
ShowMessage("\\n<Luka>")
ShowMessage("Ah, aaaah...!")
ShowMessageFace("",0,0,2,12)
ShowMessage("I yell out from the feeling of her vagina around my penis.")
ShowMessageFace("",0,0,2,13)
ShowMessage("Only able to feel it from my tip, I feel my sensitive tip pushing into her warm flesh.")
ShowMessageFace("basilisk_fc1",1,0,2,14)
ShowMessage("\\n<Basilisk Girl>")
ShowMessage("Heh... My pussy is both part reptile and part bird.")
ShowMessageFace("basilisk_fc1",1,0,2,15)
ShowMessage("\\n<Basilisk Girl>")
ShowMessage("Due to that, I got muscles that let me control everything inside my pussy, letting me play with a penis inside me...\n")
ShowMessage("I've also got lots of nice little bumps to rub against that tip of yours.")
ShowMessageFace("basilisk_fc1",1,0,2,16)
ShowMessage("\\n<Basilisk Girl>")
ShowMessage("Haha... And your stone dick can enjoy it without ever getting soft!")
ShowMessageFace("",0,0,2,17)
ShowMessage("\\n<Luka>")
ShowMessage("Ah, aaaahhh...!")
ShowMessageFace("",0,0,2,18)
ShowMessage("The Basilisk tightens her vagina around me, and at the same time uses her muscles to rub it up and down.")
ShowMessageFace("",0,0,2,19)
ShowMessage("The tiny little bumps inside of her rub against my sensitive tip, forcing amazing pleasure to wrack through my body.")
ShowMessageFace("",0,0,2,20)
ShowMessage("At the same time, the tightness around me is too much to take.")
ShowMessageFace("",0,0,2,21)
ShowMessage("This famous monster's combination of bird and reptile vagina is too good...")
ShowMessageFace("",0,0,2,22)
ShowMessage("\\n<Luka>")
ShowMessage("Unnngh...!")
ShowMessageFace("basilisk_fc1",1,0,2,23)
ShowMessage("\\n<Basilisk Girl>")
ShowMessage("Haha, I feel amazing, don't I?")
ShowMessage("Come on, lets see ya come!")
ShowMessageFace("",0,0,2,24)
ShowMessage("The Basilisk starts to grind against me, violently raping me.")
ShowMessageFace("",0,0,2,25)
ShowMessage("After grinding her hips against me for a few moments, she starts to bounce on top of me instead, alternating the stimulation.\n")
ShowMessage("With pleasure exploding through my body with every thrust from her, I can't even try to endure it.")
ShowMessageFace("",0,0,2,26)
ShowMessage("\\n<Luka>")
ShowMessage("Ahhhh...")
ShowMessageFace("",0,0,2,27)
ShowMessage("Giving myself over to the sensations, I listen to the wet sounds of her raping me.")
ShowMessageFace("",0,0,2,28)
ShowMessage("After what seems like only a few moments, I feel a tingling in my waist as an orgasm is about to burst out.")
ShowMessageFace("",0,0,2,29)
ShowMessage("\\n<Luka>")
ShowMessage("Ahhh... I'm coming...")
ShowMessageFace("basilisk_fc1",1,0,2,30)
ShowMessage("\\n<Basilisk Girl>")
ShowMessage("Haha, already?")
ShowMessage("All right then, time to finish ya off!")
ShowMessageFace("",0,0,2,31)
ShowMessage("The Basilisk drops down as hard as she can, forcing me all the way inside.")
ShowMessage("Once I'm deep inside her, she clamps her muscles around the tip of my penis, rubbing me with her tiny bumps.")
ShowMessageFace("",0,0,2,32)
ShowMessage("\\n<Luka>Ah, aaaaaah!!")
ShowMessageFace("",0,0,2,33)
ShowMessage("I easily climax from her finishing blow.")
PictureDisplay(10,"sys_white",0,0,0,0,100,100,0,0)
PictureMove(10,null,0,0,0,0,100,100,255,0,20,true)
PictureMove(10,null,0,0,0,0,100,100,0,0,25,true)
PictureMove(10,null,0,0,0,0,100,100,255,0,20,true)
PictureMove(10,null,0,0,0,0,100,100,0,0,25,true)
PictureMove(10,null,0,0,0,0,100,100,255,0,6,true)
PictureMove(10,null,0,0,0,0,100,100,0,0,60,true)
ShowMessageFace("",0,0,2,34)
ShowMessage("\\n<Luka>")
ShowMessage("Ahh... W...What...?")
ShowMessageFace("",0,0,2,35)
ShowMessage("I should have ejaculated...")
ShowMessage("But that sense of release after the orgasm never came.")
ShowMessageFace("",0,0,2,36)
ShowMessage("I felt the powerful climax, but not the accompanying release...")
ShowMessage("Feeling like something is incomplete, I start to shudder.")
ShowMessageFace("basilisk_fc1",1,0,2,37)
ShowMessage("\\n<Basilisk Girl>")
ShowMessage("Hahahaha! You can't ejaculate with a stone dick.")
ShowMessage("But ya can feel everything through that flesh and blood tip of yours.")
ShowMessageFace("basilisk_fc1",1,0,2,38)
ShowMessage("\\n<Basilisk Girl>")
ShowMessage("Haha, orgasm as much as ya want!")
ShowMessage("Nothing will ever come out, and you'll never get that full relief!")
ShowMessageFace("",0,0,2,39)
ShowMessage("The Basilisk laughs as she pumps me like a piston, raping me even harder than before.")
ShowMessage("Even though I didn't ejaculate, my tip is extra sensitive as if I did.")
ShowMessageFace("",0,0,2,40)
ShowMessage("Forced in and out of her wet vagina with every pump, my body shivers in intense pleasure.")
ShowMessageFace("basilisk_fc1",1,0,2,41)
ShowMessage("\\n<Basilisk Girl>")
ShowMessage("Haha, I'm going to rape you over and over!")
ShowMessage("Your heart and soul will be shattered as I pump ya!")
245(bytes(0x04,0x08,0x6f,0x3a,0x0d,0x52,0x50,0x47,0x3a,0x3a,0x42,0x47,0x53,0x08,0x3a,0x0a,0x40,0x6e,0x61,0x6d,0x65,0x49,0x22,0x1e,0x6d,0x6f,0x6e,0x5f,0x68,0x73,0x65,0x61,0x6e,0x30,0x37,0x5f,0x69,0x6e,0x6e,0x65,0x72,0x77,0x6f,0x72,0x6b,0x73,0x5f,0x61,0x37,0x06,0x3a,0x06,0x45,0x54,0x3a,0x0c,0x40,0x76,0x6f,0x6c,0x75,0x6d,0x65,0x69,0x55,0x3a,0x0b,0x40,0x70,0x69,0x74,0x63,0x68,0x69,0x69))
ShowMessageFace("",0,0,2,42)
ShowMessage("The Basilisk, almost berserk in her own lust, violently pumps me however she wants.")
ShowMessage("Almost like an animal on pure instinct, she bounces and grinds against me as hard as she can.")
ShowMessageFace("",0,0,2,43)
ShowMessage("\\n<Luka>")
ShowMessage("Ahhh! Ahhh!!")
ShowMessageFace("basilisk_fc1",1,0,2,44)
ShowMessage("\\n<Basilisk Girl>")
ShowMessage("God, I love that voice!")
ShowMessage("Let me hear it more! Hahaha!")
ShowMessageFace("",0,0,2,45)
ShowMessage("\\n<Luka>")
ShowMessage("Hyaaa! Ahh!")
ShowMessageFace("",0,0,2,46)
ShowMessage("Drunk on her own pleasure, she just sadistically taunts me as she rides on top of me.")
ShowMessageFace("",0,0,2,47)
ShowMessage("Her tight vagina squeezes around my tip every time I'm all the way inside of her, quickly loosening as she bounces back up.\n")
ShowMessage("Every time I penetrate back inside of her, the tiny bumps rub against my tip, bringing unbearable pleasure with it.")
ShowMessageFace("",0,0,2,48)
ShowMessage("\\n<Luka>")
ShowMessage("Ah, aaaah...!")
ShowMessageFace("",0,0,2,49)
ShowMessage("Violently raped, I'm quickly brought to another height.")
PictureDisplay(10,"sys_white",0,0,0,0,100,100,0,0)
PictureMove(10,null,0,0,0,0,100,100,255,0,20,true)
PictureMove(10,null,0,0,0,0,100,100,0,0,25,true)
PictureMove(10,null,0,0,0,0,100,100,255,0,20,true)
PictureMove(10,null,0,0,0,0,100,100,0,0,25,true)
PictureMove(10,null,0,0,0,0,100,100,255,0,6,true)
PictureMove(10,null,0,0,0,0,100,100,0,0,60,true)
ShowMessageFace("",0,0,2,50)
ShowMessage("\\n<Luka>")
ShowMessage("Ah, auuuu...")
ShowMessageFace("",0,0,2,51)
ShowMessage("The feeling of the climax blows over me, but the sense of release from the ejaculation still doesn't come.")
ShowMessageFace("",0,0,2,52)
ShowMessage("A dull ache pounds away at the base of my penis, as if the semen inside of me is desperate to be released.")
ShowMessage("My body twists at the intense discomfort, the irritation at the incomplete orgasm gnawing away at me.")
ShowMessageFace("basilisk_fc1",1,0,2,53)
ShowMessage("\\n<Basilisk Girl>")
ShowMessage("Hahaha, do you want to come in my pussy?")
ShowMessage("Want to shoot that semen of yours into my body?")
ShowMessageFace("",0,0,2,54)
ShowMessage("The Basilisk stops pumping me like a piston for a moment.")
ShowMessage("Now just seductively grinding her waist against me, she starts to taunt me with words.")
ShowMessageFace("",0,0,2,55)
ShowMessage("My tip slowly rubs against her walls, only adding to the frustration from my inability to get relief.")
ShowMessageFace("",0,0,2,56)
ShowMessage("\\n<Luka>")
ShowMessage("Ahh... N...no... I don't...")
ShowMessageFace("basilisk_fc1",1,0,2,57)
ShowMessage("\\n<Basilisk Girl>")
ShowMessage("Hahaha, I'll make ya climax over and over with my pussy then.")
ShowMessage("But... You'll never get to ejaculate! Hahaha!")
ShowMessageFace("",0,0,2,58)
ShowMessage("The Basilisk starts her piston-like thrusting again as she looks down at me.")
ShowMessage("Trembling, I helplessly moan under her.")
ShowMessageFace("",0,0,2,59)
ShowMessage("Way faster than before, I feel another climax coming up, my body screaming for an actual ejaculation.")
ShowMessageFace("",0,0,2,60)
ShowMessage("\\n<Luka>Ah, aaaaaah!!")
PictureDisplay(10,"sys_white",0,0,0,0,100,100,0,0)
PictureMove(10,null,0,0,0,0,100,100,255,0,20,true)
PictureMove(10,null,0,0,0,0,100,100,0,0,25,true)
PictureMove(10,null,0,0,0,0,100,100,255,0,20,true)
PictureMove(10,null,0,0,0,0,100,100,0,0,25,true)
PictureMove(10,null,0,0,0,0,100,100,255,0,6,true)
PictureMove(10,null,0,0,0,0,100,100,0,0,60,true)
ShowMessageFace("",0,0,2,61)
ShowMessage("But the release doesn't come.")
ShowMessage("The frustration and irritation only gets even stronger, gnawing at my brain.")
ShowMessageFace("",0,0,2,62)
ShowMessage("\\n<Luka>")
ShowMessage("Please let me come...")
ShowMessageFace("",0,0,2,63)
ShowMessage("I start to beg her with tears in my eyes.")
ShowMessageFace("basilisk_fc1",1,0,2,64)
ShowMessage("\\n<Basilisk Girl>")
ShowMessage("Hahaha, already crying?")
ShowMessage("Never had a guy cry as fast as that.")
ShowMessageFace("basilisk_fc1",1,0,2,65)
ShowMessage("\\n<Basilisk Girl>")
ShowMessage("Haha, that just makes me want to tease ya more!")
ShowMessage("Come on, let me hear that delicious scream of yours as I rape ya!")
ShowMessageFace("",0,0,2,66)
ShowMessage("The Basilisk ignores my begging, and continues her violent rape.")
ShowMessageFace("",0,0,2,67)
ShowMessage("\\n<Luka>Ah, aaaaaah!!")
PictureDisplay(10,"sys_white",0,0,0,0,100,100,0,0)
PictureMove(10,null,0,0,0,0,100,100,255,0,20,true)
PictureMove(10,null,0,0,0,0,100,100,0,0,25,true)
PictureMove(10,null,0,0,0,0,100,100,255,0,20,true)
PictureMove(10,null,0,0,0,0,100,100,0,0,25,true)
PictureMove(10,null,0,0,0,0,100,100,255,0,6,true)
PictureMove(10,null,0,0,0,0,100,100,0,0,60,true)
ShowMessageFace("",0,0,2,68)
ShowMessage("After only a few moments, I reach another climax.")
ShowMessage("The pleasure explodes in me, but is quickly replaced by the gnawing frustration.")
ShowMessageFace("",0,0,2,69)
ShowMessage("This is too much... I need to feel it... I need to release...")
ShowMessageFace("",0,0,2,70)
ShowMessage("\\n<Luka>")
ShowMessage("Ahh... L...Let me... Let me c...")
ShowMessageFace("basilisk_fc1",1,0,2,71)
ShowMessage("\\n<Basilisk Girl>")
ShowMessage("Hahaha, sure, I'll let you climax again!")
PictureDisplay(10,"sys_white",0,0,0,0,100,100,0,0)
PictureMove(10,null,0,0,0,0,100,100,255,0,20,true)
PictureMove(10,null,0,0,0,0,100,100,0,0,25,true)
PictureMove(10,null,0,0,0,0,100,100,255,0,20,true)
PictureMove(10,null,0,0,0,0,100,100,0,0,25,true)
PictureMove(10,null,0,0,0,0,100,100,255,0,6,true)
PictureMove(10,null,0,0,0,0,100,100,0,0,60,true)
ShowMessageFace("",0,0,2,72)
ShowMessage("\\n<Luka>")
ShowMessage("N...no...")
ShowMessage("Ejaculate... Let me come!")
ShowMessageFace("basilisk_fc1",1,0,2,73)
ShowMessage("\\n<Basilisk Girl>")
ShowMessage("Hehehe... What a pathetic guy.")
ShowMessage("You want to come inside me that badly?")
ShowMessageFace("",0,0,2,74)
ShowMessage("The Basilisk giggles as she stares right into my eyes.")
ShowMessage("A smile of superiority is stuck on her face as she gloats over me.")
ShowMessageFace("basilisk_fc1",1,0,2,75)
ShowMessage("\\n<Basilisk Girl>")
ShowMessage("All right... Then beg me.")
ShowMessage("What exactly do you want?")
ShowMessageFace("",0,0,2,76)
ShowMessage("\\n<Luka>")
ShowMessage("I...I want to come...")
ShowMessageFace("basilisk_fc1",1,0,2,77)
ShowMessage("\\n<Basilisk Girl>")
ShowMessage("Hahaha, that ain't quite it is it?")
ShowMessage("If you aren't perfectly clear, I'll never know what it is!")
ShowMessageFace("",0,0,2,78)
ShowMessage("The Basilisk clamps around my tip again as she grinds against me, forcing me to another frustrating climax.")
ShowMessageFace("",0,0,2,79)
ShowMessage("\\n<Luka>")
ShowMessage("N...no... Ahhh!")
PictureDisplay(10,"sys_white",0,0,0,0,100,100,0,0)
PictureMove(10,null,0,0,0,0,100,100,255,0,20,true)
PictureMove(10,null,0,0,0,0,100,100,0,0,25,true)
PictureMove(10,null,0,0,0,0,100,100,255,0,20,true)
PictureMove(10,null,0,0,0,0,100,100,0,0,25,true)
PictureMove(10,null,0,0,0,0,100,100,255,0,6,true)
PictureMove(10,null,0,0,0,0,100,100,0,0,60,true)
ShowMessageFace("",0,0,2,80)
ShowMessage("Another incomplete orgasm.")
ShowMessage("I'll go insane if I can't release.")
ShowMessageFace("",0,0,2,81)
ShowMessage("\\n<Luka>")
ShowMessage("I... I want to ejaculate...")
ShowMessage("Please... Please let me come inside you!!")
ShowMessageFace("basilisk_fc1",1,0,2,82)
ShowMessage("\\n<Basilisk Girl>")
ShowMessage("Hahahaha, what a pathetic desire!")
ShowMessage("Do you want to impregnate a monster like me that badly?")
ShowMessageFace("basilisk_fc1",1,0,2,83)
ShowMessage("\\n<Basilisk Girl>")
ShowMessage("If ya want it that badly, I guess I got no choice do I?")
ShowMessage("Here, I'll let ya come inside me just like you want.")
250(bytes(0x04,0x08,0x6f,0x3a,0x0c,0x52,0x50,0x47,0x3a,0x3a,0x53,0x45,0x08,0x3a,0x0a,0x40,0x6e,0x61,0x6d,0x65,0x49,0x22,0x0e,0x6d,0x6f,0x6e,0x5f,0x66,0x6c,0x61,0x73,0x68,0x06,0x3a,0x06,0x45,0x54,0x3a,0x0b,0x40,0x70,0x69,0x74,0x63,0x68,0x69,0x69,0x3a,0x0c,0x40,0x76,0x6f,0x6c,0x75,0x6d,0x65,0x69,0x69))
PictureDisplay(10,"sys_white",0,0,0,0,100,100,0,0)
PictureMove(10,null,0,0,0,0,100,100,255,0,20,true)
PictureMove(10,null,0,0,0,0,100,100,0,0,20,true)
ShowMessageFace("",0,0,2,84)
ShowMessage("Her eyes flash with a bright light, suddenly releasing my penis from its petrification.")
ShowMessageFace("",0,0,2,85)
ShowMessage("\\n<Luka>")
ShowMessage("Ah, aaah...")
ShowMessageFace("",0,0,2,86)
ShowMessage("As the sensation returns to my shaft, still inside her vagina, the stimulation is much more powerful than before.")
ShowMessageFace("",0,0,2,87)
ShowMessage("The bumps inside of her rub my shaft, now free to experience the pleasure of her vagina.")
ShowMessage("After mere seconds of feeling her, an intense climax starts to wrack my body.")
ShowMessageFace("",0,0,2,88)
ShowMessage("\\n<Luka>")
ShowMessage("Haaa... Incredible... Ah, aaaaaah!!")
RunCommonEvent(104)
PictureDisplay(6,"ev_basilisk_ct03",0,0,0,0,100,100,255,0)
RunCommonEvent(105)
ShowMessageFace("",0,0,2,89)
ShowMessage("My back arches upward as I ejaculate, exploding inside of her.")
ShowMessageFace("",0,0,2,90)
ShowMessage("I gasp in ecstasy as it feels like multiple ejaculations are stacked on top of each other, all being forced out at once.")
ShowMessage("In a trance of ecstasy, I moan as I drown in the bliss of the release finally granted to me.")
ShowMessageFace("basilisk_fc1",1,0,2,91)
ShowMessage("\\n<Basilisk Girl>")
ShowMessage("Haha, you came, you came.")
ShowMessage("Ahh, I love the feeling of semen bursting in me you can only get from denying ejaculations.")
ShowMessageFace("basilisk_fc1",1,0,2,92)
ShowMessage("\\n<Basilisk Girl>")
ShowMessage("My pussy got filled with only one burst from that once stone dick of yours...")
ShowMessage("Being able to shoot that much into me, you must have loved it too.")
ShowMessageFace("",0,0,2,93)
ShowMessage("\\n<Luka>")
ShowMessage("Auuuu...")
ShowMessageFace("",0,0,2,94)
ShowMessage("After finally tasting the ejaculation so long denied to me, my limbs go limp as I start to drool from the comfortable ecstasy of release.")
221()
PictureClear(5)
PictureClear(6)
246(2)
ShowMessageFace("",0,0,2,95)
ShowMessage("After that, I became nothing but her sex toy.")
ShowMessage("Keeping my penis half stone, she uses me as nothing but a tool to satisfy her lust.")
ShowMessageFace("",0,0,2,96)
ShowMessage("Every so often she releases the petrification to let me come inside her, but she always puts it back.")
ShowMessage("Like that, I've been degraded to little more than furniture for her exclusive use...")
ShowMessageFace("",0,0,2,97)
ShowMessage("......")
221()
242(1)
Wait(120)
355("memory_interruption")
ShowMessageFace("",0,0,2,98)
ShowMessage("You hear Ilias' voice calling out to you...")
ShowMessage("Receive her evaluation?")
ShowChoices(strings("Receive Evaluation","Change Difficulty","Reincarnate"),3)
IfPlayerPicksChoice(0,"Receive Evaluation")
 241(bytes(0x04,0x08,0x6f,0x3a,0x0d,0x52,0x50,0x47,0x3a,0x3a,0x42,0x47,0x4d,0x08,0x3a,0x0a,0x40,0x6e,0x61,0x6d,0x65,0x49,0x22,0x0a,0x69,0x72,0x69,0x61,0x73,0x06,0x3a,0x06,0x45,0x54,0x3a,0x0c,0x40,0x76,0x6f,0x6c,0x75,0x6d,0x65,0x69,0x5f,0x3a,0x0b,0x40,0x70,0x69,0x74,0x63,0x68,0x69,0x6e))
 PictureDisplay(1,"bg001",0,0,0,0,100,100,255,0)
 222()
 PictureDisplay(5,"80_iriasu_st04",0,0,0,0,100,100,0,0)
 PictureMove(5,null,0,0,0,0,100,100,255,0,30,true)
 ShowMessageFace("iriasu_fc1",3,0,2,99)
 ShowMessage("\\n<Ilias>")
 ShowMessage("Turning the penis into stone... Indeed, you could rape a male endlessly like that.")
 ShowMessage("But still, how can it feel good?")
 PictureDisplay(5,"80_iriasu_st01",0,0,0,0,100,100,255,0)
 ShowMessageFace("iriasu_fc1",0,0,2,100)
 ShowMessage("\\n<Ilias>")
 ShowMessage("The Basilisk heavily relies on attacks that inflict Petrify.")
 ShowMessage("It would be wise to equip something that prevents it.")
 ShowMessageFace("iriasu_fc1",0,0,2,101)
 ShowMessage("\\n<Ilias>")
 ShowMessage("In terms of defense there's nothing special about her, she has no resistances nor weaknesses.")
 ShowMessage("Her tolerance for status ailments is also normal so they work to a certain degree.")
 PictureDisplay(5,"80_iriasu_st02",0,0,0,0,100,100,255,0)
 ShowMessageFace("iriasu_fc1",1,0,2,102)
 ShowMessage("\\n<Ilias>")
 ShowMessage("Now go, oh Brave Luka.")
 ShowMessage("If you come back here after being turned to stone again, I'll set you up in my garden.")
 242(1)
 221()
 PictureClear(5)
 PictureClear(1)
 Wait(60)
 0()
IfPlayerPicksChoice(1,"Change Difficulty")
 ShowMessageFace("",0,0,2,103)
 ShowMessage("Please choose a difficulty level.")
 RunCommonEvent(110)
 0()
IfPlayerPicksChoice(2,"Reincarnate")
 0()
404()
RunCommonEvent(3000)
0()
