// EVENT 5426
Name "Queen Alraune"

PictureDisplay(5,"80_queenalraune_st02",0,0,0,0,100,100,0,0)
PictureMove(5,null,0,0,0,0,100,100,255,0,30,true)
ShowMessageFace("queenalraune_fc1",1,0,2,1)
ShowMessage("\\n<Alrauna>")
ShowMessage("You wish to enjoy yourself with me...?")
ShowMessageFace("",0,0,2,2)
ShowMessage("\\n<Luka>")
ShowMessage("Y-Yes please...")
ShowMessageFace("",0,0,2,3)
ShowMessage("Alrauna moves closer to me, spreading her arms wide.")
ShowMessage("Her female form, looking like it was covered in sticky mucus, moves closer to me.")
ShowMessageFace("queenalraune_fc1",1,0,2,4)
ShowMessage("\\n<Alrauna>")
ShowMessage("This female body is my pistil.")
ShowMessage("Fertilization is still possible if semen touches any part of my body...")
ShowMessageFace("queenalraune_fc1",1,0,2,5)
ShowMessage("\\n<Alrauna>")
ShowMessage("But it's more efficient this way to mate with humans.")
ShowMessageFace("",0,0,2,6)
ShowMessage("\\n<Luka>")
ShowMessage("Ah-aaaaah...")
241(bytes(0x04,0x08,0x6f,0x3a,0x0d,0x52,0x50,0x47,0x3a,0x3a,0x42,0x47,0x4d,0x08,0x3a,0x0a,0x40,0x6e,0x61,0x6d,0x65,0x49,0x22,0x09,0x65,0x72,0x6f,0x31,0x06,0x3a,0x06,0x45,0x54,0x3a,0x0c,0x40,0x76,0x6f,0x6c,0x75,0x6d,0x65,0x69,0x69,0x3a,0x0b,0x40,0x70,0x69,0x74,0x63,0x68,0x69,0x69))
250(bytes(0x04,0x08,0x6f,0x3a,0x0c,0x52,0x50,0x47,0x3a,0x3a,0x53,0x45,0x08,0x3a,0x0a,0x40,0x6e,0x61,0x6d,0x65,0x49,0x22,0x16,0x6d,0x6f,0x6e,0x5f,0x65,0x72,0x6f,0x5f,0x6d,0x61,0x6b,0x69,0x74,0x75,0x6b,0x69,0x33,0x06,0x3a,0x06,0x45,0x54,0x3a,0x0b,0x40,0x70,0x69,0x74,0x63,0x68,0x69,0x69,0x3a,0x0c,0x40,0x76,0x6f,0x6c,0x75,0x6d,0x65,0x69,0x69))
PictureDisplay(5,"ev_queenalraune_h1",0,0,0,0,100,100,255,0)
ShowMessageFace("",0,0,2,7)
ShowMessage("Alrauna draws me into a close embrace, pressing me against her mucus covered body.")
ShowMessage("My face presses against her huge breasts, causing a powerfully sweet smell to fill my head.")
ShowMessageFace("",0,0,2,8)
ShowMessage("Just from holding her warm body, I'm already shaking in pleasure.")
ShowMessageFace("",0,0,2,9)
ShowMessage("All of a sudden, I feel powerless in Alrauna's embrace...")
ShowMessageFace("queenalraune_fc1",1,0,2,10)
ShowMessage("\\n<Alrauna>")
ShowMessage("Hehe... You look comfortable, nestled in my pistil.")
ShowMessage("It's an organ solely to mate with men, so that's to be expected...")
PictureDisplay(5,"ev_queenalraune_h2",0,0,0,0,100,100,255,0)
ShowMessageFace("queenalraune_fc1",1,0,2,11)
ShowMessage("\\n<Alrauna>")
ShowMessage("Look, it can even do this...")
ShowMessage("Before we mate in earnest, let me fill that penis with some energy.")
ShowMessageFace("",0,0,2,12)
ShowMessage("\\n<Luka>")
ShowMessage("Ha... Ahh...")
245(bytes(0x04,0x08,0x6f,0x3a,0x0d,0x52,0x50,0x47,0x3a,0x3a,0x42,0x47,0x53,0x08,0x3a,0x0a,0x40,0x6e,0x61,0x6d,0x65,0x49,0x22,0x1a,0x6d,0x6f,0x6e,0x5f,0x68,0x73,0x65,0x61,0x6e,0x32,0x30,0x5f,0x74,0x65,0x6e,0x74,0x61,0x63,0x6c,0x65,0x31,0x06,0x3a,0x06,0x45,0x54,0x3a,0x0c,0x40,0x76,0x6f,0x6c,0x75,0x6d,0x65,0x69,0x55,0x3a,0x0b,0x40,0x70,0x69,0x74,0x63,0x68,0x69,0x69))
ShowMessageFace("",0,0,2,13)
ShowMessage("Tentacle-like ivy reaches out from her flowers, and wraps around my body.")
ShowMessage("Their slimy touch makes me shiver with each movement.")
ShowMessageFace("queenalraune_fc1",1,0,2,14)
ShowMessage("\\n<Alrauna>")
ShowMessage("Oh my, your penis is already so big...")
ShowMessage("Do you want to stick it in me that badly already?")
PictureDisplay(5,"ev_queenalraune_h3",0,0,0,0,100,100,255,0)
ShowMessageFace("",0,0,2,15)
ShowMessage("Even more tentacles reach out and coil around my now erect penis.")
ShowMessageFace("",0,0,2,16)
ShowMessage("They squeeze me, and stroke me up and down... Almost as if checking out my male functions.")
ShowMessageFace("",0,0,2,17)
ShowMessage("\\n<Luka>")
ShowMessage("Nnngh...!")
ShowMessageFace("",0,0,2,18)
ShowMessage("I stiffen in her embrace, as I feel a climax coming on from her tentacles toying with me.")
ShowMessageFace("queenalraune_fc1",1,0,2,19)
ShowMessage("\\n<Alrauna>")
ShowMessage("Oh? Some liquid is already leaking out...")
ShowMessage("And you're already pulsing so much.")
ShowMessageFace("",0,0,2,20)
ShowMessage("\\n<Luka>")
ShowMessage("Ah, Ahhhhh...!!")
RunCommonEvent(104)
PictureDisplay(5,"ev_queenalraune_h4",0,0,0,0,100,100,255,0)
RunCommonEvent(105)
ShowMessageFace("",0,0,2,21)
ShowMessage("In the next moment, I erupt, spraying semen out all over her slimy body.")
ShowMessageFace("",0,0,2,22)
ShowMessage("\\n<Luka>")
ShowMessage("Ah, aaah...")
ShowMessageFace("queenalraune_fc1",1,0,2,23)
ShowMessage("\\n<Alrauna>")
ShowMessage("Oh my... I was just checking out your organ, and you already released?")
ShowMessage("We haven't even started mating yet... Hehe.")
ShowMessageFace("queenalraune_fc1",1,0,2,24)
ShowMessage("\\n<Alrauna>")
ShowMessage("As I said before, this body itself is a pistil.")
ShowMessage("Any semen shot onto this is the same as going into a vagina...")
ShowMessageFace("queenalraune_fc1",1,0,2,25)
ShowMessage("\\n<Alrauna>")
ShowMessage("It doesn't matter to me, but wouldn't you rather be in my female organ...?")
ShowMessageFace("",0,0,2,26)
ShowMessage("\\n<Luka>")
ShowMessage("Unnngh...")
ShowMessageFace("",0,0,2,27)
ShowMessage("Instead of answering, my penis just twitches.")
ShowMessage("Alrauna giggles as she notices.")
ShowMessageFace("queenalraune_fc1",1,0,2,28)
ShowMessage("\\n<Alrauna>")
ShowMessage("Then let me invite you inside...")
ShowMessage("I'll squeeze out your semen with this female organ...")
ShowMessageFace("",0,0,2,29)
ShowMessage("Alrauna spreads open a hole that looks like a human female vagina.")
ShowMessageFace("",0,0,2,30)
ShowMessage("The pink insides look wavy, and covered with ribbed walls.")
ShowMessage("Deep inside, tiny little tips of vines are wiggling around.")
ShowMessageFace("",0,0,2,31)
ShowMessage("\\n<Luka>")
ShowMessage("............")
ShowMessageFace("",0,0,2,32)
ShowMessage("I look at it and swallow.")
ShowMessageFace("",0,0,2,33)
ShowMessage("My penis is going to go in there... And I'll be feeling everything inside.")
ShowMessageFace("queenalraune_fc1",1,0,2,34)
ShowMessage("\\n<Alrauna>")
ShowMessage("Hehehe, you seem to like it.")
ShowMessage("Then let me invite you inside...")
245(bytes(0x04,0x08,0x6f,0x3a,0x0d,0x52,0x50,0x47,0x3a,0x3a,0x42,0x47,0x53,0x08,0x3a,0x0a,0x40,0x6e,0x61,0x6d,0x65,0x49,0x22,0x1e,0x6d,0x6f,0x6e,0x5f,0x68,0x73,0x65,0x61,0x6e,0x31,0x30,0x5f,0x69,0x6e,0x6e,0x65,0x72,0x77,0x6f,0x72,0x6b,0x73,0x5f,0x62,0x32,0x06,0x3a,0x06,0x45,0x54,0x3a,0x0c,0x40,0x76,0x6f,0x6c,0x75,0x6d,0x65,0x69,0x55,0x3a,0x0b,0x40,0x70,0x69,0x74,0x63,0x68,0x69,0x69))
PictureDisplay(5,"ev_queenalraune_h6",0,0,0,0,100,100,255,0)
ShowMessageFace("",0,0,2,35)
ShowMessage("Alrauna pulls me closer, bringing my penis slowly inside.")
ShowMessageFace("",0,0,2,36)
ShowMessage("\\n<Luka>")
ShowMessage("Ha... ahhh...")
ShowMessageFace("",0,0,2,37)
ShowMessage("The sudden burst of pleasure from insertion is far more powerful than what I was expecting.")
ShowMessageFace("",0,0,2,38)
ShowMessage("The tiny bumps along her vaginal walls rub and stroke every inch of my penis, as my tip pushes against wavy walls as I slip deeper inside.")
ShowMessageFace("",0,0,2,39)
ShowMessage("My tip rubs against some bumps, leading me to a disappointingly fast climax.")
ShowMessageFace("",0,0,2,40)
ShowMessage("Her innermost part tightens, making me moan pathetically...")
ShowMessageFace("",0,0,2,41)
ShowMessage("\\n<Luka>")
ShowMessage("Aahh... I'm coming....!")
ShowMessageFace("queenalraune_fc1",1,0,2,42)
ShowMessage("\\n<Alrauna>")
ShowMessage("Haha... You sure are quick, after all.")
ShowMessage("But I don't mind... It just means you'll be a good stud.")
ShowMessageFace("",0,0,2,43)
ShowMessage("\\n<Luka>")
ShowMessage("Ahh...")
RunCommonEvent(104)
PictureDisplay(5,"ev_queenalraune_h7",0,0,0,0,100,100,255,0)
RunCommonEvent(105)
ShowMessageFace("",0,0,2,44)
ShowMessage("Pressing deep inside Alrauna, I explode.")
ShowMessage("The feeling of release rocks my body, as it feels like my heart and soul both leak out into her.")
ShowMessageFace("",0,0,2,45)
ShowMessage("My instinct as a man wants to give all of my body over to this sensation.")
ShowMessageFace("",0,0,2,46)
ShowMessage("\\n<Luka>")
ShowMessage("Nnngh...")
ShowMessageFace("queenalraune_fc1",1,0,2,47)
ShowMessage("\\n<Alrauna>")
ShowMessage("Haha... You sure did come a lot.")
ShowMessage("But it's not nearly enough to fill the world with the Queen's flowers.")
ShowMessageFace("queenalraune_fc1",1,0,2,48)
ShowMessage("\\n<Alrauna>")
ShowMessage("So spray all of your semen inside me...")
ShowMessageFace("",0,0,2,49)
ShowMessage("\\n<Luka>")
ShowMessage("Aaaaaah!!")
ShowMessageFace("",0,0,2,50)
ShowMessage("Her vagina suddenly shrinks far tighter.")
ShowMessageFace("",0,0,2,51)
ShowMessage("Contractions start, making a suction that feels like it could draw me all the way inside her.")
ShowMessageFace("",0,0,2,52)
ShowMessage("She demonstrates her ability to make men ejaculate on me with no mercy.\n\n")
ShowMessage("The male desire to ejaculate takes over my thoughts, as the joy of doing nothing but mating with Alrauna's hole fills my body.")
ShowMessageFace("",0,0,2,53)
ShowMessage("\\n<Luka>")
ShowMessage("Haa... Ahh...")
RunCommonEvent(104)
PictureDisplay(5,"ev_queenalraune_h8",0,0,0,0,100,100,255,0)
RunCommonEvent(105)
ShowMessageFace("",0,0,2,54)
ShowMessage("And in only moments, I'm forced to come again.")
ShowMessage("My semen pours into her, my penis happily spitting it out.")
ShowMessageFace("queenalraune_fc1",1,0,2,55)
ShowMessage("\\n<Alrauna>")
ShowMessage("Enjoy being able to mate with a Queen...")
ShowMessage("The bliss at being able to keep giving seed to my vagina.")
ShowMessageFace("",0,0,2,56)
ShowMessage("\\n<Luka>")
ShowMessage("Ah... Unnngh...")
RunCommonEvent(104)
RunCommonEvent(105)
ShowMessageFace("",0,0,2,57)
ShowMessage("I immerse myself in Alrauna's embrace and keep seeding her...")
ShowMessage("The next morning, I'm completely worn out.")
221()
PictureClear(5)
PictureClear(6)
246(2)
ShowMessageFace("",0,0,2,58)
ShowMessage("......")
RunCommonEvent(3998)
0()
