﻿// EVENT 1248
Name "Talk: Golem Girl"

If(1,20,0,1,0)
 JumpToLabel("情報")
 0()
EndIf()
If(1,20,0,2,0)
 JumpToLabel("質問")
 0()
EndIf()
If(1,20,0,3,0)
 JumpToLabel("要求")
 0()
EndIf()
If(1,20,0,4,0)
 JumpToLabel("贈与")
 0()
EndIf()
DefineLabel("情報")
ChangeVariable(13,13,0,2,1,50)
If(1,13,0,10,2)
 ShowMessageFace("golem_fc1",0,0,2,1)
 ShowMessage("\\n<Golem Girl>RESUME COMBAT...")
 EndEventProcessing()
 0()
EndIf()
If(1,13,0,20,2)
 ShowMessageFace("golem_fc1",0,0,2,2)
 ShowMessage("\\n<Golem Girl>ELIMINATE INTRUDER WITH FULL POWER...")
 EndEventProcessing()
 0()
EndIf()
If(1,13,0,30,2)
 ShowMessageFace("golem_fc1",0,0,2,3)
 ShowMessage("\\n<Golem Girl>*whirrrr*...")
 EndEventProcessing()
 0()
EndIf()
If(1,13,0,40,2)
 ShowMessageFace("golem_fc1",0,0,2,4)
 ShowMessage("\\n<Golem Girl>CHI...PA-PA...")
 EndEventProcessing()
 0()
EndIf()
If(1,13,0,50,2)
 ShowMessageFace("golem_fc1",0,0,2,5)
 ShowMessage("\\n<Golem Girl>FOLLOW ONLY THE QUEEN'S ORDERS...")
 EndEventProcessing()
 0()
EndIf()
DefineLabel("質問")
ChangeVariable(13,13,0,2,1,30)
If(1,13,0,10,2)
 ShowMessageFace("golem_fc1",0,0,2,6)
 ShowMessage("\\n<Golem Girl>GOLEM... HAS A SOUL...?")
 ShowChoices(strings("You do","You don't","What is a soul?"),0)
 IfPlayerPicksChoice(0,"ある")
  ShowMessageFace("golem_fc1",0,0,2,7)
  ShowMessage("\\n<Golem Girl>I HAVE... SOUL...\n*whirrrr*...")
  355("change_friend(10)")
  0()
 IfPlayerPicksChoice(1,"ない")
  ShowMessageFace("golem_fc1",0,0,2,8)
  ShowMessage("\\n<Golem Girl>THEN WHY WOULD I...\n*whirrrr*...")
  0()
 IfPlayerPicksChoice(2,"魂とは何だ？")
  ShowMessageFace("golem_fc1",0,0,2,9)
  ShowMessage("\\n<Golem Girl>............")
  0()
 404()
 EndEventProcessing()
 0()
EndIf()
If(1,13,0,20,2)
 ShowMessageFace("golem_fc1",0,0,2,10)
 ShowMessage("\\n<Golem Girl>WHAT IS THE PURPOSE OF GOLEM'S EXISTENCE...?")
 ShowChoices(strings("Working","Fighting","Find out for yourself"),0)
 IfPlayerPicksChoice(0,"働くこと")
  ShowMessageFace("golem_fc1",0,0,2,11)
  ShowMessage("\\n<Golem Girl>LIVE ONLY TO WORK...\n*whirrrr*...")
  355("change_friend(-5)")
  0()
 IfPlayerPicksChoice(1,"戦うこと")
  ShowMessageFace("golem_fc1",0,0,2,12)
  ShowMessage("\\n<Golem Girl>THEN, I WILL FIGHT YOU...\n*whirrrr*...")
  0()
 IfPlayerPicksChoice(2,"自分で見つけろ")
  ShowMessageFace("golem_fc1",0,0,2,13)
  ShowMessage("\\n<Golem Girl>DIFFICULT...\nBUT, THAT IS...")
  355("change_friend(10)")
  0()
 404()
 EndEventProcessing()
 0()
EndIf()
If(1,13,0,30,2)
 ShowMessageFace("golem_fc1",0,0,2,14)
 ShowMessage("\\n<Golem Girl>WHAT IS THE PURPOSE OF HUMAN EXISTENCE?")
 ShowChoices(strings("Living happily","Leaving offspring","Working"),0)
 IfPlayerPicksChoice(0,"楽しく暮らすこと")
  ShowMessageFace("golem_fc1",0,0,2,15)
  ShowMessage("\\n<Golem Girl>LIVING HAPPILY IS THE PURPOSE OF EXISTENCE...\nINCOMPREHENSIBLE...")
  0()
 IfPlayerPicksChoice(1,"子孫を残すこと")
  ShowMessageFace("golem_fc1",0,0,2,16)
  ShowMessage("\\n<Golem Girl>WHAT TO LEAVE...?\nINCOMPREHENSIBLE...")
  0()
 IfPlayerPicksChoice(2,"働くこと")
  ShowMessageFace("golem_fc1",0,0,2,17)
  ShowMessage("\\n<Golem Girl>SAME AS GOLEM...\nUNDERSTOOD...")
  355("change_friend(10)")
  0()
 404()
 EndEventProcessing()
 0()
EndIf()
DefineLabel("要求")
ChangeVariable(13,13,0,2,1,30)
If(1,13,0,10,2)
 If(8,59)
  ShowMessageFace("golem_fc1",0,0,2,18)
  ShowMessage("\\n<Golem Girl>POWER SHORTAGE...")
  ChangeVariable(24,24,0,3,0,59,0)
  ShowMessageFace("",0,0,2,19)
  ShowMessage("Do you want to give a \\ii[59]? (Have:\\V[24])")
  ShowChoices(strings("Yes","No"),2)
  IfPlayerPicksChoice(0,"Yes")
   ShowMessageFace("golem_fc1",0,0,2,20)
   ShowMessage("\\n<Golem Girl>REPLENISHMENT COMPLETE...")
   ChangeInventory_Item(59,1,0,1)
   355("change_friend(20)")
   EndEventProcessing()
   0()
  IfPlayerPicksChoice(1,"No")
   ShowMessageFace("golem_fc1",0,0,2,21)
   ShowMessage("\\n<Golem Girl>REPLENISHMENT IMPOSSIBLE...")
   EndEventProcessing()
   0()
  404()
  0()
 Else()
  ChangeVariable(13,13,0,0,20)
  0()
 EndIf()
 0()
EndIf()
If(1,13,0,20,2)
 If(8,200)
  ShowMessageFace("golem_fc1",0,0,2,22)
  ShowMessage("\\n<Golem Girl>PARTIAL MECHANICAL DAMAGE...")
  ChangeVariable(24,24,0,3,0,200,0)
  ShowMessageFace("",0,0,2,23)
  ShowMessage("Do you want to give a \\ii[200]? (Have:\\V[24])")
  ShowChoices(strings("Yes","No"),2)
  IfPlayerPicksChoice(0,"Yes")
   ShowMessageFace("golem_fc1",0,0,2,24)
   ShowMessage("\\n<Golem Girl>REPLENISHMENT COMPLETE...")
   ChangeInventory_Item(200,1,0,1)
   355("change_friend(30)")
   EndEventProcessing()
   0()
  IfPlayerPicksChoice(1,"No")
   ShowMessageFace("golem_fc1",0,0,2,25)
   ShowMessage("\\n<Golem Girl>REPLENISHMENT IMPOSSIBLE...")
   EndEventProcessing()
   0()
  404()
  0()
 Else()
  ChangeVariable(13,13,0,0,30)
  0()
 EndIf()
 0()
EndIf()
If(1,13,0,30,2)
 ShowMessageFace("golem_fc1",0,0,2,26)
 ShowMessage("\\n<Golem Girl>COLLECTING FUNDS...")
 If(7,1125,0)
  ChangeVariable(24,24,0,3,7,2,0)
  ShowMessageFace("",0,0,2,27)
  ShowMessage("Do you want to give 1125G? (Remaining:\\V[24])")
  ShowChoices(strings("Yes","No"),2)
  IfPlayerPicksChoice(0,"Yes")
   ShowMessageFace("golem_fc1",0,0,2,28)
   ShowMessage("\\n<Golem Girl>REPLENISHMENT COMPLETE...")
   125(1,0,1125)
   355("change_friend(25)")
   EndEventProcessing()
   0()
  IfPlayerPicksChoice(1,"No")
   ShowMessageFace("golem_fc1",0,0,2,29)
   ShowMessage("\\n<Golem Girl>REPLENISHMENT IMPOSSIBLE...")
   EndEventProcessing()
   0()
  404()
  0()
 Else()
  ShowMessageFace("golem_fc1",0,0,2,30)
  ShowMessage("\\n<Golem Girl>...UNABLE TO COLLECT!")
  EndEventProcessing()
  0()
 EndIf()
 0()
EndIf()
DefineLabel("贈与")
ChangeVariable(13,13,0,2,1,30)
If(1,25,0,1,0)
 ChangeVariable(13,13,0,0,30)
 ChangeVariable(25,25,0,0,0)
 0()
EndIf()
If(1,25,0,2,0)
 ChangeVariable(13,13,0,2,1,20)
 ChangeVariable(25,25,0,0,0)
 0()
EndIf()
If(1,13,0,10,2)
 ShowMessageFace("golem_fc1",0,0,2,31)
 ShowMessage("\\n<Golem Girl>PRESENT...")
 250(bytes(0x04,0x08,0x6f,0x3a,0x0c,0x52,0x50,0x47,0x3a,0x3a,0x53,0x45,0x08,0x3a,0x0a,0x40,0x6e,0x61,0x6d,0x65,0x49,0x22,0x0a,0x49,0x74,0x65,0x6d,0x31,0x06,0x3a,0x06,0x45,0x54,0x3a,0x0b,0x40,0x70,0x69,0x74,0x63,0x68,0x69,0x69,0x3a,0x0c,0x40,0x76,0x6f,0x6c,0x75,0x6d,0x65,0x69,0x55))
 ChangeInventory_Item(11,0,0,1)
 ShowMessageFace("",0,0,2,32)
 ShowMessage("The Golem Girl gave you a \\ii[11]!")
 EndEventProcessing()
 0()
EndIf()
If(1,13,0,20,2)
 ShowMessageFace("golem_fc1",0,0,2,33)
 ShowMessage("\\n<Golem Girl>PRESENT...")
 250(bytes(0x04,0x08,0x6f,0x3a,0x0c,0x52,0x50,0x47,0x3a,0x3a,0x53,0x45,0x08,0x3a,0x0a,0x40,0x6e,0x61,0x6d,0x65,0x49,0x22,0x0a,0x49,0x74,0x65,0x6d,0x31,0x06,0x3a,0x06,0x45,0x54,0x3a,0x0b,0x40,0x70,0x69,0x74,0x63,0x68,0x69,0x69,0x3a,0x0c,0x40,0x76,0x6f,0x6c,0x75,0x6d,0x65,0x69,0x55))
 ChangeInventory_Item(219,0,0,1)
 ShowMessageFace("",0,0,2,34)
 ShowMessage("The Golem Girl gave you a \\ii[219]!")
 EndEventProcessing()
 0()
EndIf()
If(1,13,0,30,2)
 ShowMessageFace("golem_fc1",0,0,2,35)
 ShowMessage("\\n<Golem Girl>PRESENT...")
 250(bytes(0x04,0x08,0x6f,0x3a,0x0c,0x52,0x50,0x47,0x3a,0x3a,0x53,0x45,0x08,0x3a,0x0a,0x40,0x6e,0x61,0x6d,0x65,0x49,0x22,0x0a,0x49,0x74,0x65,0x6d,0x31,0x06,0x3a,0x06,0x45,0x54,0x3a,0x0b,0x40,0x70,0x69,0x74,0x63,0x68,0x69,0x69,0x3a,0x0c,0x40,0x76,0x6f,0x6c,0x75,0x6d,0x65,0x69,0x55))
 125(0,0,1875)
 ShowMessageFace("",0,0,2,36)
 ShowMessage("The Golem Girl gave you 1875G!")
 EndEventProcessing()
 0()
EndIf()
0()
