// EVENT 4716
Name "Neo Iron Maiden"

If(0,25,1)
 221()
 PictureClear(5)
 PictureClear(6)
 ShowMessageFace("",0,0,2,0)
 ShowMessage("......")
 242(2)
 Wait(120)
 241(bytes(0x04,0x08,0x6f,0x3a,0x0d,0x52,0x50,0x47,0x3a,0x3a,0x42,0x47,0x4d,0x08,0x3a,0x0a,0x40,0x6e,0x61,0x6d,0x65,0x49,0x22,0x0c,0x63,0x61,0x73,0x74,0x6c,0x65,0x36,0x06,0x3a,0x06,0x45,0x54,0x3a,0x0c,0x40,0x76,0x6f,0x6c,0x75,0x6d,0x65,0x69,0x69,0x3a,0x0b,0x40,0x70,0x69,0x74,0x63,0x68,0x69,0x69))
 EndEventProcessing()
 0()
EndIf()
PictureDisplay(5,"80_ironmaiden_k_st02",0,0,0,0,100,100,255,0)
ShowMessageFace("ironmaiden_k_fc1",1,0,2,1)
ShowMessage("\\n<Torture>You want me to give you pleasure?\nI give punishment to all sinners.")
ShowMessageFace("",0,0,2,2)
ShowMessage("\\n<Luka>P-punishment...No way...!")
ShowMessageFace("",0,0,2,3)
ShowMessage("Torture uses her tentacles to pick up my body, and brings me into her opened body.")
250(bytes(0x04,0x08,0x6f,0x3a,0x0c,0x52,0x50,0x47,0x3a,0x3a,0x53,0x45,0x08,0x3a,0x0a,0x40,0x6e,0x61,0x6d,0x65,0x49,0x22,0x16,0x6d,0x6f,0x6e,0x5f,0x65,0x72,0x6f,0x5f,0x6d,0x61,0x6b,0x69,0x74,0x75,0x6b,0x69,0x33,0x06,0x3a,0x06,0x45,0x54,0x3a,0x0b,0x40,0x70,0x69,0x74,0x63,0x68,0x69,0x69,0x3a,0x0c,0x40,0x76,0x6f,0x6c,0x75,0x6d,0x65,0x69,0x69))
PictureDisplay(5,"ev_ironmaiden_k_h1",0,0,0,0,100,100,255,0)
241(bytes(0x04,0x08,0x6f,0x3a,0x0d,0x52,0x50,0x47,0x3a,0x3a,0x42,0x47,0x4d,0x08,0x3a,0x0a,0x40,0x6e,0x61,0x6d,0x65,0x49,0x22,0x09,0x65,0x72,0x6f,0x31,0x06,0x3a,0x06,0x45,0x54,0x3a,0x0c,0x40,0x76,0x6f,0x6c,0x75,0x6d,0x65,0x69,0x69,0x3a,0x0b,0x40,0x70,0x69,0x74,0x63,0x68,0x69,0x69))
ShowMessageFace("",0,0,2,4)
ShowMessage("The nightmarish tentacles writhe and squirm around me, as her lid slowly starts to close with me inside...")
ShowMessageFace("",0,0,2,5)
ShowMessage("\\n<Luka>H...help me!")
ShowMessageFace("",0,0,2,6)
ShowMessage("I beg Torture to stop.")
ShowMessageFace("ironmaiden_k_fc1",1,0,2,7)
ShowMessage("\\n<Torture>...I will give you pleasurable stimulation now.")
ShowMessageFace("ironmaiden_k_fc1",1,0,2,8)
ShowMessage("\\n<Torture>If you ejaculate within one minute, you will be confirmed as a criminal and executed.")
ShowMessageFace("ironmaiden_k_fc1",1,0,2,9)
ShowMessage("\\n<Torture>If you do not ejaculate within that minute, your innocence will be confirmed, and I will release you at once.")
ShowMessageFace("",0,0,2,10)
ShowMessage("\\n<Luka>One minute...!?")
ShowMessageFace("",0,0,2,11)
ShowMessage("Even if she has her own will, that seems more like an instruction given to her by her original creator...")
ShowMessageFace("",0,0,2,12)
ShowMessage("Squeeze criminals to death...\nThe original purpose of her creation.")
ShowMessageFace("",0,0,2,13)
ShowMessage("And all I have to do is endure it for a minute to be released...?")
ShowMessageFace("",0,0,2,14)
ShowMessage("\\n<Luka>Urhg...!")
ShowMessageFace("",0,0,2,15)
ShowMessage("I clench my teeth and get ready to endure the trial.")
PictureDisplay(5,"ev_ironmaiden_k_h2",0,0,0,0,100,100,255,0)
245(bytes(0x04,0x08,0x6f,0x3a,0x0d,0x52,0x50,0x47,0x3a,0x3a,0x42,0x47,0x53,0x08,0x3a,0x0a,0x40,0x6e,0x61,0x6d,0x65,0x49,0x22,0x1e,0x6d,0x6f,0x6e,0x5f,0x68,0x73,0x65,0x61,0x6e,0x31,0x32,0x5f,0x69,0x6e,0x6e,0x65,0x72,0x77,0x6f,0x72,0x6b,0x73,0x5f,0x63,0x32,0x06,0x3a,0x06,0x45,0x54,0x3a,0x0c,0x40,0x76,0x6f,0x6c,0x75,0x6d,0x65,0x69,0x55,0x3a,0x0b,0x40,0x70,0x69,0x74,0x63,0x68,0x69,0x69))
ShowMessageFace("",0,0,2,16)
ShowMessage("At the same time, the countless internal tentacles start to squirm around.")
ShowMessageFace("",0,0,2,17)
ShowMessage("Secreting a strange, slimy liquid, they start creeping around over my body. On their tips, the tiny little bumps give particularly intense stimulation wherever they touch.")
ShowMessageFace("",0,0,2,18)
ShowMessage("\\n<Luka>Ah, unnngh...")
ShowMessageFace("",0,0,2,19)
ShowMessage("The intense stimulation hits every inch of my body at once.\nMy neck, my ass, my nipples... Everything is touched all at the same time.")
ShowMessageFace("",0,0,2,20)
ShowMessage("That alone is almost enough to send me over the edge.")
ShowMessageFace("",0,0,2,21)
ShowMessage("\\n<Luka>Hauuu...")
ShowMessageFace("",0,0,2,22)
ShowMessage("Moreover, her elastic tentacles wind around my penis.\nThey gently stroke it up and down.")
ShowMessageFace("",0,0,2,23)
ShowMessage("Wound around my dick, they start to tighten.\nHer thorough rubbing feels very relaxing.")
ShowMessageFace("",0,0,2,24)
ShowMessage("The bumps on the tip of her tentacles rub my glans as well.\nA unique stimulation floods my sensitive tip...")
ShowMessageFace("",0,0,2,25)
ShowMessage("\\n<Luka>Unnngh...That feels good...")
ShowMessageFace("",0,0,2,26)
ShowMessage("The intense pleasure makes my body relax...")
ShowMessageFace("",0,0,2,27)
ShowMessage("But if I ejaculate here, she's going to execute me.")
ShowMessageFace("",0,0,2,28)
ShowMessage("Somehow or another, I have to hold back and not give in.")
ShowMessageFace("ironmaiden_k_fc1",1,0,2,29)
ShowMessage("\\n<Torture>Biological reaction to pleasure confirmed.\nContinuing the stimulation...")
ShowMessageFace("",0,0,2,30)
ShowMessage("The tentacles crawl all over my body, as if trying to make sure they know every part of me. At the same time, they stroke and massage my penis, trying to force an orgasm.")
ShowMessageFace("",0,0,2,31)
ShowMessage("It's not a violent or intense stimulation, but it's hitting every inch of my body at once. When aroused, the pleasure is almost too much to take.")
ShowMessageFace("",0,0,2,32)
ShowMessage("\\n<Luka>Ah, unnngh...")
ShowMessageFace("",0,0,2,33)
ShowMessage("Not even a minute, it hasn't even been thirty seconds yet... But I can already feel my penis wanting to blow in this pleasure.")
ShowMessageFace("",0,0,2,34)
ShowMessage("My instinct as a male is wanting to come, and bask in this pleasure.")
ShowMessageFace("",0,0,2,35)
ShowMessage("\\n<Luka>Ahh... I can't come...")
ShowMessageFace("",0,0,2,36)
ShowMessage("Focusing more and more on my penis, the tips of the tentacles start stroking my glans with more and more intensity.")
ShowMessageFace("",0,0,2,37)
ShowMessage("As they massage me, the weakness and desire to release get ever more overpowering.")
ShowMessageFace("",0,0,2,38)
ShowMessage("\\n<Luka>No... Coming...")
ShowMessageFace("",0,0,2,39)
ShowMessage("If I ejaculate, a torture of pleasure will start...\nBut the desire to taste it is starting to take hold in me.")
ShowMessageFace("",0,0,2,40)
ShowMessage("If I ejaculate, something even more intense will start.\nAs the stimulation gets ever more intense, I can't push away the almost suicidal thoughts...")
ShowMessageFace("",0,0,2,41)
ShowMessage("\\n<Luka>Ah, aaah...ah...")
ShowMessageFace("",0,0,2,42)
ShowMessage("I'm going to give up and come.\nThen I can experience even more intense pleasure.")
ShowMessageFace("",0,0,2,43)
ShowMessage("Giving up to that devilish whisper echoing through my head, I relax my body and give myself over.")
ShowMessageFace("",0,0,2,44)
ShowMessage("\\n<Luka>Th-that feels so good...Aaaah...!")
ShowMessageFace("",0,0,2,45)
ShowMessage("Since I surrendered mentally, the physical surrender was quick to come. My lower body explodes in release, as my penis pulses in joy.")
RunCommonEvent(104)
PictureDisplay(5,"ev_ironmaiden_k_h3",0,0,0,0,100,100,255,0)
RunCommonEvent(105)
ShowMessageFace("",0,0,2,46)
ShowMessage("\\n<Luka>Nnngh...")
ShowMessageFace("",0,0,2,47)
ShowMessage("With numbing pleasure spreading through me, I explode, showering my semen all over the writhing tentacles.")
246(1)
ShowMessageFace("",0,0,2,48)
ShowMessage("\\n<Luka>Ah... Ugh...")
ShowMessageFace("",0,0,2,49)
ShowMessage("After the temporary pleasure starts to fade, I'm hit by a deep sense of regret. I came all over these tentacles...")
ShowMessageFace("",0,0,2,50)
ShowMessage("This torture device forced so much pleasure into me, that I willingly became its prey.")
ShowMessageFace("ironmaiden_k_fc1",1,0,2,51)
ShowMessage("\\n<Torture>Ejaculation confirmed...\nYou have been confirmed as a criminal, and your execution by pleasure will now begin.")
ShowMessageFace("",0,0,2,52)
ShowMessage("\\n<Luka>S...stop! Ahhh!")
245(bytes(0x04,0x08,0x6f,0x3a,0x0d,0x52,0x50,0x47,0x3a,0x3a,0x42,0x47,0x53,0x08,0x3a,0x0a,0x40,0x6e,0x61,0x6d,0x65,0x49,0x22,0x1e,0x6d,0x6f,0x6e,0x5f,0x68,0x73,0x65,0x61,0x6e,0x31,0x33,0x5f,0x69,0x6e,0x6e,0x65,0x72,0x77,0x6f,0x72,0x6b,0x73,0x5f,0x63,0x33,0x06,0x3a,0x06,0x45,0x54,0x3a,0x0c,0x40,0x76,0x6f,0x6c,0x75,0x6d,0x65,0x69,0x55,0x3a,0x0b,0x40,0x70,0x69,0x74,0x63,0x68,0x69,0x69))
PictureClear(6)
PictureDisplay(5,"ev_ironmaiden_k_h5",0,0,0,0,100,100,255,0)
ShowMessageFace("",0,0,2,53)
ShowMessage("The tentacles inside her all start moving at once, coiling around my entire body. All at once, they start to squirm and wriggle around with an intensity unlike before.")
ShowMessageFace("",0,0,2,54)
ShowMessage("It's like I'm simple prey, being attacked and devoured by thousands of tentacles all around me.")
ShowMessageFace("",0,0,2,55)
ShowMessage("\\n<Luka>Ahhhh!\nHelp me! Hyaaa!")
ShowMessageFace("",0,0,2,56)
ShowMessage("At the same time, many layers of tentacles all coil and wrap around my penis, torturing my most sensitive place the same time as the rest of my body.")
ShowMessageFace("",0,0,2,57)
ShowMessage("\\n<Luka>Stop! Aiieee!")
ShowMessageFace("",0,0,2,58)
ShowMessage("Still wrapped around my penis, the mass of tentacles starts to quickly stroke and pump my penis up and down.")
ShowMessageFace("",0,0,2,59)
ShowMessage("The incredible increase in stimulation sends me into a mad agony of pleasure.")
ShowMessageFace("",0,0,2,60)
ShowMessage("\\n<Luka>Ah, ahhhh!")
RunCommonEvent(104)
PictureDisplay(5,"ev_ironmaiden_k_h6",0,0,0,0,100,100,255,0)
RunCommonEvent(105)
ShowMessageFace("",0,0,2,61)
ShowMessage("Unable to endure the torture at all, I come in almost an instant. Even during my ejaculation, the intense stimulation isn't slowed down for a moment.")
ShowMessageFace("",0,0,2,62)
ShowMessage("Almost like a machine, the pleasure isn't let up for even a moment. Torture really is going to break me at this rate.")
ShowMessageFace("",0,0,2,63)
ShowMessage("\\n<Luka>Hyaaa!!\nStop, help me!")
ShowMessageFace("",0,0,2,64)
ShowMessage("This torture device was designed to execute a man without mercy. Begging her won't stop this hell of pleasure...")
ShowMessageFace("",0,0,2,65)
ShowMessage("Stuck inside her, she will just squeeze out my semen until I die. Wallowing in misery and despair, I start crying.")
ShowMessageFace("",0,0,2,66)
ShowMessage("\\n<Luka>Hyaaa!\nHelp!")
RunCommonEvent(104)
RunCommonEvent(105)
ShowMessageFace("",0,0,2,67)
ShowMessage("I'm forced to another powerful height in seconds.\nBut just as before, Torture doesn't slow down for even a moment.")
ShowMessageFace("",0,0,2,68)
ShowMessage("No matter how much I come, this assault won't stop.\nUntil I'm executed, I won't escape from this hell of pleasure...")
RunCommonEvent(104)
RunCommonEvent(105)
ShowMessageFace("",0,0,2,69)
ShowMessage("\\n<Luka>Hyaaa!!")
ShowMessageFace("",0,0,2,70)
ShowMessage("Mobbed by the tentacles, I scream as semen and tears shoot out of my body.")
ShowMessageFace("",0,0,2,71)
ShowMessage("Stuck inside Torture's body, my semen is forcibly squeezed out one orgasm after another.")
RunCommonEvent(104)
RunCommonEvent(105)
ShowMessageFace("",0,0,2,72)
ShowMessage("\\n<Luka>Ahhg... Aiee!")
ShowMessageFace("",0,0,2,73)
ShowMessage("My body spasms in the storm of pleasure.")
ShowMessageFace("",0,0,2,74)
ShowMessage("I can't even think clearly any longer, my vision just blinking white as my reason is destroyed.")
RunCommonEvent(104)
RunCommonEvent(105)
ShowMessageFace("",0,0,2,75)
ShowMessage("\\n<Luka>Ah... Hyaa...")
ShowMessageFace("",0,0,2,76)
ShowMessage("As my body rejoices, my mind is destroyed.\nThis pleasure hell is killing me...")
ShowMessageFace("",0,0,2,77)
ShowMessage("I can't even think anymore...\nI can't focus on anything but the overwhelming pleasure.")
RunCommonEvent(104)
RunCommonEvent(105)
ShowMessageFace("",0,0,2,78)
ShowMessage("\\n<Luka>Ahg... Urgh...")
ShowMessageFace("",0,0,2,79)
ShowMessage("Suddenly, it feels like the part of my brain that processes pleasure snaps. At the same time, I lost all control of my body, and my vision starts to go dark.")
ShowMessageFace("",0,0,2,80)
ShowMessage("Even then, I can sense that my body is still ejaculating... But fading into the darkness, it stops mattering...")
221()
PictureClear(5)
246(2)
ShowMessageFace("ironmaiden_k_fc1",1,0,2,81)
ShowMessage("\\n<Torture>Pleasure tolerance has been exceeded...\nCriminal's death has been confirmed.")
ShowMessageFace("",0,0,2,82)
ShowMessage("Another man was killed by Torture.\nHis last moments were of pleasure so intense, it fried his brain...")
ShowMessageFace("",0,0,2,83)
ShowMessage("......")
242(2)
Wait(120)
ChangeVariable(1002,1002,0,0,0)
216(1)
355("forced_transfer(154,18,52)")
355("release_temp_actors")
355("$game_map.screen.clear")
0()
