﻿// EVENT 0553
Name "RC:きつね"

If(1,1099,0,2,0)
 ShowMessageFace("youko_fc1",0,0,2,1)
 ShowMessage("【きつね】")
 ShowMessage("食堂のオムライスは、最高だよね♪")
 ShowMessage("かむろちゃんは、また五目ごはん？")
 ShowMessageFace("kamuro_fc1",1,0,2,2)
 ShowMessage("【かむろ】")
 ShowMessage("五目ごはん、大好きなので……♪")
 ShowMessage("ルカさんも、ご一緒しませんか？")
 0()
EndIf()
If(1,1099,0,3,0)
 ShowMessageFace("youko_fc1",0,0,2,3)
 ShowMessage("【きつね】")
 ShowMessage("七尾様に、術を教わってるんだよ。")
 ShowMessage("いつもの教室は使えないから、廊下でやってるんだ。")
 ShowMessageFace("nanabi_fc1",0,0,2,4)
 ShowMessage("【七尾】")
 ShowMessage("せっかくですし、あなたもどうですか？")
 ShowMessage("勉強になるかもしれませんよ……")
 0()
EndIf()
DefineLabel("メイン")
If(1,1099,0,2,0)
 355("ex_choice_add(\"一緒に食事する（時間経過）\",1,")
 655("\"v[1098] >= 5\",0)")
 0()
EndIf()
If(1,1099,0,3,0)
 355("ex_choice_add(\"術を学ぶ（時間経過）\",1,")
 655("\"v[1098] >= 5\",0)")
 0()
EndIf()
355("ex_choice_add(\"異変について相談する\",2,")
655("\"s[2341]\",0)")
655("ex_choice_add(\"後悔していることについて聞く\",3,")
655("\"s[2342]\",0)")
655("ex_choice_add(\"時を繰り返す道具について聞く\",4,")
655("\"s[2343]\",0)")
655("ex_choice_add(\"ピザを注文したか聞く\",5,")
655("\"s[2345]\",0)")
355("ex_choice_add(\"謎のマキナについて聞く\",6,")
655("\"s[2365]\",0)")
655("ex_choice_add(\"作戦に必要な品について聞く\",7,")
655("\"s[2364]\",0)")
655("ex_choice_add(\"お茶会に誘う\",8,")
655("\"s[2378]\",0)")
655("ex_choice_add(\"立ち去る\",10)")
355("ex_choice_show(0,11,[0,0])")
If(1,9,0,1,0)
 If(1,1099,0,2,0)
  221()
  205(32,bytes(0x04,0x08,0x6f,0x3a,0x13,0x52,0x50,0x47,0x3a,0x3a,0x4d,0x6f,0x76,0x65,0x52,0x6f,0x75,0x74,0x65,0x09,0x3a,0x0c,0x40,0x72,0x65,0x70,0x65,0x61,0x74,0x46,0x3a,0x0f,0x40,0x73,0x6b,0x69,0x70,0x70,0x61,0x62,0x6c,0x65,0x46,0x3a,0x0a,0x40,0x77,0x61,0x69,0x74,0x54,0x3a,0x0a,0x40,0x6c,0x69,0x73,0x74,0x5b,0x07,0x6f,0x3a,0x15,0x52,0x50,0x47,0x3a,0x3a,0x4d,0x6f,0x76,0x65,0x43,0x6f,0x6d,0x6d,0x61,0x6e,0x64,0x07,0x3a,0x0a,0x40,0x63,0x6f,0x64,0x65,0x69,0x17,0x3a,0x10,0x40,0x70,0x61,0x72,0x61,0x6d,0x65,0x74,0x65,0x72,0x73,0x5b,0x00,0x6f,0x3b,0x0a,0x07,0x3b,0x0b,0x69,0x00,0x3b,0x0c,0x5b,0x00))
  TeleportPlayer(0,78,41,10,4,2)
  222()
  ShowMessageFace("youko_fc1",0,0,2,5)
  ShowMessage("【きつね】")
  ShowMessage("オムライスにあぶらあげを乗せたら、")
  ShowMessage("もっと美味しくなるんじゃないかな？")
  ShowMessageFace("kamuro_fc1",2,0,2,6)
  ShowMessage("【かむろ】")
  ShowMessage("それにケチャップをかけるんですか……？")
  ShowMessage("あまり合わない気がしますけど……")
  ShowMessageFace("youko_fc1",1,0,2,7)
  ShowMessage("【きつね】")
  ShowMessage("ケチャップは何にでも合うと思うの。")
  ShowMessage("かむろちゃんが食べてる五目ごはんにも……")
  ShowMessageFace("kamuro_fc1",2,0,2,8)
  ShowMessage("【かむろ】")
  ShowMessage("ああっ！　きつね先輩、やめて！")
  ShowMessage("私の五目ごはんはやめて下さい～！")
  ShowMessageFace("",0,0,2,9)
  ShowMessage("きつね達と一緒に食事をした……")
  RunCommonEvent(540)
  EndEventProcessing()
  0()
 EndIf()
 If(1,1099,0,3,0)
  221()
  205(55,bytes(0x04,0x08,0x6f,0x3a,0x13,0x52,0x50,0x47,0x3a,0x3a,0x4d,0x6f,0x76,0x65,0x52,0x6f,0x75,0x74,0x65,0x09,0x3a,0x0c,0x40,0x72,0x65,0x70,0x65,0x61,0x74,0x46,0x3a,0x0f,0x40,0x73,0x6b,0x69,0x70,0x70,0x61,0x62,0x6c,0x65,0x46,0x3a,0x0a,0x40,0x77,0x61,0x69,0x74,0x54,0x3a,0x0a,0x40,0x6c,0x69,0x73,0x74,0x5b,0x07,0x6f,0x3a,0x15,0x52,0x50,0x47,0x3a,0x3a,0x4d,0x6f,0x76,0x65,0x43,0x6f,0x6d,0x6d,0x61,0x6e,0x64,0x07,0x3a,0x0a,0x40,0x63,0x6f,0x64,0x65,0x69,0x17,0x3a,0x10,0x40,0x70,0x61,0x72,0x61,0x6d,0x65,0x74,0x65,0x72,0x73,0x5b,0x00,0x6f,0x3b,0x0a,0x07,0x3b,0x0b,0x69,0x00,0x3b,0x0c,0x5b,0x00))
  TeleportPlayer(0,78,32,24,8,2)
  222()
  ShowMessageFace("youko_fc1",2,0,2,10)
  ShowMessage("【きつね】")
  ShowMessage("難しい詠唱、こんなにたくさん覚えられないよ～！")
  ShowMessageFace("youko_fc1",0,0,2,11)
  ShowMessage("【きつね】")
  ShowMessage("でも、別に覚える必要ないんじゃない？")
  ShowMessage("詠唱とか、適当でも術が出て来るし。")
  ShowMessageFace("kamuro_fc1",0,0,2,12)
  ShowMessage("【かむろ】")
  ShowMessage("（きつね先輩、なんで適当な詠唱で術が使えるんだろう……")
  ShowMessage("　今度、たまも様に聞いてみないと）")
  ShowMessageFace("nanabi_fc1",2,0,2,13)
  ShowMessage("【七尾】")
  ShowMessage("（この子、なんで適当な詠唱で術が使えるのでしょう……")
  ShowMessage("　今度、たまも様に聞いてみましょうか）")
  ShowMessageFace("",0,0,2,14)
  ShowMessage("きつね達と術の勉強をして過ごした……")
  RunCommonEvent(540)
  EndEventProcessing()
  0()
 EndIf()
 0()
EndIf()
If(1,9,0,2,0)
 ShowMessageFace("",0,0,2,15)
 ShowMessage("ルカは、異変について相談した……")
 ShowMessageFace("youko_fc1",0,0,2,16)
 ShowMessage("【きつね】")
 ShowMessage("すご～い、なんだか面白いね！")
 ShowMessage("ワクワクしてこない？")
 ShowMessageFace("",0,0,2,17)
 ShowMessage("きつねは頼れそうにない……")
 JumpToLabel("メイン")
 0()
EndIf()
If(1,9,0,3,0)
 ShowMessageFace("youko_fc1",0,0,2,18)
 ShowMessage("【きつね】")
 ShowMessage("後悔はしない主義だよ。")
 ShowMessage("いい事、あんまりないもんね。")
 ShowMessageFace("",0,0,2,19)
 ShowMessage("有益な情報は得られなかった……")
 JumpToLabel("メイン")
 0()
EndIf()
If(1,9,0,4,0)
 ShowMessageFace("youko_fc1",0,0,2,20)
 ShowMessage("【きつね】")
 ShowMessage("そんな道具、あったら欲しいな～！")
 ShowMessageFace("",0,0,2,21)
 ShowMessage("有益な情報は得られなかった……")
 JumpToLabel("メイン")
 0()
EndIf()
If(1,9,0,5,0)
 ShowMessageFace("youko_fc1",0,0,2,22)
 ShowMessage("【きつね】")
 ShowMessage("配達？　知らないよ？")
 ShowMessage("誰が届けてるの？　ゴブちゃん？")
 ShowMessageFace("",0,0,2,23)
 ShowMessage("ピザを頼んだのはきつねではないようだ……")
 JumpToLabel("メイン")
 0()
EndIf()
If(1,9,0,6,0)
 ShowMessageFace("youko_fc1",0,0,2,24)
 ShowMessage("【きつね】")
 ShowMessage("これは、なんだろ……")
 ShowMessage("う～ん、お財布？")
 ShowMessageFace("kamuro_fc1",0,0,2,25)
 ShowMessage("【かむろ】")
 ShowMessage("きつね先輩、クイズではないと思いますよ……")
 ShowMessageFace("",0,0,2,26)
 ShowMessage("有益な情報は得られなかった……")
 JumpToLabel("メイン")
 0()
EndIf()
If(1,9,0,7,0)
 If(0,2421,1)
  ShowMessageFace("youko_fc1",1,0,2,27)
  ShowMessage("【きつね】")
  ShowMessage("悪者を足止めしたいって？")
  ShowMessage("それじゃあ、あたしのとっておきを貸してあげる♪")
  ChangeSwitch(2421,2421,0)
  250(bytes(0x04,0x08,0x6f,0x3a,0x0c,0x52,0x50,0x47,0x3a,0x3a,0x53,0x45,0x08,0x3a,0x0a,0x40,0x6e,0x61,0x6d,0x65,0x49,0x22,0x0a,0x49,0x74,0x65,0x6d,0x31,0x06,0x3a,0x06,0x45,0x54,0x3a,0x0b,0x40,0x70,0x69,0x74,0x63,0x68,0x69,0x69,0x3a,0x0c,0x40,0x76,0x6f,0x6c,0x75,0x6d,0x65,0x69,0x55))
  ShowMessageFace("",0,0,2,28)
  ShowMessage("まきびしを手に入れた！")
  ShowMessageFace("kamuro_fc1",2,0,2,29)
  ShowMessage("【かむろ】")
  ShowMessage("きつね先輩……")
  ShowMessage("これは絶対に効かないと思うんですけど……")
  ShowMessageFace("youko_fc1",1,0,2,30)
  ShowMessage("【きつね】")
  ShowMessage("まあ、使ってごらんよ。")
  ShowMessage("すっごく効くから……ね♪")
  JumpToLabel("メイン")
  0()
 EndIf()
 If(0,2421,0)
  ShowMessageFace("youko_fc1",1,0,2,31)
  ShowMessage("【きつね】")
  ShowMessage("そのまきびしは、すごいよ。")
  ShowMessage("間違えて踏んだ時、すっごく痛かったんだから……")
  ShowMessageFace("kamuro_fc1",2,0,2,32)
  ShowMessage("【かむろ】")
  ShowMessage("いや、たぶん効きませんよ……")
  JumpToLabel("メイン")
  0()
 EndIf()
 0()
EndIf()
If(1,9,0,8,0)
 If(1,1113,0,4,5)
  If(1,1114,0,4,5)
   ShowMessageFace("youko_fc1",0,0,2,33)
   ShowMessage("【きつね】")
   ShowMessage("わぁっ、とっても楽しそう！")
   ShowMessage("いくいく～！！")
   ShowMessageFace("kamuro_fc1",2,0,2,34)
   ShowMessage("【かむろ】")
   ShowMessage("きつね先輩、怖いものなしですか……")
   If(1,1116,0,2,0)
    ChangeVariable(1116,1116,0,0,3)
    ChangeVariable(1115,1115,0,0,4)
    ChangeSwitch(2378,2378,1)
    0()
   EndIf()
   If(1,1116,0,1,0)
    ChangeVariable(1116,1116,0,0,2)
    ChangeVariable(1114,1114,0,0,4)
    0()
   EndIf()
   If(1,1116,0,0,0)
    ChangeVariable(1116,1116,0,0,1)
    ChangeVariable(1113,1113,0,0,4)
    0()
   EndIf()
   249(bytes(0x04,0x08,0x6f,0x3a,0x0c,0x52,0x50,0x47,0x3a,0x3a,0x4d,0x45,0x08,0x3a,0x0a,0x40,0x6e,0x61,0x6d,0x65,0x49,0x22,0x10,0x6d,0x6f,0x6e,0x5f,0x66,0x61,0x6e,0x66,0x61,0x6c,0x65,0x06,0x3a,0x06,0x45,0x54,0x3a,0x0b,0x40,0x70,0x69,0x74,0x63,0x68,0x69,0x69,0x3a,0x0c,0x40,0x76,0x6f,0x6c,0x75,0x6d,0x65,0x69,0x69))
   ShowMessageFace("",0,0,2,35)
   ShowMessage("きつねはお茶会の誘いに乗った！")
   JumpToLabel("メイン")
   0()
  EndIf()
  0()
 EndIf()
 ShowMessageFace("",0,0,2,36)
 ShowMessage("すでにお茶会に招待している……")
 If(1,1116,0,1,0)
  ShowMessageFace("",0,0,2,37)
  ShowMessage("黒のアリスのお茶会に招待したのは、これで一人。")
  ShowMessage("あと二人、参加者を集めよう！")
  0()
 EndIf()
 If(1,1116,0,2,0)
  ShowMessageFace("",0,0,2,38)
  ShowMessage("黒のアリスのお茶会に招待したのは、これで二人。")
  ShowMessage("あと一人、参加者を集めよう！")
  0()
 EndIf()
 If(1,1116,0,3,0)
  ShowMessageFace("",0,0,2,39)
  ShowMessage("黒のアリスのお茶会に招待したのは、これで三人。")
  ShowMessage("四時になったら、黒のアリスの部屋に行こう！")
  0()
 EndIf()
 JumpToLabel("メイン")
 0()
EndIf()
EndEventProcessing()
0()
