// EVENT 5692
Name "Aria Lamia 2"

PictureDisplay(5,"80_cirqueb_st31",0,0,0,0,100,100,255,0)
ShowMessageFace("cirqueb_fc4",0,0,2,1)
ShowMessage("\\n<Aria Lamia>")
ShowMessage("You want pleasure from me...?")
ShowMessageFace("",0,0,2,2)
ShowMessage("\\n<Luka>Y-Yes... Please...")
ShowMessageFace("cirqueb_fc4",0,0,2,3)
ShowMessage("\\n<Aria Lamia>")
ShowMessage("Very well, then come to my room...")
ShowMessageFace("",0,0,2,4)
ShowMessage("I follow her to their room...")
221()
PictureDisplay(1,"bg195",0,0,0,0,100,100,255,0)
PictureDisplay(5,"ev_cirque_he06",0,0,0,0,100,100,255,0)
222()
241(bytes(0x04,0x08,0x6f,0x3a,0x0d,0x52,0x50,0x47,0x3a,0x3a,0x42,0x47,0x4d,0x08,0x3a,0x0a,0x40,0x6e,0x61,0x6d,0x65,0x49,0x22,0x09,0x65,0x72,0x6f,0x31,0x06,0x3a,0x06,0x45,0x54,0x3a,0x0c,0x40,0x76,0x6f,0x6c,0x75,0x6d,0x65,0x69,0x69,0x3a,0x0b,0x40,0x70,0x69,0x74,0x63,0x68,0x69,0x69))
ShowMessageFace("cirqueb_fc4",0,0,2,5)
ShowMessage("\\n<Aria Lamia>")
ShowMessage("Now then, how shall I pleasure you...?")
ShowMessageFace("",0,0,2,6)
ShowMessage("\\n<Luka>A-Ahh...")
ShowMessageFace("",0,0,2,7)
ShowMessage("The bizarre body before me makes me start to doubt my actions.")
ShowMessage("Her snake-like arms coil around my body, holding me close to her.")
ShowMessageFace("",0,0,2,8)
ShowMessage("Her head stretches forward, staring at me right in the face.")
ShowMessage("It's like I'm prey before a huge snake...")
ShowMessageFace("cirqueb_fc4",0,0,2,9)
ShowMessage("\\n<Aria Lamia>")
ShowMessage("Fufu, there's no need to be so scared.")
ShowMessage("I'll give you unheard of pleasure...")
PictureDisplay(5,"ev_cirque_he07",0,0,0,0,100,100,255,0)
ShowMessageFace("",0,0,2,10)
ShowMessage("Aria Lamia's tongue reaches out, and licks my face.")
ShowMessage("At the same time, her lower abdomen cracks open.")
ShowMessageFace("",0,0,2,11)
ShowMessage("A tiny slit opens.")
ShowMessage("Inside, I can see bright pink flesh.")
ShowMessageFace("cirqueb_fc4",0,0,2,12)
ShowMessage("\\n<Aria Lamia>")
ShowMessage("Now, let's unite as one.")
ShowMessage("Stick yourself in here...")
ShowMessageFace("",0,0,2,13)
ShowMessage("\\n<Luka>Th-that's...")
ShowMessageFace("",0,0,2,14)
ShowMessage("Mucus is oozing from her slit, her interior flesh visibly moving.")
ShowMessage("I can see tiny tentacles moving inside, as well.")
ShowMessageFace("",0,0,2,15)
ShowMessage("I nervously swallow as I look at her bizarre hole.")
ShowMessageFace("cirqueb_fc4",0,0,2,16)
ShowMessage("\\n<Aria Lamia>")
ShowMessage("Then allow me...")
ShowMessageFace("",0,0,2,17)
ShowMessage("Aria Lamia slowly presses herself against me...")
ShowMessageFace("",0,0,2,18)
ShowMessage("\\n<Luka>A-Ahhh...!")
245(bytes(0x04,0x08,0x6f,0x3a,0x0d,0x52,0x50,0x47,0x3a,0x3a,0x42,0x47,0x53,0x08,0x3a,0x0a,0x40,0x6e,0x61,0x6d,0x65,0x49,0x22,0x1a,0x6d,0x6f,0x6e,0x5f,0x68,0x73,0x65,0x61,0x6e,0x32,0x30,0x5f,0x74,0x65,0x6e,0x74,0x61,0x63,0x6c,0x65,0x31,0x06,0x3a,0x06,0x45,0x54,0x3a,0x0c,0x40,0x76,0x6f,0x6c,0x75,0x6d,0x65,0x69,0x55,0x3a,0x0b,0x40,0x70,0x69,0x74,0x63,0x68,0x69,0x69))
PictureDisplay(5,"ev_cirque_he08",0,0,0,0,100,100,255,0)
ShowMessageFace("",0,0,2,19)
ShowMessage("My penis sinks into that squirming hole.")
ShowMessage("Buried to the root, her tiny inner tentacles all swarm my penis.")
ShowMessageFace("",0,0,2,20)
ShowMessage("Once inside, her flesh closes around me, locking me in.")
ShowMessage("The combined stimulation causes my initial fears to fly away.")
ShowMessageFace("",0,0,2,21)
ShowMessage("\\n<Luka>Th-that feels good... Ahhh...")
ShowMessageFace("",0,0,2,22)
ShowMessage("My eyes roll black at the sensation.")
ShowMessage("It's like I'm melting away in some kind of tight organ.")
ShowMessageFace("",0,0,2,23)
ShowMessage("My waist trembles as I go weak.")
ShowMessage("I can't endure this pleasure for long.")
ShowMessageFace("cirqueb_fc4",0,0,2,24)
ShowMessage("\\n<Aria Lamia>")
ShowMessage("Isn't it wonderful?")
ShowMessage("Now, go ahead and release yourself...")
ShowMessageFace("",0,0,2,25)
ShowMessage("\\n<Luka>Hauuu... A-Ahhh...!")
ShowMessage("A-Amazing...")
ShowMessageFace("",0,0,2,26)
ShowMessage("Her flesh seductively rubs me.")
ShowMessage("At the same time, the tiny tentacles start to focus on rubbing my glans.")
ShowMessageFace("",0,0,2,27)
ShowMessage("I could melt away in this...")
ShowMessage("All too soon, I feel a spark run up my spine and into my waist.")
ShowMessageFace("",0,0,2,28)
ShowMessage("\\n<Luka>Ah... I'm coming already...!")
RunCommonEvent(104)
PictureDisplay(5,"ev_cirque_he09",0,0,0,0,100,100,255,0)
RunCommonEvent(105)
ShowMessageFace("",0,0,2,29)
ShowMessage("I explode inside her in only moments.")
ShowMessage("As my penis pulses inside, her tentacles rub and squeeze out every drop.")
ShowMessageFace("",0,0,2,30)
ShowMessage("\\n<Luka>Auuu... You're squeezing me...")
ShowMessageFace("cirqueb_fc4",0,0,2,31)
ShowMessage("\\n<Aria Lamia>")
ShowMessage("Ufufu, they're just excited at the taste of semen.")
ShowMessage("Yours is extremely delicious, after all.")
ShowMessageFace("",0,0,2,32)
ShowMessage("Her tentacles keep rubbing me all during my orgasm.")
ShowMessage("Until it's over, I bask in the incredible stimulus.")
ShowMessageFace("",0,0,2,33)
ShowMessage("\\n<Luka>Hauuu...")
ShowMessageFace("cirqueb_fc4",0,0,2,34)
ShowMessage("\\n<Aria Lamia>")
ShowMessage("Fufu, was it enjoyable?")
ShowMessage("Drinking down your semen also got me going...")
ShowMessageFace("",0,0,2,35)
ShowMessage("A strange smile grows on Aria Lamia's face.")
ShowMessage("The flesh and tentacles inside her start to violently move.")
ShowMessageFace("",0,0,2,36)
ShowMessage("Squirming around me, sucking on my penis...")
ShowMessage("Suddenly, the tiny hole expands wide open!")
ShowMessageFace("",0,0,2,37)
ShowMessage("\\n<Luka>W-What are you... Uwaaa!")
PictureDisplay(5,"ev_cirque_he10",0,0,0,0,100,100,255,0)
ShowMessageFace("",0,0,2,38)
ShowMessage("My lower body is suddenly pulled into her hole.")
ShowMessage("Is she planning on swallowing me with her vagina!?")
ShowMessageFace("",0,0,2,39)
ShowMessage("\\n<Luka>S-Stop it... Why are you doing this...!?")
ShowMessageFace("cirqueb_fc4",0,0,2,40)
ShowMessage("\\n<Aria Lamia>")
ShowMessage("Now, let us truly become one.")
ShowMessage("If we do, you'll be able to taste ultimate pleasure forever.")
ShowMessageFace("",0,0,2,41)
ShowMessage("\\n<Luka>N-no... Ahhh...")
ShowMessageFace("",0,0,2,42)
ShowMessage("No matter how I struggle, it's pointless.")
ShowMessage("With my lower body inside her, and already weak from my orgasm, I can't break free.")
PictureDisplay(5,"ev_cirque_he11",0,0,0,0,100,100,255,0)
ShowMessageFace("",0,0,2,43)
ShowMessage("My whole body is pulled into her.")
ShowMessage("Her soft flesh presses around every inch of me, as even my head is drawn in.")
ShowMessageFace("",0,0,2,44)
ShowMessage("\\n<Luka>Hauuu...")
ShowMessageFace("",0,0,2,45)
ShowMessage("Suddenly stunned by pleasure, I stop struggling.")
ShowMessage("I curl up into a fetal position as the ecstasy wracks my body.")
ShowMessageFace("cirqueb_fc4",0,0,2,46)
ShowMessage("\\n<Aria Lamia>")
ShowMessage("Fufu, are you melting in bliss?")
ShowMessage("I'll digest you like this, and we'll be together forever...")
If(0,95,0)
 246(2)
 221()
 ShowMessageFace("",0,0,2,47)
 ShowMessage("***The vore scene was skipped***")
 JumpToLabel("zzz")
 0()
EndIf()
ShowMessageFace("",0,0,2,48)
ShowMessage("\\n<Luka>Ah...aa...")
ShowMessageFace("",0,0,2,49)
ShowMessage("Her digestive juices surround me as I melt in ecstasy.")
ShowMessage("As my penis rubs against her walls, I feebly moan as I come.")
RunCommonEvent(104)
RunCommonEvent(105)
ShowMessageFace("",0,0,2,50)
ShowMessage("I spurt semen into her.")
ShowMessage("Even as I'm being digested, I still came...")
ShowMessageFace("",0,0,2,51)
ShowMessage("\\n<Luka>Ah...a...")
ShowMessageFace("",0,0,2,52)
ShowMessage("Encased in sweet ecstasy, my consciousness itself fades away.")
ShowMessageFace("",0,0,2,53)
ShowMessage("\\n<Luka>.........")
ShowMessageFace("",0,0,2,54)
ShowMessage("Like that, I was completely digested and absorbed.")
ShowMessage("Devoured alive by Aria Lamia, I met my end in ecstasy.")
221()
PictureClear(5)
PictureClear(6)
246(2)
ShowMessageFace("cirqueb_fc4",0,0,2,55)
ShowMessage("\\n<Aria Lamia>")
ShowMessage("Now you and I will be together forever.")
ShowMessage("Ufu... Fufufufu...")
ShowMessageFace("",0,0,2,56)
ShowMessage("......")
DefineLabel("zzz")
RunCommonEvent(3999)
0()
