﻿// EVENT 5800
Name "Rナターシャ1"

If(0,443,0)
 PictureDisplay(5,"80_d_succubus_st01b",0,0,0,0,100,100,255,0)
 0()
EndIf()
242(1)
250(bytes(0x04,0x08,0x6f,0x3a,0x0c,0x52,0x50,0x47,0x3a,0x3a,0x53,0x45,0x08,0x3a,0x0a,0x40,0x6e,0x61,0x6d,0x65,0x49,0x22,0x0a,0x7a,0x69,0x68,0x6f,0x75,0x06,0x3a,0x06,0x45,0x54,0x3a,0x0b,0x40,0x70,0x69,0x74,0x63,0x68,0x69,0x69,0x3a,0x0c,0x40,0x76,0x6f,0x6c,0x75,0x6d,0x65,0x69,0x55))
Wait(60)
ShowMessageFace("",0,0,2,1)
ShowMessage("その時――城内に、五時の鐘が鳴り響いた。")
241(bytes(0x04,0x08,0x6f,0x3a,0x0d,0x52,0x50,0x47,0x3a,0x3a,0x42,0x47,0x4d,0x08,0x3a,0x0a,0x40,0x6e,0x61,0x6d,0x65,0x49,0x22,0x09,0x65,0x72,0x6f,0x31,0x06,0x3a,0x06,0x45,0x54,0x3a,0x0c,0x40,0x76,0x6f,0x6c,0x75,0x6d,0x65,0x69,0x69,0x3a,0x0b,0x40,0x70,0x69,0x74,0x63,0x68,0x69,0x69))
ShowMessageFace("d_succubus_fc1",0,0,2,2)
ShowMessage("【ナターシャ】")
ShowMessage("それじゃあ……次は、別のミルクを搾りましょうか？")
ShowMessageFace("",0,0,2,3)
ShowMessage("【ルカ】")
ShowMessage("別って……うわぁっ！")
245(bytes(0x04,0x08,0x6f,0x3a,0x0d,0x52,0x50,0x47,0x3a,0x3a,0x42,0x47,0x53,0x08,0x3a,0x0a,0x40,0x6e,0x61,0x6d,0x65,0x49,0x22,0x17,0x6d,0x6f,0x6e,0x5f,0x68,0x73,0x65,0x61,0x6e,0x31,0x37,0x5f,0x73,0x69,0x67,0x6f,0x6b,0x69,0x06,0x3a,0x06,0x45,0x54,0x3a,0x0c,0x40,0x76,0x6f,0x6c,0x75,0x6d,0x65,0x69,0x55,0x3a,0x0b,0x40,0x70,0x69,0x74,0x63,0x68,0x69,0x69))
PictureDisplay(5,"ev_d_succubus_hd1",0,0,0,0,100,100,255,0)
ShowMessageFace("",0,0,2,4)
ShowMessage("あっという間に、僕は別室に連れ込まれてしまった。")
ShowMessage("ベッドの上に転がされ、ナターシャが添い寝してくる。")
ShowMessageFace("d_succubus_fc1",0,0,2,5)
ShowMessage("【ナターシャ】")
ShowMessage("おちんちんから、男の人のミルクを搾ってあげます。")
ShowMessage("うふふっ、たっぷり出して下さいね……♪")
ShowMessageFace("",0,0,2,6)
ShowMessage("【ルカ】")
ShowMessage("そ、そんな……はぅぅっ！")
ShowMessageFace("",0,0,2,7)
ShowMessage("ナターシャは大きくなったペニスに手を伸ばし、巧みに刺激してきた。")
ShowMessage("それは、牛の乳搾りの手さばきに他ならない――")
ShowMessageFace("",0,0,2,8)
ShowMessage("【ルカ】")
ShowMessage("あ……！　はぅ、あぅぅっ……！！")
ShowMessageFace("d_succubus_fc1",0,0,2,9)
ShowMessage("【ナターシャ】")
ShowMessage("うふふっ、上手く出来ているようですね。")
ShowMessage("そんなに気持ち良さそうにしちゃって……")
ShowMessageFace("",0,0,2,10)
ShowMessage("まるで搾るような上下の手さばき――")
ShowMessage("さらに、指先が巧みに亀頭を撫でさすってくる。")
ShowMessageFace("",0,0,2,11)
ShowMessage("その快感は強烈で、僕はナターシャに密着したまま体を震わせ――")
ShowMessageFace("",0,0,2,12)
ShowMessage("【ルカ】")
ShowMessage("出ちゃう……はぅ、あぁぁぁっ……！！")
RunCommonEvent(104)
PictureDisplay(5,"ev_d_succubus_hd4",0,0,0,0,100,100,255,0)
RunCommonEvent(105)
ShowMessageFace("",0,0,2,13)
ShowMessage("そのまま、あえなく精液を放出してしまった。")
ShowMessage("ナターシャは射精中のペニスから、白濁液を搾り出してくる――")
ShowMessageFace("",0,0,2,14)
ShowMessage("【ルカ】")
ShowMessage("はぅ……あぅ、あぁぁっ……")
ShowMessageFace("d_succubus_fc1",0,0,2,15)
ShowMessage("【ナターシャ】")
ShowMessage("うふふっ、イっちゃった……")
ShowMessage("牛より簡単に出しちゃうんですね。")
ShowMessageFace("",0,0,2,16)
ShowMessage("くすくす笑いながら、ナターシャはペニスを刺激し続け――")
ShowMessage("僕は快感に悶えながら、たっぷりと精液を搾り出されたのだった。")
PictureDisplay(5,"ev_d_succubus_hd5",0,0,0,0,100,100,255,0)
ShowMessageFace("d_succubus_fc1",0,0,2,17)
ShowMessage("【ナターシャ】")
ShowMessage("あはっ、こんなにいっぱい搾っちゃった……♪")
ShowMessage("私の手さばき、上手だったでしょ？")
ShowMessageFace("",0,0,2,18)
ShowMessage("【ルカ】")
ShowMessage("う……うぅぅ……")
ShowMessageFace("d_succubus_fc1",1,0,2,19)
ShowMessage("【ナターシャ】")
ShowMessage("もう少し、練習させて下さい。")
ShowMessage("一滴も出なくなるまで、搾ってあげますから……")
ShowMessageFace("",0,0,2,20)
ShowMessage("【ルカ】")
ShowMessage("そんな……あ、あぁぁぁ～～！！")
RunCommonEvent(104)
RunCommonEvent(105)
ShowMessageFace("",0,0,2,21)
ShowMessage("こうして僕は、徹底的にナターシャの掌で搾り出された。")
ShowMessage("甘い乳搾りで何度も何度も精液を放出し、意識を失ったのである――")
221()
PictureClear(5)
242(1)
246(1)
ShowMessageFace("",0,0,2,22)
ShowMessage("・・・・・・・・")
221()
Wait(120)
If(0,443,0)
 EndEventProcessing()
 0()
EndIf()
RunCommonEvent(541)
0()
