// EVENT 2008
Name "Seduction: Earthworm Girl"

If(0,25,1)
 EndEventProcessing()
 0()
EndIf()
355("$game_troop.lose_event_id = 3008")
ChangeVariable(26,26,0,3,3,1,4)
ChangeVariable(26,26,4,0,10)
ShowMessageFace("mimizu_fc1",2,0,2,1)
ShowMessage("\\n<Earthworm Girl>At this rate, I'll lose...")
ShowMessageFace("mimizu_fc1",1,0,2,2)
ShowMessage("\\n<Earthworm Girl>I give a special service to strong humans.\nDon't you want my slimy body to twine around you?")
ChangeSwitch(98,98,0)
ChangeSwitch(96,96,0)
ShowChoices(strings("Ignore her","Get twined"),1)
IfPlayerPicksChoice(0,"Ignore her")
 ShowMessageFace("",0,0,2,3)
 ShowMessage("Luka resists her temptation!")
 RunCommonEvent(1999)
 EndEventProcessing()
 0()
IfPlayerPicksChoice(1,"巻き付いてもらう")
 0()
404()
ShowMessageFace("mimizu_fc1",1,0,2,4)
ShowMessage("\\n<Earthworm Girl>If that's what you want, I'll do as you wish...")
250(bytes(0x04,0x08,0x6f,0x3a,0x0c,0x52,0x50,0x47,0x3a,0x3a,0x53,0x45,0x08,0x3a,0x0a,0x40,0x6e,0x61,0x6d,0x65,0x49,0x22,0x16,0x6d,0x6f,0x6e,0x5f,0x65,0x72,0x6f,0x5f,0x6d,0x61,0x6b,0x69,0x74,0x75,0x6b,0x69,0x33,0x06,0x3a,0x06,0x45,0x54,0x3a,0x0b,0x40,0x70,0x69,0x74,0x63,0x68,0x69,0x69,0x3a,0x0c,0x40,0x76,0x6f,0x6c,0x75,0x6d,0x65,0x69,0x69))
355("battler_graphic_hide")
PictureDisplay(5,"ev_mimizu_h1",0,0,0,0,100,100,255,0)
311(0,1,1,1,26,true)
ShowMessageFace("",0,0,2,5)
ShowMessage("The Earthworm Girl coils around Luka!")
ShowMessage("The now slime-covered Luka is tightly wound up!\\D")
ShowMessage("Luka takes \\V[26] damage!")
ChangeVariable(27,27,0,3,3,1,2)
If(1,27,0,0,0)
 JumpToLabel("射精1")
 0()
EndIf()
ShowMessageFace("",0,0,2,6)
ShowMessage("The Earthworm Girl lifts Luka up!")
ShowMessageFace("mimizu_fc1",1,0,2,7)
ShowMessage("\\n<Earthworm Girl>Fufu! I caught you♪\nHow does my sticky body feel? ♪")
250(bytes(0x04,0x08,0x6f,0x3a,0x0c,0x52,0x50,0x47,0x3a,0x3a,0x53,0x45,0x08,0x3a,0x0a,0x40,0x6e,0x61,0x6d,0x65,0x49,0x22,0x16,0x6d,0x6f,0x6e,0x5f,0x65,0x72,0x6f,0x5f,0x6d,0x61,0x6b,0x69,0x74,0x75,0x6b,0x69,0x33,0x06,0x3a,0x06,0x45,0x54,0x3a,0x0b,0x40,0x70,0x69,0x74,0x63,0x68,0x69,0x69,0x3a,0x0c,0x40,0x76,0x6f,0x6c,0x75,0x6d,0x65,0x69,0x69))
311(0,1,1,1,26,true)
ShowMessageFace("",0,0,2,8)
ShowMessage("While keeping Luka tightly gripped, the Earthworm Girl wiggles.")
ShowMessage("Her viscous membrane coils around Luka's whole body!\\D")
ShowMessage("Luka takes \\V[26] damage!")
ChangeVariable(27,27,0,3,3,1,2)
If(1,27,0,0,0)
 JumpToLabel("射精1")
 0()
EndIf()
ShowMessageFace("",0,0,2,9)
ShowMessage("\\n<Luka>Aaah...")
ShowMessageFace("mimizu_fc1",1,0,2,10)
ShowMessage("\\n<Earthworm Girl>Fufu... Should I seize your dick directly?\nWhen my body grips your dick, you'll get happily sucked.")
ShowMessageFace("mimizu_fc1",1,0,2,11)
ShowMessage("\\n<Earthworm Girl>If I do this, you'll have no choice but to come, right?\nIt's irresistible... Fufu!")
ShowChoices(strings("Struggle","Let her continue"),1)
IfPlayerPicksChoice(0,"Struggle")
 ShowMessageFace("",0,0,2,12)
 ShowMessage("Luka struggles wildly!")
 ShowMessage("However, he can't escape the Earthworm Girl's grip!")
 ShowMessageFace("mimizu_fc1",1,0,2,13)
 ShowMessage("\\n<Earthworm Girl>Ahaha! After letting all of that happen, now you think of escaping?\nHoora, I'll hold on tight to your dick too...")
 0()
IfPlayerPicksChoice(1,"なすがまま")
 ShowMessageFace("",0,0,2,14)
 ShowMessage("Luka lets himself be entranced by the Earthworm Girl...")
 ShowMessageFace("mimizu_fc1",1,0,2,15)
 ShowMessage("\\n<Earthworm Girl>There, that's it!\nI'll tighten around your dick now too...")
 0()
404()
250(bytes(0x04,0x08,0x6f,0x3a,0x0c,0x52,0x50,0x47,0x3a,0x3a,0x53,0x45,0x08,0x3a,0x0a,0x40,0x6e,0x61,0x6d,0x65,0x49,0x22,0x16,0x6d,0x6f,0x6e,0x5f,0x65,0x72,0x6f,0x5f,0x6d,0x61,0x6b,0x69,0x74,0x75,0x6b,0x69,0x32,0x06,0x3a,0x06,0x45,0x54,0x3a,0x0b,0x40,0x70,0x69,0x74,0x63,0x68,0x69,0x69,0x3a,0x0c,0x40,0x76,0x6f,0x6c,0x75,0x6d,0x65,0x69,0x69))
311(0,1,1,1,26,true)
ShowMessageFace("",0,0,2,16)
ShowMessage("The Earthworm Girl's tail envelops Luka's penis!\\D")
ShowMessage("Luka takes \\V[26] damage!")
ChangeVariable(27,27,0,3,3,1,2)
If(1,27,0,0,0)
 JumpToLabel("射精1")
 0()
EndIf()
250(bytes(0x04,0x08,0x6f,0x3a,0x0c,0x52,0x50,0x47,0x3a,0x3a,0x53,0x45,0x08,0x3a,0x0a,0x40,0x6e,0x61,0x6d,0x65,0x49,0x22,0x16,0x6d,0x6f,0x6e,0x5f,0x65,0x72,0x6f,0x5f,0x6d,0x61,0x6b,0x69,0x74,0x75,0x6b,0x69,0x32,0x06,0x3a,0x06,0x45,0x54,0x3a,0x0b,0x40,0x70,0x69,0x74,0x63,0x68,0x69,0x69,0x3a,0x0c,0x40,0x76,0x6f,0x6c,0x75,0x6d,0x65,0x69,0x69))
311(0,1,1,1,26,true)
ShowMessageFace("",0,0,2,17)
ShowMessage("As Luka's penis gets tightly clenched by the Earthworm Girl's tail,")
ShowMessage("it gets wrapped in a slimy feeling!\\D")
ShowMessage("Luka takes \\V[26] damage!")
ChangeVariable(27,27,0,3,3,1,2)
If(1,27,0,0,0)
 JumpToLabel("射精1")
 0()
EndIf()
ShowMessageFace("mimizu_fc1",1,0,2,18)
ShowMessage("\\n<Earthworm Girl>Does my viscosity feel good?\nWhen you can't hold it in any more, don't worry. Just let it out...")
250(bytes(0x04,0x08,0x6f,0x3a,0x0c,0x52,0x50,0x47,0x3a,0x3a,0x53,0x45,0x08,0x3a,0x0a,0x40,0x6e,0x61,0x6d,0x65,0x49,0x22,0x16,0x6d,0x6f,0x6e,0x5f,0x65,0x72,0x6f,0x5f,0x6d,0x61,0x6b,0x69,0x74,0x75,0x6b,0x69,0x32,0x06,0x3a,0x06,0x45,0x54,0x3a,0x0b,0x40,0x70,0x69,0x74,0x63,0x68,0x69,0x69,0x3a,0x0c,0x40,0x76,0x6f,0x6c,0x75,0x6d,0x65,0x69,0x69))
311(0,1,1,1,26,true)
ShowMessageFace("",0,0,2,19)
ShowMessage("Her wet skin rubs against Luka's glans!")
ShowMessage("As it gets pressured, Luka's now soapy glans receives sweet pleasure!\\D")
ShowMessage("Luka takes \\V[26] damage!")
ChangeVariable(27,27,0,3,3,1,2)
If(1,27,0,0,0)
 JumpToLabel("射精1")
 0()
EndIf()
250(bytes(0x04,0x08,0x6f,0x3a,0x0c,0x52,0x50,0x47,0x3a,0x3a,0x53,0x45,0x08,0x3a,0x0a,0x40,0x6e,0x61,0x6d,0x65,0x49,0x22,0x16,0x6d,0x6f,0x6e,0x5f,0x65,0x72,0x6f,0x5f,0x6d,0x61,0x6b,0x69,0x74,0x75,0x6b,0x69,0x32,0x06,0x3a,0x06,0x45,0x54,0x3a,0x0b,0x40,0x70,0x69,0x74,0x63,0x68,0x69,0x69,0x3a,0x0c,0x40,0x76,0x6f,0x6c,0x75,0x6d,0x65,0x69,0x69))
311(0,1,1,1,26,true)
ShowMessageFace("",0,0,2,20)
ShowMessage("The Earthworm Girl's tail's slow grip softly pressures Luka's penis!\\D")
ShowMessage("Luka takes \\V[26] damage!")
ChangeVariable(27,27,0,3,3,1,2)
If(1,27,0,0,0)
 JumpToLabel("射精1")
 0()
EndIf()
ShowMessageFace("mimizu_fc1",1,0,2,21)
ShowMessage("\\n<Earthworm Girl>Fufufu... You feel good, right?\nIt's impossible for you to defy or escape me now...")
ShowChoices(strings("Struggle","Let her continue"),1)
IfPlayerPicksChoice(0,"Struggle")
 ShowMessageFace("",0,0,2,22)
 ShowMessage("Luka struggles wildly!")
 ShowMessage("However, he can't escape the Earthworm Girl's grip!")
 ShowMessageFace("mimizu_fc1",1,0,2,23)
 ShowMessage("\\n<Earthworm Girl>Ahaha... It's useless.\nNow, let's keep going until you come...")
 0()
IfPlayerPicksChoice(1,"なすがまま")
 ShowMessageFace("",0,0,2,24)
 ShowMessage("Luka lets the Earthworm Girl wiggle on him...")
 ShowMessageFace("mimizu_fc1",1,0,2,25)
 ShowMessage("\\n<Earthworm Girl>That's right, be a good boy.\nIt won't stop until you come...")
 0()
404()
250(bytes(0x04,0x08,0x6f,0x3a,0x0c,0x52,0x50,0x47,0x3a,0x3a,0x53,0x45,0x08,0x3a,0x0a,0x40,0x6e,0x61,0x6d,0x65,0x49,0x22,0x16,0x6d,0x6f,0x6e,0x5f,0x65,0x72,0x6f,0x5f,0x6d,0x61,0x6b,0x69,0x74,0x75,0x6b,0x69,0x32,0x06,0x3a,0x06,0x45,0x54,0x3a,0x0b,0x40,0x70,0x69,0x74,0x63,0x68,0x69,0x69,0x3a,0x0c,0x40,0x76,0x6f,0x6c,0x75,0x6d,0x65,0x69,0x69))
311(0,1,1,1,26,true)
ShowMessageFace("",0,0,2,26)
ShowMessage("The Earthworm Girl keeps stroking Luka's penis without mercy!")
ShowMessage("Undulating her body, the Earthworm Girl stimulates Luka's manhood by thoroughly rubbing it!\\D")
ShowMessage("Luka takes \\V[26] damage!")
ChangeVariable(27,27,0,3,3,1,2)
If(1,27,0,0,0)
 JumpToLabel("射精1")
 0()
EndIf()
250(bytes(0x04,0x08,0x6f,0x3a,0x0c,0x52,0x50,0x47,0x3a,0x3a,0x53,0x45,0x08,0x3a,0x0a,0x40,0x6e,0x61,0x6d,0x65,0x49,0x22,0x16,0x6d,0x6f,0x6e,0x5f,0x65,0x72,0x6f,0x5f,0x6d,0x61,0x6b,0x69,0x74,0x75,0x6b,0x69,0x32,0x06,0x3a,0x06,0x45,0x54,0x3a,0x0b,0x40,0x70,0x69,0x74,0x63,0x68,0x69,0x69,0x3a,0x0c,0x40,0x76,0x6f,0x6c,0x75,0x6d,0x65,0x69,0x69))
311(0,1,1,1,26,true)
ShowMessageFace("",0,0,2,27)
ShowMessage("Her viscous skin rubs Luka's glans numerous times, stroking him!")
ShowMessage("Luka shudders as he feels an orgasm-like sensation building!\\D")
ShowMessage("Luka takes \\V[26] damage!")
ChangeVariable(27,27,0,3,3,1,2)
If(1,27,0,0,0)
 JumpToLabel("射精1")
 0()
EndIf()
ShowMessageFace("",0,0,2,28)
ShowMessage("\\n<Luka>Fwaah... I feel too good...")
ShowMessageFace("mimizu_fc1",1,0,2,29)
ShowMessage("\\n<Earthworm Girl>Then my next move will finish you off.\nDrown yourself in my wet pleasure, and come pitifully...")
ShowChoices(strings("Struggle","Let her continue"),1)
IfPlayerPicksChoice(0,"Struggle")
 ShowMessageFace("",0,0,2,30)
 ShowMessage("Luka struggles wildly!")
 ShowMessage("However, he can't escape the Earthworm Girl's grip!")
 ShowMessageFace("mimizu_fc1",1,0,2,31)
 ShowMessage("\\n<Earthworm Girl>Ahaha! So disgracefuuul! Are you really a hero?\nHoora, come like crazy♪")
 0()
IfPlayerPicksChoice(1,"なすがまま")
 ShowMessageFace("",0,0,2,32)
 ShowMessage("Luka is now at her mercy...")
 ShowMessageFace("mimizu_fc1",1,0,2,33)
 ShowMessage("\\n<Earthworm Girl>Always indulging in pleasure, is that what a hero does?\nIf that's the case, hoora, enjoy it and come! ♪")
 0()
404()
ChangeVariable(26,26,3,0,2)
250(bytes(0x04,0x08,0x6f,0x3a,0x0c,0x52,0x50,0x47,0x3a,0x3a,0x53,0x45,0x08,0x3a,0x0a,0x40,0x6e,0x61,0x6d,0x65,0x49,0x22,0x16,0x6d,0x6f,0x6e,0x5f,0x65,0x72,0x6f,0x5f,0x6d,0x61,0x6b,0x69,0x74,0x75,0x6b,0x69,0x32,0x06,0x3a,0x06,0x45,0x54,0x3a,0x0b,0x40,0x70,0x69,0x74,0x63,0x68,0x69,0x69,0x3a,0x0c,0x40,0x76,0x6f,0x6c,0x75,0x6d,0x65,0x69,0x69))
311(0,1,1,1,26,true)
ShowMessageFace("",0,0,2,34)
ShowMessage("Luka's penis gets squeezed really hard, and his glans is pressured by her tail!")
ShowMessage("At the same time, it gets violently stroked!\\D")
ShowMessage("Luka takes \\V[26] damage!")
ChangeVariable(27,27,0,3,3,1,2)
If(1,27,0,0,0)
 JumpToLabel("射精1")
 0()
EndIf()
DefineLabel("射精1")
ShowMessageFace("",0,0,2,35)
ShowMessage("\\n<Luka>This sliminess... is paradise...\nAh! I'm coming...")
RunCommonEvent(104)
PictureDisplay(5,"ev_mimizu_h2",0,0,0,0,100,100,255,0)
RunCommonEvent(105)
ShowMessageFace("",0,0,2,36)
ShowMessage("Luka's dick, trapped in the coils of the Earthworm Girl's tail, spurts gushes of semen.")
ShowMessage("Large flows of white liquid taint the Earthworm Girl's tail.")
ShowMessageFace("mimizu_fc1",1,0,2,37)
ShowMessage("\\n<Earthworm Girl>I squeezed a lot from your dick.\nHihi... Did that feel good?")
RunCommonEvent(2000)
EndEventProcessing()
0()
