﻿// EVENT 4387
Name "Page 17 2"

If(0,25,1)
 221()
 PictureClear(5)
 PictureClear(6)
 ShowMessageFace("",0,0,2,0)
 ShowMessage("......")
 242(2)
 Wait(120)
 241(bytes(0x04,0x08,0x6f,0x3a,0x0d,0x52,0x50,0x47,0x3a,0x3a,0x42,0x47,0x4d,0x08,0x3a,0x0a,0x40,0x6e,0x61,0x6d,0x65,0x49,0x22,0x0c,0x63,0x61,0x73,0x74,0x6c,0x65,0x36,0x06,0x3a,0x06,0x45,0x54,0x3a,0x0c,0x40,0x76,0x6f,0x6c,0x75,0x6d,0x65,0x69,0x69,0x3a,0x0b,0x40,0x70,0x69,0x74,0x63,0x68,0x69,0x69))
 EndEventProcessing()
 0()
EndIf()
PictureDisplay(5,"80_page17_st01",0,0,0,0,100,100,255,0)
ShowMessageFace("page17_fc1",0,0,2,1)
ShowMessage("\\n<Annie>You want me to give you pleasure?\nVery well... I'll give you eternal pleasure.")
ShowMessageFace("",0,0,2,2)
ShowMessage("\\n<Luka>Err, eternity is kind of...")
ShowMessageFace("page17_fc1",0,0,2,3)
ShowMessage("\\n<Annie>A coward who begs for pleasure deserves no less.\nPunishment for their selfishness is eternal pleasure.")
ShowMessageFace("",0,0,2,4)
ShowMessage("\\n<Luka>N-no way...")
ShowMessageFace("",0,0,2,5)
ShowMessage("My casual question brought about a very serious circumstance.")
ShowMessage("Still confused, Annie bends over me before I can react.")
241(bytes(0x04,0x08,0x6f,0x3a,0x0d,0x52,0x50,0x47,0x3a,0x3a,0x42,0x47,0x4d,0x08,0x3a,0x0a,0x40,0x6e,0x61,0x6d,0x65,0x49,0x22,0x09,0x65,0x72,0x6f,0x31,0x06,0x3a,0x06,0x45,0x54,0x3a,0x0c,0x40,0x76,0x6f,0x6c,0x75,0x6d,0x65,0x69,0x69,0x3a,0x0b,0x40,0x70,0x69,0x74,0x63,0x68,0x69,0x69))
ShowMessageFace("page17_fc1",0,0,2,6)
ShowMessage("\\n<Annie>I'll squeeze out everything and take your soul...")
ShowMessageFace("",0,0,2,7)
ShowMessage("Hovering over me, I can see that she has a vagina that looks just like a human female's...")
ShowMessage("But looking as if it has a mind of its own, the entrance is opening and closing like a mouth.")
ShowMessageFace("",0,0,2,8)
ShowMessage("Inside, there are countless little villi.")
ShowMessage("Each one is wriggling around, making it seem like an entirely different creature.")
ShowMessageFace("",0,0,2,9)
ShowMessage("If she puts my dick in there,")
ShowMessage("I wonder what it would feel like...")
ShowMessageFace("",0,0,2,10)
ShowMessage("Thinking that, I unconsciously swallow my saliva.")
ShowMessageFace("",0,0,2,11)
ShowMessage("\\n<Luka>Aaa...")
ShowMessageFace("",0,0,2,12)
ShowMessage("But the feeling isn't going to stay in my imagination...")
ShowMessage("She's slowly moving that entrance closer to me...")
ShowMessageFace("",0,0,2,13)
ShowMessage("Fear and expectation both filling me, my body starts to shake.")
ShowMessageFace("page17_fc1",0,0,2,14)
ShowMessage("\\n<Annie>I'm going to rape... squeeze... and make you my prey.")
ShowMessageFace("",0,0,2,15)
ShowMessage("Saying that, Annie forces me into her pussy.")
ShowMessage("The feeling I was just imagining starts to attack me as I'm pushed all the way inside of her.")
245(bytes(0x04,0x08,0x6f,0x3a,0x0d,0x52,0x50,0x47,0x3a,0x3a,0x42,0x47,0x53,0x08,0x3a,0x0a,0x40,0x6e,0x61,0x6d,0x65,0x49,0x22,0x1e,0x6d,0x6f,0x6e,0x5f,0x68,0x73,0x65,0x61,0x6e,0x30,0x39,0x5f,0x69,0x6e,0x6e,0x65,0x72,0x77,0x6f,0x72,0x6b,0x73,0x5f,0x62,0x31,0x06,0x3a,0x06,0x45,0x54,0x3a,0x0c,0x40,0x76,0x6f,0x6c,0x75,0x6d,0x65,0x69,0x55,0x3a,0x0b,0x40,0x70,0x69,0x74,0x63,0x68,0x69,0x69))
PictureDisplay(5,"ev_page17_h1",0,0,0,0,100,100,255,0)
ShowMessageFace("",0,0,2,16)
ShowMessage("\\n<Luka>Ah, aaah!")
ShowMessageFace("",0,0,2,17)
ShowMessage("It's incredibly hot inside of her.")
ShowMessage("The millions of little villi start to wrap and rub me.")
ShowMessageFace("",0,0,2,18)
ShowMessage("My body starts to relax and soak in the pleasure that was many times better than I was imagining.")
ShowMessageFace("",0,0,2,19)
ShowMessage("\\n<Luka>Auuu... Incredible...")
ShowMessageFace("page17_fc1",0,0,2,20)
ShowMessage("\\n<Annie>With this flesh hole, you'll meet your pathetic end...")
ShowMessageFace("",0,0,2,21)
ShowMessage("Each of the millions of soft protrusions are wriggling and squirming all around me.")
ShowMessage("It's as if each one was a tiny tongue, all clambering to lick me.")
ShowMessageFace("",0,0,2,22)
ShowMessage("\\n<Luka>Uaaa... Too good...")
ShowMessageFace("",0,0,2,23)
ShowMessage("Rubbing from the base to the tip, they don't leave a single millimeter of my penis alone.")
ShowMessageFace("",0,0,2,24)
ShowMessage("The overpowering stimulation quickly brings me to the edge of an orgasm.")
ShowMessageFace("",0,0,2,25)
ShowMessage("\\n<Luka>C...Coming...")
ShowMessageFace("page17_fc1",0,0,2,26)
ShowMessage("\\n<Annie>Good, let it out...\nI'll dispose of all of your semen...")
ShowMessageFace("",0,0,2,27)
ShowMessage("As she says that, the soft villi start to increase their speed.")
ShowMessage("There's no way I can resist this single-minded attack of pleasure.")
ShowMessageFace("",0,0,2,28)
ShowMessage("\\n<Luka>Aahhh!")
RunCommonEvent(104)
PictureDisplay(5,"ev_page17_h2",0,0,0,0,100,100,255,0)
RunCommonEvent(105)
ShowMessageFace("",0,0,2,29)
ShowMessage("My mind goes blank as I give in to the desire of release.")
ShowMessage("Yielding to her amazing pussy, I shoot out my semen into it.")
ShowMessageFace("",0,0,2,30)
ShowMessage("\\n<Luka>Eh...? What's... this...?")
ShowMessageFace("",0,0,2,31)
ShowMessage("Suddenly, a strange sensation explodes through my waist.")
RunCommonEvent(104)
PictureDisplay(5,"ev_page17_h3",0,0,0,0,100,100,255,0)
RunCommonEvent(105)
ShowMessageFace("",0,0,2,32)
ShowMessage("For some reason, I can't stop my ejaculation...")
ShowMessageFace("",0,0,2,33)
ShowMessage("Stuck in my orgasm, I can feel something being sucked out of my penis.")
ShowMessageFace("page17_fc1",0,0,2,34)
ShowMessage("\\n<Annie>Squeezing everything out, I'll take your soul...")
PictureDisplay(10,"sys_white",0,0,0,0,100,100,0,0)
PictureMove(10,null,0,0,0,0,100,100,255,0,20,true)
PictureMove(10,null,0,0,0,0,100,100,0,0,20,true)
PictureMove(10,null,0,0,0,0,100,100,255,0,20,true)
PictureMove(10,null,0,0,0,0,100,100,0,0,60,true)
ShowMessageFace("",0,0,2,35)
ShowMessage("\\n<Luka>Aaah... Sucking so much...\nThat's... Incredible...")
PictureDisplay(10,"sys_white",0,0,0,0,100,100,0,0)
PictureMove(10,null,0,0,0,0,100,100,255,0,20,true)
PictureMove(10,null,0,0,0,0,100,100,0,0,20,true)
PictureMove(10,null,0,0,0,0,100,100,255,0,20,true)
PictureMove(10,null,0,0,0,0,100,100,0,0,60,true)
ShowMessageFace("",0,0,2,36)
ShowMessage("Awash in ecstasy, I keep shooting more and more out.")
ShowMessage("My vision fades in and out as the overpowering pleasure at this continual orgasm takes over my body.")
ShowMessageFace("",0,0,2,37)
ShowMessage("It's as if I'm shooting out my very soul...")
PictureDisplay(10,"sys_white",0,0,0,0,100,100,0,0)
PictureMove(10,null,0,0,0,0,100,100,255,0,20,true)
PictureMove(10,null,0,0,0,0,100,100,0,0,20,true)
PictureMove(10,null,0,0,0,0,100,100,255,0,20,true)
PictureMove(10,null,0,0,0,0,100,100,0,0,60,true)
ShowMessageFace("",0,0,2,38)
ShowMessage("\\n<Luka>Auuu... Too good...")
PictureDisplay(10,"sys_white",0,0,0,0,100,100,0,0)
PictureMove(10,null,0,0,0,0,100,100,255,0,20,true)
PictureMove(10,null,0,0,0,0,100,100,0,0,20,true)
PictureMove(10,null,0,0,0,0,100,100,255,0,20,true)
PictureMove(10,null,0,0,0,0,100,100,0,0,60,true)
ShowMessageFace("",0,0,2,39)
ShowMessage("I cling to Annie's body while I convulse pathetically, as my life itself is being sucked into her pussy.")
ShowMessage("Awash in ecstasy, fear starts to surge into my mind.")
ShowMessageFace("",0,0,2,40)
ShowMessage("Terrified at what's happening, I can't resist the pleasure taking over my body.")
ShowMessageFace("page17_fc1",0,0,2,41)
ShowMessage("\\n<Annie>Squeeze everything...")
PictureDisplay(10,"sys_white",0,0,0,0,100,100,0,0)
PictureMove(10,null,0,0,0,0,100,100,255,0,20,true)
PictureMove(10,null,0,0,0,0,100,100,0,0,20,true)
PictureMove(10,null,0,0,0,0,100,100,255,0,20,true)
PictureMove(10,null,0,0,0,0,100,100,0,0,60,true)
ShowMessageFace("",0,0,2,42)
ShowMessage("She looks down at me with cold eyes as everything is mercilessly being sucked from me.")
ShowMessage("If this keeps up for much longer, what's going to happen to me...?")
ShowMessageFace("",0,0,2,43)
ShowMessage("\\n<Luka>Faaa... Amazing...")
PictureDisplay(10,"sys_white",0,0,0,0,100,100,0,0)
PictureMove(10,null,0,0,0,0,100,100,255,0,20,true)
PictureMove(10,null,0,0,0,0,100,100,0,0,20,true)
PictureMove(10,null,0,0,0,0,100,100,255,0,20,true)
PictureMove(10,null,0,0,0,0,100,100,0,0,60,true)
ShowMessageFace("",0,0,2,44)
ShowMessage("I can't escape from this ruinous pleasure.")
ShowMessageFace("",0,0,2,45)
ShowMessage("Too weak to resist, I can only cling to Annie's body.")
ShowMessageFace("",0,0,2,46)
ShowMessage("\\n<Luka>Hnnaaa...")
PictureDisplay(10,"sys_white",0,0,0,0,100,100,0,0)
PictureMove(10,null,0,0,0,0,100,100,255,0,20,true)
PictureMove(10,null,0,0,0,0,100,100,0,0,20,true)
PictureMove(10,null,0,0,0,0,100,100,255,0,20,true)
PictureMove(10,null,0,0,0,0,100,100,0,0,60,true)
ShowMessageFace("",0,0,2,47)
ShowMessage("My consciousness starts to fade as a haze fills my mind.")
ShowMessage("Having everything being sucked out, it feels as though my existence is melting.")
PictureDisplay(10,"sys_white",0,0,0,0,100,100,0,0)
PictureMove(10,null,0,0,0,0,100,100,255,0,20,true)
PictureMove(10,null,0,0,0,0,100,100,0,0,20,true)
PictureMove(10,null,0,0,0,0,100,100,255,0,20,true)
PictureMove(10,null,0,0,0,0,100,100,0,0,60,true)
221()
PictureClear(5)
246(2)
ShowMessageFace("",0,0,2,48)
ShowMessage("...Finally, I lose consciousness.")
ShowMessage("Seeing the darkness close in around me, my last thought is acknowledging my death.")
ShowMessageFace("",0,0,2,49)
ShowMessage("..............")
222()
PictureDisplay(5,"80_page17_st01",0,0,0,0,100,100,255,0)
ShowMessageFace("",0,0,2,50)
ShowMessage("\\n<Luka>Where am I...?")
ShowMessageFace("",0,0,2,51)
ShowMessage("When I open my eyes, I'm back in the pocket castle.")
ShowMessage("Did I faint...?")
ShowMessageFace("page17_fc1",0,0,2,52)
ShowMessage("\\n<Annie>I squeezed you until just before death...\nDid you learn your lesson?")
ShowMessageFace("",0,0,2,53)
ShowMessage("\\n<Luka>......")
ShowMessageFace("page17_fc1",0,0,2,54)
ShowMessage("\\n<Annie>Maybe it wasn't effective.\nTry to remember what your actions brought upon you...")
ShowMessageFace("",0,0,2,55)
ShowMessage("I stay silent under her gaze.")
ShowMessage("I know what comes from casually asking for pleasure from her...")
221()
PictureClear(5)
PictureClear(6)
246(2)
ShowMessageFace("",0,0,2,56)
ShowMessage("...............")
242(2)
Wait(120)
241(bytes(0x04,0x08,0x6f,0x3a,0x0d,0x52,0x50,0x47,0x3a,0x3a,0x42,0x47,0x4d,0x08,0x3a,0x0a,0x40,0x6e,0x61,0x6d,0x65,0x49,0x22,0x0c,0x63,0x61,0x73,0x74,0x6c,0x65,0x36,0x06,0x3a,0x06,0x45,0x54,0x3a,0x0c,0x40,0x76,0x6f,0x6c,0x75,0x6d,0x65,0x69,0x69,0x3a,0x0b,0x40,0x70,0x69,0x74,0x63,0x68,0x69,0x69))
0()
