// EVENT 4096
Name "Rumi"

If(0,25,1)
 221()
 PictureClear(5)
 PictureClear(6)
 ShowMessageFace("",0,0,2,0)
 ShowMessage("......")
 242(2)
 Wait(120)
 241(bytes(0x04,0x08,0x6f,0x3a,0x0d,0x52,0x50,0x47,0x3a,0x3a,0x42,0x47,0x4d,0x08,0x3a,0x0a,0x40,0x6e,0x61,0x6d,0x65,0x49,0x22,0x0c,0x63,0x61,0x73,0x74,0x6c,0x65,0x36,0x06,0x3a,0x06,0x45,0x54,0x3a,0x0c,0x40,0x76,0x6f,0x6c,0x75,0x6d,0x65,0x69,0x69,0x3a,0x0b,0x40,0x70,0x69,0x74,0x63,0x68,0x69,0x69))
 EndEventProcessing()
 0()
EndIf()
PictureDisplay(5,"80_inp_st21",0,0,0,0,100,100,255,0)
ShowMessageFace("inp_fc3",0,0,2,1)
ShowMessage("\\n<Rumi>What? You want a hand job...?")
ShowMessageFace("",0,0,2,2)
ShowMessage("\\n<Luka>W-Well, yeah...")
ShowMessageFace("inp_fc3",2,0,2,3)
ShowMessage("\\n<Rumi>.......")
ShowMessageFace("inp_fc3",0,0,2,4)
ShowMessage("\\n<Rumi>......Fine, fine. You're the boss, I guess.")
ShowMessageFace("",0,0,2,5)
ShowMessage("Rumi sighs heavily as she pulls down my pants. Her hand half-heartedly reaches out towards my already erect penis.")
241(bytes(0x04,0x08,0x6f,0x3a,0x0d,0x52,0x50,0x47,0x3a,0x3a,0x42,0x47,0x4d,0x08,0x3a,0x0a,0x40,0x6e,0x61,0x6d,0x65,0x49,0x22,0x09,0x65,0x72,0x6f,0x31,0x06,0x3a,0x06,0x45,0x54,0x3a,0x0c,0x40,0x76,0x6f,0x6c,0x75,0x6d,0x65,0x69,0x69,0x3a,0x0b,0x40,0x70,0x69,0x74,0x63,0x68,0x69,0x69))
PictureDisplay(6,"ev_inp_ct21",0,0,0,0,100,100,0,0)
PictureMove(6,null,0,0,0,0,100,100,255,0,30,true)
ShowMessageFace("",0,0,2,6)
ShowMessage("The top of her palm rests gently on my shaft before she squeezes it lightly.")
ShowMessageFace("",0,0,2,7)
ShowMessage("\\n<Luka>Auuu...!")
ShowMessageFace("",0,0,2,8)
ShowMessage("Even if she's only grabbed my penis, her technique makes it feel incredible. Her palm presses up against the underside of the tip, and her fingers grasp the shaft. In a single motion, she squeezes all of my weak points...")
ShowMessageFace("inp_fc3",0,0,2,9)
ShowMessage("\\n<Rumi>What, are you seriously already moaning? Jeeeeez. I only just touched it, boss...")
245(bytes(0x04,0x08,0x6f,0x3a,0x0d,0x52,0x50,0x47,0x3a,0x3a,0x42,0x47,0x53,0x08,0x3a,0x0a,0x40,0x6e,0x61,0x6d,0x65,0x49,0x22,0x17,0x6d,0x6f,0x6e,0x5f,0x68,0x73,0x65,0x61,0x6e,0x31,0x37,0x5f,0x73,0x69,0x67,0x6f,0x6b,0x69,0x06,0x3a,0x06,0x45,0x54,0x3a,0x0c,0x40,0x76,0x6f,0x6c,0x75,0x6d,0x65,0x69,0x55,0x3a,0x0b,0x40,0x70,0x69,0x74,0x63,0x68,0x69,0x69))
ShowMessageFace("inp_fc3",0,0,2,10)
ShowMessage("\\n<Rumi>*stroke* *stroke*")
ShowMessageFace("",0,0,2,11)
ShowMessage("Rumi props up my penis as she gradually begins stroking up and down from the underside. Though she doesn't look enthusiastic, she skillfully jerks the shaft and the tip, knowing just where to squeeze and where to release.")
ShowMessageFace("",0,0,2,12)
ShowMessage("\\n<Luka>Ah...! Uuuu!")
ShowMessageFace("",0,0,2,13)
ShowMessage("Compared to her willy-nilly attitude, her hand technique is incredible and nuanced. I can't help but moan as she continues to expertly pump away at my cock.")
ShowMessageFace("inp_fc3",0,0,2,14)
ShowMessage("\\n<Rumi>So, uh... You enjoying yourself...?\n*stroke* *stroke*")
ShowMessageFace("",0,0,2,15)
ShowMessage("\\n<Luka>A-Amazing... You're incredible... Auu!")
ShowMessageFace("",0,0,2,16)
ShowMessage("The way she strokes my penis with her palm, slow and sweet... It's amazing. Even better, her fingers squeeze and release as she moves her hand, silky smooth.")
ShowMessageFace("",0,0,2,17)
ShowMessage("Gently pumping my cock from below and stimulating the tip her fingers at the same time... Her devilish hand movements have driven me into a hazy, happy trance before I even realized it.")
ShowMessageFace("",0,0,2,18)
ShowMessage("\\n<Luka>Hau... auu!")
ShowMessageFace("inp_fc3",0,0,2,19)
ShowMessage("\\n<Rumi>Seriously, stop moving your hips. It makes it way harder to do this...\nActually, my hand is starting to hurt, so I'll just finish you off now, boss. Enjoy it, I guess.")
ShowMessageFace("",0,0,2,20)
ShowMessage("\\n<Luka>A-Already...? Wh- Aaaah!")
ShowMessageFace("",0,0,2,21)
ShowMessage("Her pinky curls around the tip of my cock and wraps around it firmly. She moves it back and forth, her pinky rubbing against every part of my tip all at once in a ring.")
ShowMessageFace("",0,0,2,22)
ShowMessage("The way my cock twitches and throbs at her touch... Rumi is doing her best to make me finish with this.")
ShowMessageFace("",0,0,2,23)
ShowMessage("\\n<Luka>Guh, this is...!\nAh, aauu...")
ShowMessageFace("",0,0,2,24)
ShowMessage("Gritting my teeth, I attempt to hold on and resist the pleasure. I can't just let her finish me off this fast...!")
ShowMessageFace("inp_fc3",2,0,2,25)
ShowMessage("\\n<Rumi>Seriously, it's not like you can hold on much longer.\n...Hora, come into my hand, you pathetic hero... Or something. That talk gets you off, right?")
ShowMessageFace("",0,0,2,26)
ShowMessage("The way her fingers curl around me, moving smoothly up and down, up and down... I can't help it. It's so good! Too good...")
ShowMessageFace("",0,0,2,27)
ShowMessage("\\n<Luka>Ah...! Aaaaa...!!")
ShowMessageFace("",0,0,2,28)
ShowMessage("My mind goes blank, thoughts brushed aside in the face of such incredibly skilled stimulation. My penis begins to twitch and throb in her hand, and...")
RunCommonEvent(104)
PictureDisplay(6,"ev_inp_ct22",0,0,0,0,100,100,255,0)
RunCommonEvent(105)
ShowMessageFace("",0,0,2,29)
ShowMessage("I can't resist any more, spurting out a shot of semen. In the end, she knew exactly what to do. I didn't stand a chance...")
ShowMessageFace("",0,0,2,30)
ShowMessage("\\n<Luka>Hauu...")
ShowMessageFace("inp_fc3",0,0,2,31)
ShowMessage("\\n<Rumi>Finally. Took you long enough, boss.")
ShowMessageFace("",0,0,2,32)
ShowMessage("Rumi lets go of my penis and shakes the semen off of her fingers. Left in a daze at how easily she extracted my semen, I stagger away.")
221()
PictureClear(5)
PictureClear(6)
246(2)
ShowMessageFace("",0,0,2,33)
ShowMessage("......")
242(2)
Wait(120)
241(bytes(0x04,0x08,0x6f,0x3a,0x0d,0x52,0x50,0x47,0x3a,0x3a,0x42,0x47,0x4d,0x08,0x3a,0x0a,0x40,0x6e,0x61,0x6d,0x65,0x49,0x22,0x0c,0x63,0x61,0x73,0x74,0x6c,0x65,0x36,0x06,0x3a,0x06,0x45,0x54,0x3a,0x0c,0x40,0x76,0x6f,0x6c,0x75,0x6d,0x65,0x69,0x69,0x3a,0x0b,0x40,0x70,0x69,0x74,0x63,0x68,0x69,0x69))
0()
