﻿// EVENT 5011
Name "Raffia 1"

PictureDisplay(5,"80_rafi_st02",0,0,0,0,100,100,0,0)
PictureMove(5,null,0,0,0,0,100,100,255,0,30,true)
ShowMessageFace("rafi_fc1",0,0,2,1)
ShowMessage("\\n<Raffia>So, you want to taste sweet pleasures...")
ShowMessageFace("",0,0,2,2)
ShowMessage("\\n<Luka>Y-yes please...")
ShowMessageFace("rafi_fc1",1,0,2,3)
ShowMessage("\\n<Raffia>Now then, come inside...\nI'll digest you inside my pitcher.")
ShowMessageFace("",0,0,2,4)
ShowMessage("\\n<Luka>M-melt... Don't...!")
241(bytes(0x04,0x08,0x6f,0x3a,0x0d,0x52,0x50,0x47,0x3a,0x3a,0x42,0x47,0x4d,0x08,0x3a,0x0a,0x40,0x6e,0x61,0x6d,0x65,0x49,0x22,0x09,0x65,0x72,0x6f,0x31,0x06,0x3a,0x06,0x45,0x54,0x3a,0x0c,0x40,0x76,0x6f,0x6c,0x75,0x6d,0x65,0x69,0x69,0x3a,0x0b,0x40,0x70,0x69,0x74,0x63,0x68,0x69,0x69))
250(bytes(0x04,0x08,0x6f,0x3a,0x0c,0x52,0x50,0x47,0x3a,0x3a,0x53,0x45,0x08,0x3a,0x0a,0x40,0x6e,0x61,0x6d,0x65,0x49,0x22,0x16,0x6d,0x6f,0x6e,0x5f,0x65,0x72,0x6f,0x5f,0x6d,0x61,0x6b,0x69,0x74,0x75,0x6b,0x69,0x32,0x06,0x3a,0x06,0x45,0x54,0x3a,0x0b,0x40,0x70,0x69,0x74,0x63,0x68,0x69,0x69,0x3a,0x0c,0x40,0x76,0x6f,0x6c,0x75,0x6d,0x65,0x69,0x69))
ShowMessageFace("",0,0,2,5)
ShowMessage("Her vines wrap around me.Too weak to resist, they lift me into the air and slowly bring me closer to her.")
ShowMessageFace("",0,0,2,6)
ShowMessage("\\n<Luka>Ahh! Help me!")
ShowMessageFace("",0,0,2,7)
ShowMessage("Right in front of me, the pitcher attached to her body is open and waiting.")
ShowMessageFace("",0,0,2,8)
ShowMessage("A pitcher big enough for a human to easily fit in, it's filled with a sweet smelling amber liquid.")
ShowMessageFace("",0,0,2,9)
ShowMessage("A nightmare liquid that will dissolve even a human's body...")
ShowMessageFace("",0,0,2,10)
ShowMessage("\\n<Luka>S...stop it... No...")
ShowMessageFace("rafi_fc1",1,0,2,11)
ShowMessage("\\n<Raffia>Hehehe, everyone is reluctant at first.\nBut once they're submerged, they all enjoy it.")
245(bytes(0x04,0x08,0x6f,0x3a,0x0d,0x52,0x50,0x47,0x3a,0x3a,0x42,0x47,0x53,0x08,0x3a,0x0a,0x40,0x6e,0x61,0x6d,0x65,0x49,0x22,0x1a,0x6d,0x6f,0x6e,0x5f,0x68,0x73,0x65,0x61,0x6e,0x32,0x31,0x5f,0x74,0x65,0x6e,0x74,0x61,0x63,0x6c,0x65,0x32,0x06,0x3a,0x06,0x45,0x54,0x3a,0x0c,0x40,0x76,0x6f,0x6c,0x75,0x6d,0x65,0x69,0x55,0x3a,0x0b,0x40,0x70,0x69,0x74,0x63,0x68,0x69,0x69))
PictureDisplay(5,"ev_rafi_h3",0,0,0,0,100,100,255,0)
ShowMessageFace("",0,0,2,12)
ShowMessage("With that, the vines release me, dropping me into her pitcher!")
ShowMessageFace("",0,0,2,13)
ShowMessage("\\n<Luka>Ahhhh...")
ShowMessageFace("",0,0,2,14)
ShowMessage("The amber liquid quickly washes over me, covering every inch of my body in the warm juice.")
ShowMessageFace("",0,0,2,15)
ShowMessage("I'm instantly washed over with a powerful feeling of relaxation, the opposite of the fear I'm filled with.")
ShowMessageFace("",0,0,2,16)
ShowMessage("\\n<Luka>No... Help me...")
ShowMessageFace("",0,0,2,17)
ShowMessage("I claw at the sides of the pitcher, but its incredibly slippery surface is impossible to get a hold on. As I struggle and splash around inside her pitcher, Raffia's sadistic core is clearly enjoying the sight of me.")
ShowMessageFace("rafi_fc1",1,0,2,18)
ShowMessage("\\n<Raffia>Hehehe... You look so pitiful.\nI love watching my prey struggle as I digest them.")
ShowMessageFace("rafi_fc1",1,0,2,19)
ShowMessage("\\n<Raffia>You too, will slowly be digested.")
ShowMessageFace("",0,0,2,20)
ShowMessage("\\n<Luka>Aiiee...")
ShowMessageFace("",0,0,2,21)
ShowMessage("I can't escape...\nA feeling of hopelessness washes over me.")
ShowMessageFace("",0,0,2,22)
ShowMessage("Other desires start to awaken inside me...")
ShowMessageFace("",0,0,2,23)
ShowMessage("I want to relax in the warm amber liquid... Let it wash over me as I let it submerge me.")
ShowMessageFace("",0,0,2,24)
ShowMessage("If I could just relax and give in, it would feel so nice...")
ShowMessageFace("rafi_fc1",1,0,2,25)
ShowMessage("\\n<Raffia>When prey enter my pitcher, they start to desire their own digestion... You're starting to feel it now too, aren't you?")
ShowMessageFace("",0,0,2,26)
ShowMessage("\\n<Luka>That's not...")
ShowMessageFace("rafi_fc1",1,0,2,27)
ShowMessage("\\n<Raffia>Hehe... I wonder how long you'll continue to bluff.")
ShowMessageFace("",0,0,2,28)
ShowMessage("\\n<Luka>Unnngh...")
ShowMessageFace("",0,0,2,29)
ShowMessage("I can't move my body at all, no matter how much I will my mind to struggle. It's as if my body itself just wants to relax in comfort in here...")
ShowMessageFace("",0,0,2,30)
ShowMessage("Frustrated at my body refusing to act as I want it to, I feel my penis getting hard. Humiliated at being unable to control myself at all, I bite my lip in shame.")
ShowMessageFace("rafi_fc1",1,0,2,31)
ShowMessage("\\n<Raffia>Ara... Did you get an erection?")
ShowMessageFace("",0,0,2,32)
ShowMessage("\\n<Luka>Ahhh... W...why...?")
ShowMessageFace("",0,0,2,33)
ShowMessage("My penis gets hard, moving through the thick amber liquid. Just the feeling itself of having my penis floating in her juices makes me shiver in pleasure.")
ShowMessageFace("",0,0,2,34)
ShowMessage("\\n<Luka>Auuuu...")
RunCommonEvent(104)
PictureDisplay(5,"ev_rafi_h4",0,0,0,0,100,100,255,0)
RunCommonEvent(105)
ShowMessageFace("",0,0,2,35)
ShowMessage("As if I was forced to, I ejaculate inside the pitcher.")
ShowMessageFace("",0,0,2,36)
ShowMessage("Nothing in particular seemed to trigger it, it just came out. The weak ejaculation just adds to the pitiful state I'm in.")
ShowMessageFace("rafi_fc1",1,0,2,37)
ShowMessage("\\n<Raffia>Arara...\nComing like that... How pathetic.")
ShowMessageFace("",0,0,2,38)
ShowMessage("\\n<Luka>U-ugh...")
ShowMessageFace("",0,0,2,39)
ShowMessage("I shiver, on the verge of tears in shame.\nOf all the things, I had to ejaculate while just floating in here...")
ShowMessageFace("rafi_fc1",1,0,2,40)
ShowMessage("\\n<Raffia>Coming inside my pitcher like that... What a shameful little boy. But I'm a very kind monster, so I'll give you some extra care.")
ShowMessageFace("",0,0,2,41)
ShowMessage("Small vines start to move inside the pitcher I'm submerged in. One of the vines has a small pitcher at the end of it, slowly moving toward my penis submerged in the amber liquid.")
ShowMessageFace("rafi_fc1",1,0,2,42)
ShowMessage("\\n<Raffia>A man's instinct is to insert in whatever he can, right? You can put your penis in there if you want, I don't mind.")
ShowMessageFace("",0,0,2,43)
ShowMessage("\\n<Luka>S...stop it!")
245(bytes(0x04,0x08,0x6f,0x3a,0x0d,0x52,0x50,0x47,0x3a,0x3a,0x42,0x47,0x53,0x08,0x3a,0x0a,0x40,0x6e,0x61,0x6d,0x65,0x49,0x22,0x1a,0x6d,0x6f,0x6e,0x5f,0x68,0x73,0x65,0x61,0x6e,0x32,0x32,0x5f,0x74,0x65,0x6e,0x74,0x61,0x63,0x6c,0x65,0x33,0x06,0x3a,0x06,0x45,0x54,0x3a,0x0c,0x40,0x76,0x6f,0x6c,0x75,0x6d,0x65,0x69,0x55,0x3a,0x0b,0x40,0x70,0x69,0x74,0x63,0x68,0x69,0x69))
PictureDisplay(6,"ev_rafi_ct01",0,0,0,0,100,100,255,0)
ShowMessageFace("",0,0,2,44)
ShowMessage("Despite my resistance, the small pitcher is pushed onto my penis!")
ShowMessageFace("",0,0,2,45)
ShowMessage("\\n<Luka>Ah! Ahhhh!!")
ShowMessageFace("",0,0,2,46)
ShowMessage("In the next instant, my body relaxes again.")
ShowMessageFace("",0,0,2,47)
ShowMessage("The small pitcher starts to suck and pump on my penis, pushing and pulling the amber liquid past my penis.")
ShowMessageFace("rafi_fc1",1,0,2,48)
ShowMessage("\\n<Raffia>That's a pitcher for digesting sperm.\nOf course because of that, it's specially designed to pleasure men.")
ShowMessageFace("rafi_fc1",1,0,2,49)
ShowMessage("\\n<Raffia>So please enjoy it.\nEither way, you'll still be digested...")
ShowMessageFace("",0,0,2,50)
ShowMessage("\\n<Luka>Ahhhh!")
ShowMessageFace("",0,0,2,51)
ShowMessage("The soft walls of the tiny pitcher chew and wriggle around my penis.")
ShowMessageFace("",0,0,2,52)
ShowMessage("My lower body starts to tingle as my head goes white.")
ShowMessageFace("",0,0,2,53)
ShowMessage("\\n<Luka>Huaaa...")
ShowMessageFace("",0,0,2,54)
ShowMessage("Immersed in her warm digestive juices with another pitcher sucking on my penis, it feels too good to do anything but drown myself in the pleasure.")
RunCommonEvent(104)
PictureDisplay(5,"ev_rafi_h5",0,0,0,0,100,100,255,0)
PictureDisplay(6,"ev_rafi_ct02",0,0,0,0,100,100,255,0)
RunCommonEvent(105)
ShowMessageFace("",0,0,2,55)
ShowMessage("Only a short while after my last orgasm, I come again, filling the small pitcher with my cloudy semen.")
ShowMessageFace("rafi_fc1",1,0,2,56)
ShowMessage("\\n<Raffia>Hehehe, you couldn't stop yourself after all.\nThis tiny pitcher is great, isn't it?")
ShowMessageFace("rafi_fc1",1,0,2,57)
ShowMessage("\\n<Raffia>Don't hold back, just keep coming...\nSemen is the best nutrient for me, after all.")
ShowMessageFace("",0,0,2,58)
ShowMessage("\\n<Luka>Aaaa...")
ShowMessageFace("",0,0,2,59)
ShowMessage("The small pitcher continues to suck on me, its soft walls chewing and wriggling around me.")
ShowMessageFace("",0,0,2,60)
ShowMessage("Each movement forces the warm liquid to flow around my penis, stimulating every part of my penis.")
ShowMessageFace("",0,0,2,61)
ShowMessage("\\n<Luka>Ahh... It feels good...")
ShowMessageFace("rafi_fc1",1,0,2,62)
ShowMessage("\\n<Raffia>Hehe, so you like this?\nThen I'll make it even better...")
ShowMessageFace("",0,0,2,63)
ShowMessage("More liquid is shot from the tiny pitcher, flowing past my penis. I know it's digestive juices... But it feels so good.")
ShowMessageFace("",0,0,2,64)
ShowMessage("The warm liquid covers my body, filling me with a relaxing feeling that makes it feel like my body is melting.")
ShowMessageFace("",0,0,2,65)
ShowMessage("\\n<Luka>Ahh... I'm melting...")
ShowMessageFace("rafi_fc1",1,0,2,66)
ShowMessage("\\n<Raffia>And it feels good, doesn't it?\nDissolving in my pitcher is like relaxing in heaven, you know...")
ShowMessageFace("",0,0,2,67)
ShowMessage("\\n<Luka>Unnngh...")
ShowMessageFace("",0,0,2,68)
ShowMessage("My body itself is dissolving...\nBut even so, the tiny pitcher is sucking on my penis at the same time, and it feels so good.")
ShowMessageFace("",0,0,2,69)
ShowMessage("The sense of ecstasy overpowers my fear and disgust, causing me to sigh in pleasure as I climax again. Drool drips out of my mouth as I shoot semen in her.")
RunCommonEvent(104)
PictureDisplay(5,"ev_rafi_h6",0,0,0,0,100,100,255,0)
PictureDisplay(6,"ev_rafi_ct03",0,0,0,0,100,100,255,0)
RunCommonEvent(105)
ShowMessageFace("",0,0,2,70)
ShowMessage("It's like I've been put into a trance... I can't focus on anything but the good feelings around me. Unable to control my own body at all, I surrender to the pleasure.")
If(0,95,0)
 246(2)
 221()
 ShowMessageFace("",0,0,2,71)
 ShowMessage("＊＊＊The rest of the vore scene is being skipped.＊＊＊")
 JumpToLabel("zzz")
 0()
EndIf()
ShowMessageFace("",0,0,2,72)
ShowMessage("\\n<Luka>Huaaa...")
ShowMessageFace("",0,0,2,73)
ShowMessage("I can't escape, and there's no hope...\nAt the very least, the digestive juices make me feel so good...")
ShowMessageFace("",0,0,2,74)
ShowMessage("Thinking those ruinous thoughts, I give my body over to Raffia to be digested.")
ShowMessageFace("",0,0,2,75)
ShowMessage("\\n<Luka>Unnngh... That feels so good...")
ShowMessageFace("rafi_fc1",1,0,2,76)
ShowMessage("\\n<Raffia>Hehe... So you're happily giving in?\nYour body will melt into nothing and become nothing but my food...")
ShowMessageFace("",0,0,2,77)
ShowMessage("\\n<Luka>Hnnaaa...")
ShowMessageFace("",0,0,2,78)
ShowMessage("This pleasure is going to dissolve my body...")
ShowMessageFace("",0,0,2,79)
ShowMessage("My arms, my legs, even my head...\nEverything will be dissolved and digested inside this pitcher.")
ShowMessageFace("",0,0,2,80)
ShowMessage("But I can't feel anything but raw pleasure as even my consciousness slowly melts away.")
ShowMessageFace("",0,0,2,81)
ShowMessage("\\n<Luka>Ahh...")
RunCommonEvent(104)
PictureDisplay(6,"ev_rafi_ct04",0,0,0,0,100,100,255,0)
RunCommonEvent(105)
ShowMessageFace("",0,0,2,82)
ShowMessage("Drooling and with my eyes unfocused, I come inside the tiny pitcher again.")
ShowMessageFace("rafi_fc1",1,0,2,83)
ShowMessage("\\n<Raffia>The seed you use to create offspring is instead being spilled here... But even still, you look so happy.")
ShowMessageFace("rafi_fc1",1,0,2,84)
ShowMessage("\\n<Raffia>Human male prey really is the most pathetic.")
ShowMessageFace("",0,0,2,85)
ShowMessage("Raffia giggles as she watches me slowly dissolve in her pitcher.")
ShowMessageFace("",0,0,2,86)
ShowMessage("But drunk on the sensations, I don't care... I've already given myself to this fate.")
ShowMessageFace("",0,0,2,87)
ShowMessage("Inside her pitcher, my body itself dissolves into nothing but nutrients for her.")
221()
PictureClear(5)
PictureClear(6)
246(2)
ShowMessageFace("",0,0,2,88)
ShowMessage("Thus, another young boy was dissolved by a carnivorous plant monster. Trading his body itself for pleasure, his life ended as nothing but food for her.")
ShowMessageFace("",0,0,2,89)
ShowMessage("......")
DefineLabel("zzz")
RunCommonEvent(3999)
0()
