﻿// EVENT 5841
Name "Rハイミノタウロス"

If(0,443,0)
 PictureDisplay(5,"80_h_mino_st01",0,0,0,0,100,100,255,0)
 0()
EndIf()
ShowMessageFace("h_mino_fc1",0,0,2,1)
ShowMessage("【キャロル】")
ShowMessage("だいたい、こんなものかしら。")
ShowMessage("後は、別添付の資料が揃えば……")
If(0,443,0)
 PictureDisplay(5,"80_mino_st01",0,0,0,0,100,100,255,0)
 0()
EndIf()
ShowMessageFace("mino_fc1",0,0,2,2)
ShowMessage("【ミナ】")
ShowMessage("キャロル姉、頼まれてた書類ってのを持ってきたぜ。")
ShowMessage("あたしはさっぱり分からないけど、これでいいのか？")
ShowMessageFace("h_mino_fc1",3,0,2,3)
ShowMessage("【キャロル】")
ShowMessage("うんうん、これで資料が揃ったわ。")
ShowMessage("ありがとうね、ミナ。")
242(1)
250(bytes(0x04,0x08,0x6f,0x3a,0x0c,0x52,0x50,0x47,0x3a,0x3a,0x53,0x45,0x08,0x3a,0x0a,0x40,0x6e,0x61,0x6d,0x65,0x49,0x22,0x0a,0x7a,0x69,0x68,0x6f,0x75,0x06,0x3a,0x06,0x45,0x54,0x3a,0x0b,0x40,0x70,0x69,0x74,0x63,0x68,0x69,0x69,0x3a,0x0c,0x40,0x76,0x6f,0x6c,0x75,0x6d,0x65,0x69,0x55))
Wait(60)
ShowMessageFace("",0,0,2,4)
ShowMessage("その時――城内に、五時の鐘が鳴り響いた。")
241(bytes(0x04,0x08,0x6f,0x3a,0x0d,0x52,0x50,0x47,0x3a,0x3a,0x42,0x47,0x4d,0x08,0x3a,0x0a,0x40,0x6e,0x61,0x6d,0x65,0x49,0x22,0x09,0x65,0x72,0x6f,0x31,0x06,0x3a,0x06,0x45,0x54,0x3a,0x0c,0x40,0x76,0x6f,0x6c,0x75,0x6d,0x65,0x69,0x69,0x3a,0x0b,0x40,0x70,0x69,0x74,0x63,0x68,0x69,0x69))
ShowMessageFace("mino_fc1",0,0,2,5)
ShowMessage("【ミナ】")
ShowMessage("それじゃあ、小間使いの礼は頂こうかな。")
ShowMessage("おい、お前の精を搾らせよ！")
ShowMessageFace("",0,0,2,6)
ShowMessage("【ルカ】")
ShowMessage("な、なんで僕が――あぁっ！")
PictureDisplay(5,"ev_mino_h1",0,0,0,0,100,100,255,0)
ShowMessageFace("",0,0,2,7)
ShowMessage("そのまま、服が引き剥がされ――")
ShowMessage("股間におっぱいをむぎゅっと密着させられた。")
ShowMessageFace("mino_fc1",0,0,2,8)
ShowMessage("【ミナ】")
ShowMessage("ほら、さっさとイけよ！　ほらほらっ！")
ShowMessageFace("h_mino_fc1",1,0,2,9)
ShowMessage("【キャロル】")
ShowMessage("ミナ……あなた、いつもそんなに乱暴にしているの？")
ShowMessage("もっと優しく搾ってあげないと。")
ShowMessageFace("mino_fc1",2,0,2,10)
ShowMessage("【ミナ】")
ShowMessage("優しく……か。")
ShowMessage("そういうのは、苦手なんだよなぁ。")
ShowMessageFace("mino_fc1",0,0,2,11)
ShowMessage("【ミナ】")
ShowMessage("そうだ、キャロル姉のパイズリを見せてくれよ！")
ShowMessage("男を骨抜きにするテクがあるって噂だぜ！")
ShowMessageFace("h_mino_fc1",1,0,2,12)
ShowMessage("【キャロル】")
ShowMessage("それ、どこの噂よ……")
ShowMessage("まあいいわ、私がパイズリの技を教えてあげる。")
ShowMessageFace("mino_fc1",0,0,2,13)
ShowMessage("【ミナ】")
ShowMessage("お願いします、キャロル姉！")
245(bytes(0x04,0x08,0x6f,0x3a,0x0d,0x52,0x50,0x47,0x3a,0x3a,0x42,0x47,0x53,0x08,0x3a,0x0a,0x40,0x6e,0x61,0x6d,0x65,0x49,0x22,0x17,0x6d,0x6f,0x6e,0x5f,0x68,0x73,0x65,0x61,0x6e,0x31,0x37,0x5f,0x73,0x69,0x67,0x6f,0x6b,0x69,0x06,0x3a,0x06,0x45,0x54,0x3a,0x0c,0x40,0x76,0x6f,0x6c,0x75,0x6d,0x65,0x69,0x55,0x3a,0x0b,0x40,0x70,0x69,0x74,0x63,0x68,0x69,0x69))
PictureDisplay(5,"ev_h_mino_hc1",0,0,0,0,100,100,255,0)
ShowMessageFace("",0,0,2,14)
ShowMessage("キャロルは、手慣れた様子で僕の衣服を脱がすと――")
ShowMessage("露わになったペニスを、豊満なおっぱいで挟み込んできた！")
ShowMessageFace("",0,0,2,15)
ShowMessage("【ルカ】")
ShowMessage("はぅぅぅっ……")
ShowMessageFace("h_mino_fc1",0,0,2,16)
ShowMessage("【キャロル】")
ShowMessage("きつく押しつけるんじゃなくて……")
ShowMessage("優しく包むように、挟んであげるの。")
ShowMessageFace("mino_fc1",0,0,2,17)
ShowMessage("【ミナ】")
ShowMessage("なるほど……")
ShowMessageFace("",0,0,2,18)
ShowMessage("柔らかな温もりが、みっちりとペニス全体を包む。")
ShowMessage("それだけでも、うっとりするような心地だ――")
PictureDisplay(6,"ev_h_mino_hc5",0,0,0,0,100,100,255,0)
ShowMessageFace("",0,0,2,19)
ShowMessage("【ルカ】")
ShowMessage("あ……あぁぁぁ……")
ShowMessageFace("mino_fc1",0,0,2,20)
ShowMessage("【ミナ】")
ShowMessage("すげぇ！")
ShowMessage("挟むだけで、うっとりしてヨダレ垂らしてるぜ！")
245(bytes(0x04,0x08,0x6f,0x3a,0x0d,0x52,0x50,0x47,0x3a,0x3a,0x42,0x47,0x53,0x08,0x3a,0x0a,0x40,0x6e,0x61,0x6d,0x65,0x49,0x22,0x1e,0x6d,0x6f,0x6e,0x5f,0x68,0x73,0x65,0x61,0x6e,0x30,0x36,0x5f,0x69,0x6e,0x6e,0x65,0x72,0x77,0x6f,0x72,0x6b,0x73,0x5f,0x61,0x36,0x06,0x3a,0x06,0x45,0x54,0x3a,0x0c,0x40,0x76,0x6f,0x6c,0x75,0x6d,0x65,0x69,0x55,0x3a,0x0b,0x40,0x70,0x69,0x74,0x63,0x68,0x69,0x69))
PictureDisplay(5,"ev_h_mino_hc2",0,0,0,0,100,100,255,0)
ShowMessageFace("h_mino_fc1",0,0,2,21)
ShowMessage("【キャロル】")
ShowMessage("包み込んで……")
ShowMessage("優しく、甘やかすように……")
ShowMessageFace("",0,0,2,22)
ShowMessage("ずり、ずり……と、キャロルは穏やかに胸を動かし始める。")
ShowMessage("その谷間で、僕のモノは弾力たっぷりにこね回された。")
ShowMessageFace("",0,0,2,23)
ShowMessage("甘い快感で、僕はみるみるとろけていき――")
ShowMessage("体中から、力が抜けてしまう。")
ShowMessageFace("",0,0,2,24)
ShowMessage("【ルカ】")
ShowMessage("はぅぅぅぅ……")
ShowMessageFace("h_mino_fc1",0,0,2,25)
ShowMessage("【キャロル】")
ShowMessage("気持ち良さそうでしょう？")
ShowMessage("このまま、揺らすみたいに刺激を強めて……")
ShowMessageFace("",0,0,2,26)
ShowMessage("たぷたぷ、たぷたぷとおっぱい全体が艶めかしく揺れる。")
ShowMessage("その振動は、柔らかな弾力刺激を生み出した。")
ShowMessageFace("",0,0,2,27)
ShowMessage("【ルカ】")
ShowMessage("ふぁ……あぁぁぁ……")
ShowMessageFace("mino_fc1",0,0,2,28)
ShowMessage("【ミナ】")
ShowMessage("すげぇ、すっかり夢心地だな……")
ShowMessageFace("h_mino_fc1",0,0,2,29)
ShowMessage("【キャロル】")
ShowMessage("じわじわと、圧迫感を高めて……")
ShowMessage("優しく押し潰すように……")
ShowMessageFace("",0,0,2,30)
ShowMessage("【ルカ】")
ShowMessage("はぅぅぅぅっ……")
ShowMessageFace("",0,0,2,31)
ShowMessage("左右からの圧迫感が強くなり――")
ShowMessage("弾力たっぷりに締め付けられるような刺激が与えられる。")
ShowMessageFace("h_mino_fc1",0,0,2,32)
ShowMessage("【キャロル】")
ShowMessage("この時、亀頭に摩擦を与えるように動かすのがコツ。")
ShowMessage("先っちょに、ずりずり……とね。")
ShowMessageFace("",0,0,2,33)
ShowMessage("【ルカ】")
ShowMessage("はぅぅぅぅっ……！！")
ShowMessageFace("",0,0,2,34)
ShowMessage("豊満なおっぱいで、甘く優しく包み込まれ――")
ShowMessage("そのまま、弾力たっぷりに亀頭を重点的にこね回される感触。")
ShowMessageFace("",0,0,2,35)
ShowMessage("あまりの気持ち良さに、頭に中が真っ白になった。")
ShowMessage("腰がびくびくと跳ね上がり、放出感が腰の奥に広がり――")
RunCommonEvent(104)
PictureDisplay(5,"ev_h_mino_hc3",0,0,0,0,100,100,255,0)
RunCommonEvent(105)
ShowMessageFace("",0,0,2,36)
ShowMessage("【ルカ】")
ShowMessage("あぅぅぅ……")
ShowMessageFace("",0,0,2,37)
ShowMessage("大量の精液が、びゅるびゅると溢れ――")
ShowMessage("キャロルのおっぱいの谷間に注がれていった。")
PictureDisplay(5,"ev_h_mino_hc4",0,0,0,0,100,100,255,0)
ShowMessageFace("mino_fc1",0,0,2,38)
ShowMessage("【ミナ】")
ShowMessage("おおっ、もうイった！")
ShowMessageFace("h_mino_fc1",0,0,2,39)
ShowMessage("【キャロル】")
ShowMessage("パイズリはどうしても刺激が弱くなるけど……")
ShowMessage("だからといって、力任せに責めちゃダメよ。")
ShowMessageFace("h_mino_fc1",0,0,2,40)
ShowMessage("【キャロル】")
ShowMessage("甘く、優しく導いてあげれば……")
ShowMessage("みんな、我慢できずにすぐイっちゃうわ。")
ShowMessageFace("mino_fc1",0,0,2,41)
ShowMessage("【ミナ】")
ShowMessage("さすが、キャロル姉！　参考になったぜ！！")
ShowMessageFace("",0,0,2,42)
ShowMessage("【ルカ】")
ShowMessage("はぅぅぅぅ……")
ShowMessageFace("",0,0,2,43)
ShowMessage("パイズリテクニックの実験台にされた僕は――")
ShowMessage("たった一度の射精で、天国にも昇るような心地になっていた。")
ShowMessageFace("h_mino_fc1",0,0,2,44)
ShowMessage("【キャロル】")
ShowMessage("もう一度、例を見せてあげるわ。")
ShowMessage("今度は、こんなテクニックも――")
ShowMessageFace("mino_fc1",0,0,2,45)
ShowMessage("【ミナ】")
ShowMessage("押忍！　お願いします、キャロル姉！！")
ShowMessageFace("",0,0,2,46)
ShowMessage("【ルカ】")
ShowMessage("そんな、もう――あぁぁぁっ！！")
RunCommonEvent(104)
RunCommonEvent(105)
ShowMessageFace("",0,0,2,47)
ShowMessage("それからも、パイズリレクチャーは続き――")
ShowMessage("何度も何度も、キャロルのおっぱいで精を搾り出されたのである――")
221()
PictureClear(5)
PictureClear(6)
242(1)
246(1)
ShowMessageFace("",0,0,2,48)
ShowMessage("・・・・・・・・")
221()
Wait(120)
If(0,443,0)
 EndEventProcessing()
 0()
EndIf()
RunCommonEvent(541)
0()
