﻿// EVENT 5821
Name "R牛魔王"

If(0,443,0)
 PictureDisplay(5,"80_nyumaou_st01",0,0,0,0,100,100,255,0)
 0()
EndIf()
242(1)
250(bytes(0x04,0x08,0x6f,0x3a,0x0c,0x52,0x50,0x47,0x3a,0x3a,0x53,0x45,0x08,0x3a,0x0a,0x40,0x6e,0x61,0x6d,0x65,0x49,0x22,0x0a,0x7a,0x69,0x68,0x6f,0x75,0x06,0x3a,0x06,0x45,0x54,0x3a,0x0b,0x40,0x70,0x69,0x74,0x63,0x68,0x69,0x69,0x3a,0x0c,0x40,0x76,0x6f,0x6c,0x75,0x6d,0x65,0x69,0x55))
Wait(60)
ShowMessageFace("",0,0,2,1)
ShowMessage("その時――城内に、五時の鐘が鳴り響いた。")
241(bytes(0x04,0x08,0x6f,0x3a,0x0d,0x52,0x50,0x47,0x3a,0x3a,0x42,0x47,0x4d,0x08,0x3a,0x0a,0x40,0x6e,0x61,0x6d,0x65,0x49,0x22,0x09,0x65,0x72,0x6f,0x31,0x06,0x3a,0x06,0x45,0x54,0x3a,0x0c,0x40,0x76,0x6f,0x6c,0x75,0x6d,0x65,0x69,0x69,0x3a,0x0b,0x40,0x70,0x69,0x74,0x63,0x68,0x69,0x69))
ShowMessageFace("nyumaou_fc1",0,0,2,2)
ShowMessage("【牛魔王】")
ShowMessage("もう、こんな時間か……少々、腹が減ったな。")
ShowMessage("おっと、目の前に上等な食事があるではないか……")
ShowMessageFace("",0,0,2,3)
ShowMessage("【ルカ】")
ShowMessage("上等な食事って、まさか――うわぁっ！！")
ShowMessageFace("",0,0,2,4)
ShowMessage("僕の体は、牛魔王の大きな手で掴み上げられ――")
ShowMessage("そして、大きく開いた口の中へと無造作に放り込まれたのである。")
221()
Wait(60)
PictureDisplay(5,"ev_nyumaou_hb1",0,0,0,0,100,100,255,0)
222()
ShowMessageFace("",0,0,2,5)
ShowMessage("【ルカ】")
ShowMessage("あ……はぅぅぅ……")
ShowMessageFace("",0,0,2,6)
ShowMessage("あれから、しばらくの間――")
ShowMessage("牛魔王の口内で、丹念に全身をしゃぶり尽くされた。")
ShowMessageFace("",0,0,2,7)
ShowMessage("全身は温かな唾液でヌルヌル。")
ShowMessage("いったん口から出され、巨大なおっぱいで挟み込まれているのだ――")
ShowMessageFace("nyumaou_fc1",1,0,2,8)
ShowMessage("【牛魔王】")
ShowMessage("ふふっ……お主は、本当に美味そうだな。")
ShowMessageFace("",0,0,2,9)
ShowMessage("【ルカ】")
ShowMessage("あぅぅぅ……")
ShowMessageFace("",0,0,2,10)
ShowMessage("脱力した僕の体は、牛魔王の柔らかなおっぱいで圧迫されている。")
ShowMessage("そのままむぎゅむぎゅと刺激され、弄ばれているのだ。")
ShowMessageFace("nyumaou_fc1",1,0,2,11)
ShowMessage("【牛魔王】")
ShowMessage("今は休ませてやっているが……")
ShowMessage("これから、またねぶり尽くしてやるのだぞ。")
ShowMessageFace("",0,0,2,12)
ShowMessage("【ルカ】")
ShowMessage("そんなぁ……もう、やめてぇ……")
ShowMessageFace("nyumaou_fc1",1,0,2,13)
ShowMessage("【牛魔王】")
ShowMessage("くくっ、そんな怯えた顔をするな。")
ShowMessage("妾も、たまらなくなってしまうだろうが……")
ShowMessageFace("",0,0,2,14)
ShowMessage("【ルカ】")
ShowMessage("あ……あぁぁ……")
ShowMessageFace("",0,0,2,15)
ShowMessage("すっかり巨大なおっぱいに包まれ、逃げる事も出来ない。")
ShowMessage("ただ、舌舐めずりをする牛魔王を見上げる事しか出来なかった――")
ShowMessageFace("nyumaou_fc1",1,0,2,16)
ShowMessage("【牛魔王】")
ShowMessage("それでは、頂くぞ……")
ShowMessageFace("",0,0,2,17)
ShowMessage("【ルカ】")
ShowMessage("あ……あぁぁぁ……！！")
245(bytes(0x04,0x08,0x6f,0x3a,0x0d,0x52,0x50,0x47,0x3a,0x3a,0x42,0x47,0x53,0x08,0x3a,0x0a,0x40,0x6e,0x61,0x6d,0x65,0x49,0x22,0x17,0x6d,0x6f,0x6e,0x5f,0x68,0x73,0x65,0x61,0x6e,0x31,0x37,0x5f,0x73,0x69,0x67,0x6f,0x6b,0x69,0x06,0x3a,0x06,0x45,0x54,0x3a,0x0c,0x40,0x76,0x6f,0x6c,0x75,0x6d,0x65,0x69,0x55,0x3a,0x0b,0x40,0x70,0x69,0x74,0x63,0x68,0x69,0x69))
PictureDisplay(5,"ev_nyumaou_hb2",0,0,0,0,100,100,255,0)
ShowMessageFace("",0,0,2,18)
ShowMessage("牛魔王の舌が、おっぱいに挟み込まれた僕の体に絡み付く。")
ShowMessage("べっとりと唾液の乗った肉厚の粘膜が、みっちりと密着してきた。")
ShowMessageFace("",0,0,2,19)
ShowMessage("全身が隙間無く舌に包まれ、舐め尽くされ――")
ShowMessage("そのヌメヌメ感と温もりに抱かれ、僕は悶えてしまった。")
ShowMessageFace("",0,0,2,20)
ShowMessage("【ルカ】")
ShowMessage("あ……あぅぅっ……あぁぁぁ……！！")
ShowMessageFace("nyumaou_fc1",1,0,2,21)
ShowMessage("【牛魔王】")
ShowMessage("お主の体は、本当に美味いのう。")
ShowMessage("さあ、そのまま精の味を沿えるがいい……")
ShowMessageFace("",0,0,2,22)
ShowMessage("【ルカ】")
ShowMessage("はぅぅぅっ……！！")
ShowMessageFace("",0,0,2,23)
ShowMessage("股間のあたりへと、集中的に舌粘膜が擦りつけられる。")
ShowMessage("全身をしゃぶり尽くしながら、器用にペニスを刺激してきたのだ。")
ShowMessageFace("",0,0,2,24)
ShowMessage("ヌルヌルの快感に溺れながら、僕は体をびくびく痙攣させた。")
ShowMessage("なすすべもなく身悶えながら、甘い放出感に身を任せ――")
RunCommonEvent(104)
RunCommonEvent(105)
ShowMessageFace("",0,0,2,25)
ShowMessage("唾液でドロドロになりながら、どっぷりと射精してしまった。")
ShowMessage("股間部に舌粘膜がべろべろと這い、白濁液が舐め尽くされてしまう――")
ShowMessageFace("nyumaou_fc1",1,0,2,26)
ShowMessage("【牛魔王】")
ShowMessage("くくくっ、極上の精の味が加わったな……")
ShowMessage("もっともっと、妾の味覚を楽しませてもらうぞ……")
ShowMessageFace("",0,0,2,27)
ShowMessage("【ルカ】")
ShowMessage("あぅぅ……あ、あぁぁぁっ……！！")
ShowMessageFace("",0,0,2,28)
ShowMessage("こうして僕は、牛魔王に全身をねぶり回された。")
ShowMessage("数え切れないほど射精し、発射した精液を舐め尽くされ――")
ShowMessageFace("",0,0,2,29)
ShowMessage("ドロドロの唾液にまみれながら、意識が薄れていき――")
ShowMessage("そして、おっぱいと舌に包まれたまま気を失ってしまったのである。")
221()
PictureClear(5)
242(1)
246(1)
ShowMessageFace("",0,0,2,30)
ShowMessage("・・・・・・・・")
221()
Wait(120)
If(0,443,0)
 EndEventProcessing()
 0()
EndIf()
RunCommonEvent(541)
0()
