﻿// EVENT 1319
Name "Talk: El"

If(1,20,0,1,0)
 JumpToLabel("情報")
 0()
EndIf()
If(1,20,0,2,0)
 JumpToLabel("質問")
 0()
EndIf()
If(1,20,0,3,0)
 JumpToLabel("要求")
 0()
EndIf()
If(1,20,0,4,0)
 JumpToLabel("贈与")
 0()
EndIf()
DefineLabel("情報")
ChangeVariable(13,13,0,2,1,100)
If(1,13,0,10,2)
 ShowMessageFace("ningyohime_fc1",2,0,2,1)
 ShowMessage("\\n<El>I hate humans!")
 EndEventProcessing()
 0()
EndIf()
If(1,13,0,20,2)
 ShowMessageFace("ningyohime_fc1",3,0,2,2)
 ShowMessage("\\n<El>I've been educated to become a Queen!")
 EndEventProcessing()
 0()
EndIf()
If(1,13,0,30,2)
 ShowMessageFace("ningyohime_fc1",4,0,2,3)
 ShowMessage("\\n<El>I want to grow bigger soon!")
 EndEventProcessing()
 0()
EndIf()
If(1,13,0,40,2)
 ShowMessageFace("ningyohime_fc1",4,0,2,4)
 ShowMessage("\\n<El>I'll make this town into the mermaid's capital!")
 EndEventProcessing()
 0()
EndIf()
If(1,13,0,50,2)
 ShowMessageFace("ningyohime_fc1",4,0,2,5)
 ShowMessage("\\n<El>I want to play with your penis!")
 EndEventProcessing()
 0()
EndIf()
If(1,13,0,60,2)
 ShowMessageFace("ningyohime_fc1",4,0,2,6)
 ShowMessage("\\n<El>I'll squeeze out lots of semen! ♪")
 EndEventProcessing()
 0()
EndIf()
If(1,13,0,70,2)
 ShowMessageFace("ningyohime_fc1",4,0,2,7)
 ShowMessage("\\n<El>I'm the Mermaid Princess!")
 EndEventProcessing()
 0()
EndIf()
If(1,13,0,80,2)
 ShowMessageFace("ningyohime_fc1",4,0,2,8)
 ShowMessage("\\n<El>My mommy is the Queen of the Mermaids!\nShe is the best among mermaids!")
 EndEventProcessing()
 0()
EndIf()
If(1,13,0,90,2)
 ShowMessageFace("ningyohime_fc1",2,0,2,9)
 ShowMessage("\\n<El>Humans have done terrible things to my mom!\nI'll never forgive them!")
 EndEventProcessing()
 0()
EndIf()
If(1,13,0,100,2)
 ShowMessageFace("ningyohime_fc1",4,0,2,10)
 ShowMessage("\\n<El>From now on, mermaids will rule over humans!")
 EndEventProcessing()
 0()
EndIf()
DefineLabel("質問")
ChangeVariable(13,13,0,2,1,50)
If(1,13,0,10,2)
 ShowMessageFace("ningyohime_fc1",3,0,2,11)
 ShowMessage("\\n<El>This starfish pouch I'm carrying is my favorite...\nDo you know what's inside?")
 ShowChoices(strings("Snacks","Jewelry","Human ears"),0)
 IfPlayerPicksChoice(0,"おやつ")
  ShowMessageFace("ningyohime_fc1",4,0,2,12)
  ShowMessage("\\n<El>Yes, there are snacks inside!\nThere's chocolate, kelp, and candy! ♪")
  355("change_friend(10)")
  0()
 IfPlayerPicksChoice(1,"宝石")
  ShowMessageFace("ningyohime_fc1",3,0,2,13)
  ShowMessage("\\n<El>I wish there was jewelry inside...\nBy the way, it contains snacks.")
  0()
 IfPlayerPicksChoice(2,"人間の耳")
  ShowMessageFace("ningyohime_fc2",0,0,2,14)
  ShowMessage("\\n<El>There's nothing like that inside!\nThat's scary!")
  355("change_friend(-5)")
  0()
 404()
 EndEventProcessing()
 0()
EndIf()
If(1,13,0,20,2)
 ShowMessageFace("ningyohime_fc1",3,0,2,15)
 ShowMessage("\\n<El>Do you like your mom?")
 ShowChoices(strings("I like her","I hate her","She is already dead"),0)
 IfPlayerPicksChoice(0,"好き")
  ShowMessageFace("ningyohime_fc1",5,0,2,16)
  ShowMessage("\\n<El>Mine too! ♪")
  355("change_friend(10)")
  0()
 IfPlayerPicksChoice(1,"嫌い")
  ShowMessageFace("ningyohime_fc1",6,0,2,17)
  ShowMessage("\\n<El>Did you get into a fight...?\nYou'd better make up.")
  0()
 IfPlayerPicksChoice(2,"もう死んだ")
  ShowMessageFace("ningyohime_fc1",6,0,2,18)
  ShowMessage("\\n<El>You don't have a mom anymore...\nI feel sorry...")
  355("change_friend(10)")
  0()
 404()
 EndEventProcessing()
 0()
EndIf()
If(1,13,0,30,2)
 ShowMessageFace("ningyohime_fc1",4,0,2,19)
 ShowMessage("\\n<El>Even small breasts are cute, aren't they?!")
 ShowChoices(strings("Of course!","I don't think so","Mine are also small"),0)
 IfPlayerPicksChoice(0,"もちろん！")
  ShowMessageFace("ningyohime_fc1",5,0,2,20)
  ShowMessage("\\n<El>I'm happy! ♪")
  355("change_friend(10)")
  0()
 IfPlayerPicksChoice(1,"そうは思わない")
  ShowMessageFace("ningyohime_fc2",0,0,2,21)
  ShowMessage("\\n<El>Meanie!")
  355("change_friend(-5)")
  0()
 IfPlayerPicksChoice(2,"僕もちっぱいだ")
  ShowMessageFace("ningyohime_fc1",6,0,2,22)
  ShowMessage("\\n<El>So what...?")
  0()
 404()
 EndEventProcessing()
 0()
EndIf()
If(1,13,0,40,2)
 ShowMessageFace("ningyohime_fc1",4,0,2,23)
 ShowMessage("\\n<El>I'm working hard!\nWill mommy praise me?")
 ShowChoices(strings("She'll praise you","She'll be angry","You are a mother"),0)
 IfPlayerPicksChoice(0,"褒めてもらえる")
  ShowMessageFace("ningyohime_fc1",5,0,2,24)
  ShowMessage("\\n<El>Hooray! ♪")
  355("change_friend(10)")
  0()
 IfPlayerPicksChoice(1,"怒られる")
  ShowMessageFace("ningyohime_fc1",7,0,2,25)
  ShowMessage("\\n<El>You don't think so...?\nBut I'm trying my best...")
  0()
 IfPlayerPicksChoice(2,"君がおかあさんだ")
  ShowMessageFace("ningyohime_fc1",2,0,2,26)
  ShowMessage("\\n<El>I haven't had a child yet!")
  355("change_friend(-5)")
  0()
 404()
 EndEventProcessing()
 0()
EndIf()
If(1,13,0,50,2)
 ShowMessageFace("ningyohime_fc1",4,0,2,27)
 ShowMessage("\\n<El>What do you think is the most important ability of a Queen?")
 ShowChoices(strings("Leadership","Combat ability","Eroticism"),0)
 IfPlayerPicksChoice(0,"リーダーシップ")
  ShowMessageFace("ningyohime_fc1",4,0,2,28)
  ShowMessage("\\n<El>Yes, leadership is the most important thing!")
  355("change_friend(10)")
  0()
 IfPlayerPicksChoice(1,"戦闘能力")
  ShowMessageFace("ningyohime_fc1",3,0,2,29)
  ShowMessage("\\n<El>Leadership is more important than the ability to fight!")
  0()
 IfPlayerPicksChoice(2,"エロさ")
  ShowMessageFace("ningyohime_fc1",6,0,2,30)
  ShowMessage("\\n<El>Huh...? Is it also important to be erotic?")
  0()
 404()
 EndEventProcessing()
 0()
EndIf()
DefineLabel("要求")
ChangeVariable(13,13,0,2,1,30)
If(1,13,0,10,2)
 If(8,435)
  ShowMessageFace("ningyohime_fc1",4,0,2,31)
  ShowMessage("\\n<El>I want some candy! ♪")
  ChangeVariable(24,24,0,3,0,435,0)
  ShowMessageFace("",0,0,2,32)
  ShowMessage("Do you want to give some \\ii[435]? (Have:\\V[24])")
  ShowChoices(strings("Yes","No"),2)
  IfPlayerPicksChoice(0,"Yes")
   ShowMessageFace("ningyohime_fc1",4,0,2,33)
   ShowMessage("\\n<El>Yaaay♪ Thanks! ♪")
   ChangeInventory_Item(435,1,0,1)
   355("change_friend(20)")
   EndEventProcessing()
   0()
  IfPlayerPicksChoice(1,"No")
   ShowMessageFace("ningyohime_fc1",2,0,2,34)
   ShowMessage("\\n<El>That's no fun!")
   EndEventProcessing()
   0()
  404()
  0()
 Else()
  ChangeVariable(13,13,0,0,20)
  0()
 EndIf()
 0()
EndIf()
If(1,13,0,20,2)
 If(8,450)
  ShowMessageFace("ningyohime_fc1",4,0,2,35)
  ShowMessage("\\n<El>Chi~Pa~Pa, I want it! ♪")
  ChangeVariable(24,24,0,3,0,450,0)
  ShowMessageFace("",0,0,2,36)
  ShowMessage("Do you want to give a \\ii[450]? (Have:\\V[24])")
  ShowChoices(strings("Yes","No"),2)
  IfPlayerPicksChoice(0,"Yes")
   ShowMessageFace("ningyohime_fc1",4,0,2,37)
   ShowMessage("\\n<El>Yaaay♪ Thanks! ♪")
   ChangeInventory_Item(450,1,0,1)
   355("change_friend(30)")
   EndEventProcessing()
   0()
  IfPlayerPicksChoice(1,"No")
   ShowMessageFace("ningyohime_fc1",2,0,2,38)
   ShowMessage("\\n<El>That's no fun!")
   EndEventProcessing()
   0()
  404()
  0()
 Else()
  ChangeVariable(13,13,0,0,30)
  0()
 EndIf()
 0()
EndIf()
If(1,13,0,30,2)
 ShowMessageFace("ningyohime_fc1",4,0,2,39)
 ShowMessage("\\n<El>I want an allowance! ♪")
 If(7,234,0)
  ChangeVariable(24,24,0,3,7,2,0)
  ShowMessageFace("",0,0,2,40)
  ShowMessage("Do you want to give 234G? (Remaining:\\V[24])")
  ShowChoices(strings("Yes","No"),2)
  IfPlayerPicksChoice(0,"Yes")
   ShowMessageFace("ningyohime_fc1",4,0,2,41)
   ShowMessage("\\n<El>Yaaay♪ Thanks! ♪")
   125(1,0,234)
   355("change_friend(25)")
   EndEventProcessing()
   0()
  IfPlayerPicksChoice(1,"No")
   ShowMessageFace("ningyohime_fc1",2,0,2,42)
   ShowMessage("\\n<El>That's no fun!")
   EndEventProcessing()
   0()
  404()
  0()
 Else()
  ShowMessageFace("ningyohime_fc1",6,0,2,43)
  ShowMessage("\\n<El>...Huh? You have less money than me?\nI'm sorry for you...")
  EndEventProcessing()
  0()
 EndIf()
 0()
EndIf()
DefineLabel("贈与")
ChangeVariable(13,13,0,2,1,30)
If(1,25,0,1,0)
 ChangeVariable(13,13,0,0,30)
 ChangeVariable(25,25,0,0,0)
 0()
EndIf()
If(1,25,0,2,0)
 ChangeVariable(13,13,0,2,1,20)
 ChangeVariable(25,25,0,0,0)
 0()
EndIf()
If(1,13,0,10,2)
 ShowMessageFace("ningyohime_fc1",4,0,2,44)
 ShowMessage("\\n<El>I'll give you this! It's just a stone!")
 250(bytes(0x04,0x08,0x6f,0x3a,0x0c,0x52,0x50,0x47,0x3a,0x3a,0x53,0x45,0x08,0x3a,0x0a,0x40,0x6e,0x61,0x6d,0x65,0x49,0x22,0x0a,0x49,0x74,0x65,0x6d,0x31,0x06,0x3a,0x06,0x45,0x54,0x3a,0x0b,0x40,0x70,0x69,0x74,0x63,0x68,0x69,0x69,0x3a,0x0c,0x40,0x76,0x6f,0x6c,0x75,0x6d,0x65,0x69,0x55))
 ChangeInventory_Item(449,0,0,1)
 ShowMessageFace("",0,0,2,45)
 ShowMessage("El gave you a \\ii[449]!")
 EndEventProcessing()
 0()
EndIf()
If(1,13,0,20,2)
 ShowMessageFace("ningyohime_fc1",4,0,2,46)
 ShowMessage("\\n<El>I'll give you this! It's emergency food!")
 250(bytes(0x04,0x08,0x6f,0x3a,0x0c,0x52,0x50,0x47,0x3a,0x3a,0x53,0x45,0x08,0x3a,0x0a,0x40,0x6e,0x61,0x6d,0x65,0x49,0x22,0x0a,0x49,0x74,0x65,0x6d,0x31,0x06,0x3a,0x06,0x45,0x54,0x3a,0x0b,0x40,0x70,0x69,0x74,0x63,0x68,0x69,0x69,0x3a,0x0c,0x40,0x76,0x6f,0x6c,0x75,0x6d,0x65,0x69,0x55))
 ChangeInventory_Item(414,0,0,1)
 ShowMessageFace("",0,0,2,47)
 ShowMessage("El gave you some \\ii[414]!")
 EndEventProcessing()
 0()
EndIf()
If(1,13,0,30,2)
 ShowMessageFace("ningyohime_fc1",4,0,2,48)
 ShowMessage("\\n<El>I'll give you some money, let's go play together!")
 250(bytes(0x04,0x08,0x6f,0x3a,0x0c,0x52,0x50,0x47,0x3a,0x3a,0x53,0x45,0x08,0x3a,0x0a,0x40,0x6e,0x61,0x6d,0x65,0x49,0x22,0x0a,0x49,0x74,0x65,0x6d,0x31,0x06,0x3a,0x06,0x45,0x54,0x3a,0x0b,0x40,0x70,0x69,0x74,0x63,0x68,0x69,0x69,0x3a,0x0c,0x40,0x76,0x6f,0x6c,0x75,0x6d,0x65,0x69,0x55))
 125(0,0,390)
 ShowMessageFace("",0,0,2,49)
 ShowMessage("El gave you 390G!")
 EndEventProcessing()
 0()
EndIf()
0()
