﻿// EVENT 5813
Name "R巨竜娘"

If(0,443,0)
 PictureDisplay(5,"80_kyoryuu_st01",0,0,0,0,100,100,255,0)
 0()
EndIf()
242(1)
250(bytes(0x04,0x08,0x6f,0x3a,0x0c,0x52,0x50,0x47,0x3a,0x3a,0x53,0x45,0x08,0x3a,0x0a,0x40,0x6e,0x61,0x6d,0x65,0x49,0x22,0x0a,0x7a,0x69,0x68,0x6f,0x75,0x06,0x3a,0x06,0x45,0x54,0x3a,0x0b,0x40,0x70,0x69,0x74,0x63,0x68,0x69,0x69,0x3a,0x0c,0x40,0x76,0x6f,0x6c,0x75,0x6d,0x65,0x69,0x55))
Wait(60)
ShowMessageFace("",0,0,2,1)
ShowMessage("その時――城内に、五時の鐘が鳴り響いた。")
241(bytes(0x04,0x08,0x6f,0x3a,0x0d,0x52,0x50,0x47,0x3a,0x3a,0x42,0x47,0x4d,0x08,0x3a,0x0a,0x40,0x6e,0x61,0x6d,0x65,0x49,0x22,0x09,0x65,0x72,0x6f,0x31,0x06,0x3a,0x06,0x45,0x54,0x3a,0x0c,0x40,0x76,0x6f,0x6c,0x75,0x6d,0x65,0x69,0x69,0x3a,0x0b,0x40,0x70,0x69,0x74,0x63,0x68,0x69,0x69))
ShowMessageFace("kyoryuu_fc1",0,0,2,2)
ShowMessage("【ぎが】")
ShowMessage("んっ……何してるの？")
ShowMessageFace("",0,0,2,3)
ShowMessage("【ルカ】")
ShowMessage("あっ、起きた……")
ShowMessageFace("kyoryuu_fc1",1,0,2,4)
ShowMessage("【ぎが】")
ShowMessage("えっちなこと、したいの？")
ShowMessage("じゃあ、やってみる……")
ShowMessageFace("",0,0,2,5)
ShowMessage("【ルカ】")
ShowMessage("な、何を……うわぁっ！！")
245(bytes(0x04,0x08,0x6f,0x3a,0x0d,0x52,0x50,0x47,0x3a,0x3a,0x42,0x47,0x53,0x08,0x3a,0x0a,0x40,0x6e,0x61,0x6d,0x65,0x49,0x22,0x17,0x6d,0x6f,0x6e,0x5f,0x68,0x73,0x65,0x61,0x6e,0x31,0x37,0x5f,0x73,0x69,0x67,0x6f,0x6b,0x69,0x06,0x3a,0x06,0x45,0x54,0x3a,0x0c,0x40,0x76,0x6f,0x6c,0x75,0x6d,0x65,0x69,0x55,0x3a,0x0b,0x40,0x70,0x69,0x74,0x63,0x68,0x69,0x69))
PictureDisplay(5,"ev_kyoryuu_hb1",0,0,0,0,100,100,255,0)
ShowMessageFace("",0,0,2,6)
ShowMessage("ぎがは僕にのしかかり、巨大な陰部で押し潰してきた！")
ShowMessageFace("",0,0,2,7)
ShowMessage("【ルカ】")
ShowMessage("うぐっ……！")
ShowMessageFace("kyoryuu_fc1",1,0,2,8)
ShowMessage("【ぎが】")
ShowMessage("これ、えっちなこと……")
ShowMessageFace("",0,0,2,9)
ShowMessage("みっちりと押し潰され、僕は重圧にもがいた。")
ShowMessage("あまりにもサイズが違いすぎて、もはや拷問だ――")
ShowMessageFace("",0,0,2,10)
ShowMessage("【ルカ】")
ShowMessage("うぐ……う、うぅぅ……")
ShowMessageFace("",0,0,2,11)
ShowMessage("そのまま、ぐりぐりと腰を押しつけてくる。")
ShowMessage("ズボンの中で、大きくなったペニスも圧迫を受け――")
ShowMessageFace("",0,0,2,12)
ShowMessage("【ルカ】")
ShowMessage("あ……あぁぁっ……！")
RunCommonEvent(104)
RunCommonEvent(105)
ShowMessageFace("",0,0,2,13)
ShowMessage("朦朧とする意識の中で、射精に至ってしまった。")
ShowMessage("パンツの中に、精液を撒き散らしてしまう――")
ShowMessageFace("kyoryuu_fc1",1,0,2,14)
ShowMessage("【ぎが】")
ShowMessage("イっちゃった……？")
ShowMessage("よく、分からないね……")
ShowMessageFace("",0,0,2,15)
ShowMessage("【ルカ】")
ShowMessage("う……うぅぅ……")
ShowMessageFace("",0,0,2,16)
ShowMessage("そのまま、僕の意識は薄れていき――")
ShowMessage("ぎがの体の下で、気を失ってしまった。")
221()
PictureClear(5)
242(1)
246(1)
ShowMessageFace("",0,0,2,17)
ShowMessage("・・・・・・・・")
221()
Wait(120)
If(0,443,0)
 EndEventProcessing()
 0()
EndIf()
RunCommonEvent(541)
0()
