// EVENT 2026
Name "Seduction: Harpy"

If(0,25,1)
 EndEventProcessing()
 0()
EndIf()
355("$game_troop.lose_event_id = 3026")
ChangeVariable(26,26,0,3,3,1,4)
ChangeVariable(26,26,4,0,10)
ShowMessageFace("hapy_a_fc1",2,0,2,1)
ShowMessage("\\n<Harpy>N-not good...\nI'll be defeated at this rate.")
ShowMessageFace("hapy_a_fc1",0,0,2,2)
ShowMessage("\\n<Harpy>It can't be helped... You can rape me.\nThat's the fate of the loser after all♪")
ShowMessageFace("",0,0,2,3)
ShowMessage("The Harpy spreads her legs wide, inviting Luka.")
ChangeSwitch(98,98,0)
ChangeSwitch(96,96,0)
ShowChoices(strings("Ignore her","Give in to temptation"),1)
IfPlayerPicksChoice(0,"Ignore her")
 ShowMessageFace("",0,0,2,4)
 ShowMessage("Luka resists her temptation!")
 RunCommonEvent(1999)
 EndEventProcessing()
 0()
IfPlayerPicksChoice(1,"誘惑に乗る")
 0()
404()
ShowMessageFace("",0,0,2,5)
ShowMessage("Invited, Luka moves toward the Harpy, pressing his penis against her entrance!")
ShowMessageFace("hapy_a_fc1",1,0,2,6)
ShowMessage("\\n<Harpy>Ahaha, you want it♪\nI'll be on top♪")
ChangeVariable(26,26,3,0,3)
250(bytes(0x04,0x08,0x6f,0x3a,0x0c,0x52,0x50,0x47,0x3a,0x3a,0x53,0x45,0x08,0x3a,0x0a,0x40,0x6e,0x61,0x6d,0x65,0x49,0x22,0x12,0x6d,0x6f,0x6e,0x5f,0x65,0x72,0x6f,0x5f,0x6b,0x6f,0x6b,0x69,0x31,0x06,0x3a,0x06,0x45,0x54,0x3a,0x0b,0x40,0x70,0x69,0x74,0x63,0x68,0x69,0x69,0x3a,0x0c,0x40,0x76,0x6f,0x6c,0x75,0x6d,0x65,0x69,0x69))
PictureDisplay(5,"ev_hapy_a_ct01",0,0,0,0,100,100,255,0)
311(0,1,1,1,26,true)
ShowMessageFace("",0,0,2,7)
ShowMessage("The Harpy presses Luka to the ground, and brings him inside her!")
ShowMessage("Her soft vaginal walls press down on him from all sides!\\D")
ShowMessage("Luka takes \\V[26] damage!")
ChangeVariable(27,27,0,3,3,1,2)
If(1,27,0,0,0)
 JumpToLabel("射精1")
 0()
EndIf()
ShowMessageFace("hapy_a_fc1",1,0,2,8)
ShowMessage("\\n<Harpy>A Harpy's pussy feels amazing, doesn't it?\nI'll make it feel amazing, so give me lots of seed♪")
250(bytes(0x04,0x08,0x6f,0x3a,0x0c,0x52,0x50,0x47,0x3a,0x3a,0x53,0x45,0x08,0x3a,0x0a,0x40,0x6e,0x61,0x6d,0x65,0x49,0x22,0x12,0x6d,0x6f,0x6e,0x5f,0x65,0x72,0x6f,0x5f,0x6b,0x6f,0x6b,0x69,0x31,0x06,0x3a,0x06,0x45,0x54,0x3a,0x0b,0x40,0x70,0x69,0x74,0x63,0x68,0x69,0x69,0x3a,0x0c,0x40,0x76,0x6f,0x6c,0x75,0x6d,0x65,0x69,0x69))
PictureDisplay(5,"ev_hapy_a_ct02",0,0,0,0,100,100,255,0)
311(0,1,1,1,26,true)
ShowMessageFace("",0,0,2,9)
ShowMessage("The Harpy swings her waist back and forth!")
ShowMessage("Tiny bumps rub against Luka's penis all over!\\D")
ShowMessage("Luka takes \\V[26] damage!")
ChangeVariable(27,27,0,3,3,1,2)
If(1,27,0,0,0)
 JumpToLabel("射精2")
 0()
EndIf()
ShowMessageFace("hapy_a_fc1",1,0,2,10)
ShowMessage("\\n<Harpy>Ahaha, the situation has completely reversed♪\nWhere did all that fierceness from before go?")
250(bytes(0x04,0x08,0x6f,0x3a,0x0c,0x52,0x50,0x47,0x3a,0x3a,0x53,0x45,0x08,0x3a,0x0a,0x40,0x6e,0x61,0x6d,0x65,0x49,0x22,0x12,0x6d,0x6f,0x6e,0x5f,0x65,0x72,0x6f,0x5f,0x6b,0x6f,0x6b,0x69,0x31,0x06,0x3a,0x06,0x45,0x54,0x3a,0x0b,0x40,0x70,0x69,0x74,0x63,0x68,0x69,0x69,0x3a,0x0c,0x40,0x76,0x6f,0x6c,0x75,0x6d,0x65,0x69,0x69))
311(0,1,1,1,26,true)
ShowMessageFace("",0,0,2,11)
ShowMessage("The Harpy greedily rubs her body against Luka's!")
ShowMessage("Her tight vagina presses down on Luka!\\D")
ShowMessage("Luka takes \\V[26] damage!")
ChangeVariable(27,27,0,3,3,1,2)
If(1,27,0,0,0)
 JumpToLabel("射精2")
 0()
EndIf()
ShowMessageFace("hapy_a_fc1",1,0,2,12)
ShowMessage("\\n<Harpy>This is the end♪\nGive up, and let out alllll your semen♪")
250(bytes(0x04,0x08,0x6f,0x3a,0x0c,0x52,0x50,0x47,0x3a,0x3a,0x53,0x45,0x08,0x3a,0x0a,0x40,0x6e,0x61,0x6d,0x65,0x49,0x22,0x12,0x6d,0x6f,0x6e,0x5f,0x65,0x72,0x6f,0x5f,0x6b,0x6f,0x6b,0x69,0x31,0x06,0x3a,0x06,0x45,0x54,0x3a,0x0b,0x40,0x70,0x69,0x74,0x63,0x68,0x69,0x69,0x3a,0x0c,0x40,0x76,0x6f,0x6c,0x75,0x6d,0x65,0x69,0x69))
311(0,1,1,1,26,true)
ShowMessageFace("",0,0,2,13)
ShowMessage("The Harpy squeezes down with her vagina!")
ShowMessage("The inredible pressure assaults Luka from every side!\\D")
ShowMessage("Luka takes \\V[26] damage!")
ChangeVariable(27,27,0,3,3,1,2)
If(1,27,0,0,0)
 JumpToLabel("射精2")
 0()
EndIf()
ShowChoices(strings("Resist Temptation","Let her suck"),1)
IfPlayerPicksChoice(0,"誘惑を振り払う")
 ShowMessageFace("",0,0,2,14)
 ShowMessage("Luka resists her temptation!")
 RunCommonEvent(1999)
 EndEventProcessing()
 0()
IfPlayerPicksChoice(1,"吸い付いてもらう")
 ShowMessageFace("",0,0,2,15)
 ShowMessage("Luka surrenders to the pleasure...")
 0()
404()
DefineLabel("射精1")
ShowMessageFace("",0,0,2,16)
ShowMessage("\\n<Luka>Ah...I'm coming...!")
RunCommonEvent(104)
PictureDisplay(5,"ev_hapy_a_ct03",0,0,0,0,100,100,255,0)
RunCommonEvent(105)
ShowMessageFace("",0,0,2,17)
ShowMessage("The moment Luka enters the Harpy, he comes!")
ShowMessage("Her tight vagina was too much to endure!")
ShowMessageFace("hapy_a_fc1",0,0,2,18)
ShowMessage("\\n<Harpy>Oh my gosh, that was sooo fast♪\nYou leaked just from insertion♪")
RunCommonEvent(2000)
EndEventProcessing()
DefineLabel("射精2")
ShowMessageFace("",0,0,2,19)
ShowMessage("\\n<Luka>N-no more... Ahhh...")
RunCommonEvent(104)
PictureDisplay(5,"ev_hapy_a_ct03",0,0,0,0,100,100,255,0)
RunCommonEvent(105)
ShowMessageFace("",0,0,2,20)
ShowMessage("My semen explodes into the Harpy's vagina.")
ShowMessage("The stimulation of her vagina was too much to endure...")
ShowMessageFace("hapy_a_fc1",0,0,2,21)
ShowMessage("\\n<Harpy>Aha, so much is spewing out.\nYour seed is filling me up...")
RunCommonEvent(2000)
EndEventProcessing()
0()
