// EVENT 0310
Name "Tartarus Comments 1"

ChangeSwitch(2050,2050,0)
If(0,6,0)
 ShowMessageFace("sonia_fc3",7,0,2,1)
 ShowMessage("\\n<Sonya>Why is there a forest at the bottom of a hole?")
 0()
Else()
 ShowMessageFace("ruka_fc1",0,0,2,2)
 ShowMessage("\\n<Luka>Why is there a forest here, of all places?")
 0()
EndIf()
If(4,72,0)
 ShowMessageFace("phoenix_fc1",2,0,2,3)
 ShowMessage("\\n<Mini>This place makes no sense at all!")
 0()
EndIf()
If(0,4,0)
 ShowMessageFace("alice_fc6",0,0,2,4)
 ShowMessage("\\n<Alice>A spacetime distortion...\nDid it swallow the surrounding space and incorporate it somehow?")
 0()
EndIf()
If(0,5,0)
 ShowMessageFace("iriasu_fc4",2,0,2,5)
 ShowMessage("\\n<Ilias>It appears to be a spacetime distortion.\nThe surrounding space was swallowed and incorporated...")
 0()
EndIf()
If(4,79,0)
 ShowMessageFace("nuruko_fc1",0,0,2,6)
 ShowMessage("\\n<Nuruko>Kyu...")
 0()
EndIf()
0()
