﻿// EVENT 0368
Name "ラダイト壊滅回想用2"

Wait(60)
211(1)
205(-1,bytes(0x04,0x08,0x6f,0x3a,0x13,0x52,0x50,0x47,0x3a,0x3a,0x4d,0x6f,0x76,0x65,0x52,0x6f,0x75,0x74,0x65,0x09,0x3a,0x0c,0x40,0x72,0x65,0x70,0x65,0x61,0x74,0x46,0x3a,0x0f,0x40,0x73,0x6b,0x69,0x70,0x70,0x61,0x62,0x6c,0x65,0x54,0x3a,0x0a,0x40,0x77,0x61,0x69,0x74,0x54,0x3a,0x0a,0x40,0x6c,0x69,0x73,0x74,0x5b,0x0c,0x6f,0x3a,0x15,0x52,0x50,0x47,0x3a,0x3a,0x4d,0x6f,0x76,0x65,0x43,0x6f,0x6d,0x6d,0x61,0x6e,0x64,0x07,0x3a,0x0a,0x40,0x63,0x6f,0x64,0x65,0x69,0x09,0x3a,0x10,0x40,0x70,0x61,0x72,0x61,0x6d,0x65,0x74,0x65,0x72,0x73,0x5b,0x00,0x6f,0x3b,0x0a,0x07,0x3b,0x0b,0x69,0x09,0x3b,0x0c,0x5b,0x00,0x6f,0x3b,0x0a,0x07,0x3b,0x0b,0x69,0x09,0x3b,0x0c,0x5b,0x00,0x6f,0x3b,0x0a,0x07,0x3b,0x0b,0x69,0x09,0x3b,0x0c,0x5b,0x00,0x6f,0x3b,0x0a,0x07,0x3b,0x0b,0x69,0x09,0x3b,0x0c,0x5b,0x00,0x6f,0x3b,0x0a,0x07,0x3b,0x0b,0x69,0x09,0x3b,0x0c,0x5b,0x00,0x6f,0x3b,0x0a,0x07,0x3b,0x0b,0x69,0x00,0x3b,0x0c,0x5b,0x00))
ShowMessageFace("ruka_fc1",0,0,2,1)
ShowMessage("【ルカ】")
ShowMessage("な、なんて事を……！")
If(0,6,0)
 ShowMessageFace("sonia_fc3",7,0,2,2)
 ShowMessage("【ソニア】")
 ShowMessage("こんな、ひどい……")
 0()
EndIf()
PictureDisplay(5,"80_lilith2_st01b",0,0,0,0,100,100,0,0)
PictureMove(5,null,0,0,0,0,100,100,255,0,30,true)
ShowMessageFace("lilith2_fc1",0,0,2,3)
ShowMessage("【リリス】")
ShowMessage("ひどいものですか……")
ShowMessage("みんな、最高の快楽を味わいながら昇天しましたよ。")
ShowMessageFace("lilith2_fc1",0,0,2,4)
ShowMessage("【リリス】")
ShowMessage("そうですよね、ふふふっ……")
PictureClear(5)
Wait(15)
ShowMessageFace("",0,0,2,5)
ShowMessage("【少年】")
ShowMessage("ふぁぁぁぁ……リリスさまぁ……")
ShowMessage("もっと吸って、もっとぉ……")
PictureDisplay(5,"80_morrigan_st01b",0,0,0,0,100,100,0,0)
PictureMove(5,null,0,0,0,0,100,100,255,0,30,true)
ShowMessageFace("morrigan_fc1",0,0,2,6)
ShowMessage("【モリガン】")
ShowMessage("あははっ、来るのが遅かったな！")
ShowMessage("こんな村、あたし達にかかれば数分で干物さ。")
ShowMessageFace("morrigan_fc1",0,0,2,7)
ShowMessage("【モリガン】")
ShowMessage("これでも、ずいぶん時間を掛けたんだぜ。")
ShowMessage("ちゃんと全員、じっくり搾り殺してやったさ……")
ShowMessageFace("sara_fc1",2,0,2,8)
ShowMessage("【サラ】")
ShowMessage("あなた達、絶対に許さないわ……！")
ShowMessage("覚悟しなさい！")
PictureDisplay(5,"80_morrigan_st02b",0,0,0,0,100,100,255,0)
ShowMessageFace("morrigan_fc1",1,0,2,9)
ShowMessage("【モリガン】")
ShowMessage("おやおや、なんと勇ましい女王陛下……")
ShowMessage("淫魔暮らしは、楽しかっただろ？")
PictureDisplay(5,"80_morrigan_st02b",0,0,-150,0,100,100,255,0)
PictureDisplay(6,"80_lilith2_st01b",0,0,150,0,100,100,255,0)
ShowMessageFace("lilith2_fc1",0,0,2,10)
ShowMessage("【リリス】")
ShowMessage("あのまま、夢うつつの快楽を楽しんでいれば……")
ShowMessage("国民全員、あなたが吸い殺してしまうという計画だったのに。")
ShowMessageFace("sara_fc1",2,0,2,11)
ShowMessage("【サラ】")
ShowMessage("それが計画ですって……！？")
ShowMessage("いったい、なんでそんな事を！")
PictureClear(6)
PictureDisplay(5,"80_morrigan_st02b",0,0,0,0,100,100,255,0)
ShowMessageFace("morrigan_fc1",1,0,2,12)
ShowMessage("【モリガン】")
ShowMessage("正統な歴史でも、そういう可能性はあったのさ。")
ShowMessage("それをなぞってやれば、カオス化の影響は少なく済む――")
PictureDisplay(5,"80_morrigan_st02b",0,0,-150,0,100,100,255,0)
PictureDisplay(6,"80_astaroth_st01b",0,0,150,0,100,100,255,0)
ShowMessageFace("astaroth_fc1",0,0,2,13)
ShowMessage("【アスタロト】")
ShowMessage("……余計な事を喋りすぎよ、モリガン。")
ShowMessage("その連中の相手は、私がするわ。")
PictureDisplay(5,"80_morrigan_st03b",0,0,-150,0,100,100,255,0)
ShowMessageFace("morrigan_fc1",2,0,2,14)
ShowMessage("【モリガン】")
ShowMessage("は～い……黙ってますよ～！")
ShowMessage("ところで姉貴、その男さっさと搾り殺しちゃいなよ……")
PictureClear(5)
PictureClear(6)
ShowMessageFace("astaroth_fc1",0,0,2,15)
ShowMessage("【アスタロト】")
ShowMessage("ええ、ほとんど残りカスだけど……")
ShowMessage("ふふっ、長く楽しめて最高だったでしょう？")
Wait(15)
250(bytes(0x04,0x08,0x6f,0x3a,0x0c,0x52,0x50,0x47,0x3a,0x3a,0x53,0x45,0x08,0x3a,0x0a,0x40,0x6e,0x61,0x6d,0x65,0x49,0x22,0x13,0x6d,0x6f,0x6e,0x5f,0x65,0x72,0x6f,0x5f,0x63,0x68,0x75,0x70,0x61,0x36,0x06,0x3a,0x06,0x45,0x54,0x3a,0x0b,0x40,0x70,0x69,0x74,0x63,0x68,0x69,0x69,0x3a,0x0c,0x40,0x76,0x6f,0x6c,0x75,0x6d,0x65,0x69,0x55))
ChangeVariable(1034,1034,0,0,13)
ShowMessageFace("astaroth_fc1",0,0,2,16)
ShowMessage("【アスタロト】")
ShowMessage("それじゃあ、最後の一滴まで搾り尽くすわ。")
ShowMessage("私の中で果てなさい……")
ShowMessageFace("",0,0,2,17)
ShowMessage("【男】")
ShowMessage("……ぁ……ぁぁ……")
ChangeVariable(1034,1034,0,0,14)
ShowMessageFace("astaroth_fc1",0,0,2,18)
ShowMessage("【アスタロト】")
ShowMessage("ふふっ……ごちそうさま。")
ShowMessageFace("",0,0,2,19)
ShowMessage("男はびくびくと痙攣し、干涸らびてしまった。")
ShowMessage("サキュバスに捕食された者の、無惨な最期だ……")
250(bytes(0x04,0x08,0x6f,0x3a,0x0c,0x52,0x50,0x47,0x3a,0x3a,0x53,0x45,0x08,0x3a,0x0a,0x40,0x6e,0x61,0x6d,0x65,0x49,0x22,0x0e,0x6d,0x6f,0x6e,0x5f,0x77,0x69,0x6e,0x64,0x31,0x06,0x3a,0x06,0x45,0x54,0x3a,0x0b,0x40,0x70,0x69,0x74,0x63,0x68,0x69,0x69,0x3a,0x0c,0x40,0x76,0x6f,0x6c,0x75,0x6d,0x65,0x69,0x69))
ChangeVariable(1034,1034,0,0,15)
Wait(15)
PictureDisplay(5,"80_astaroth_st01b",0,0,0,0,100,100,0,0)
PictureMove(5,null,0,0,0,0,100,100,255,0,30,true)
ShowMessageFace("astaroth_fc1",0,0,2,20)
ShowMessage("【アスタロト】")
ShowMessage("あなた達も、ずいぶんと歴史の理から外れたわ。")
ShowMessage("ここで始末しても、カオス化は起きないでしょう……")
ShowMessageFace("astaroth_fc1",0,0,2,21)
ShowMessage("【アスタロト】")
ShowMessage("そういうわけで、私が相手をするわ……")
ShowMessage("せいぜい楽しませてもらおうかしら。")
PictureDisplay(5,"80_morrigan_st01b",0,0,-150,0,100,100,255,0)
PictureDisplay(6,"80_astaroth_st01b",0,0,150,0,100,100,255,0)
ShowMessageFace("morrigan_fc1",0,0,2,22)
ShowMessage("【モリガン】")
ShowMessage("さっさと済ませなよ、姉貴～！")
PictureClear(5)
PictureClear(6)
250(bytes(0x04,0x08,0x6f,0x3a,0x0c,0x52,0x50,0x47,0x3a,0x3a,0x53,0x45,0x08,0x3a,0x0a,0x40,0x6e,0x61,0x6d,0x65,0x49,0x22,0x0e,0x6d,0x6f,0x6e,0x5f,0x77,0x69,0x6e,0x64,0x31,0x06,0x3a,0x06,0x45,0x54,0x3a,0x0b,0x40,0x70,0x69,0x74,0x63,0x68,0x69,0x69,0x3a,0x0c,0x40,0x76,0x6f,0x6c,0x75,0x6d,0x65,0x69,0x69))
Wait(15)
205(3,bytes(0x04,0x08,0x6f,0x3a,0x13,0x52,0x50,0x47,0x3a,0x3a,0x4d,0x6f,0x76,0x65,0x52,0x6f,0x75,0x74,0x65,0x09,0x3a,0x0c,0x40,0x72,0x65,0x70,0x65,0x61,0x74,0x46,0x3a,0x0f,0x40,0x73,0x6b,0x69,0x70,0x70,0x61,0x62,0x6c,0x65,0x46,0x3a,0x0a,0x40,0x77,0x61,0x69,0x74,0x54,0x3a,0x0a,0x40,0x6c,0x69,0x73,0x74,0x5b,0x07,0x6f,0x3a,0x15,0x52,0x50,0x47,0x3a,0x3a,0x4d,0x6f,0x76,0x65,0x43,0x6f,0x6d,0x6d,0x61,0x6e,0x64,0x07,0x3a,0x0a,0x40,0x63,0x6f,0x64,0x65,0x69,0x2c,0x3a,0x10,0x40,0x70,0x61,0x72,0x61,0x6d,0x65,0x74,0x65,0x72,0x73,0x5b,0x00,0x6f,0x3b,0x0a,0x07,0x3b,0x0b,0x69,0x00,0x3b,0x0c,0x5b,0x00))
ShowMessageFace("",0,0,2,23)
ShowMessage("モリガンはその場から消え去った……")
PictureDisplay(5,"80_lilith2_st01b",0,0,0,0,100,100,0,0)
PictureMove(5,null,0,0,0,0,100,100,255,0,30,true)
ShowMessageFace("lilith2_fc1",0,0,2,24)
ShowMessage("【リリス】")
ShowMessage("私も、今日はここまでにしましょうか……")
ShowMessage("そういうわけで坊や、これで昇天してもらいますね。")
ShowMessageFace("",0,0,2,25)
ShowMessage("【少年】")
ShowMessage("はぅぅ……リリス様ぁ……")
ShowMessage("吸って、もっと吸ってぇ……")
PictureClear(5)
Wait(15)
250(bytes(0x04,0x08,0x6f,0x3a,0x0c,0x52,0x50,0x47,0x3a,0x3a,0x53,0x45,0x08,0x3a,0x0a,0x40,0x6e,0x61,0x6d,0x65,0x49,0x22,0x13,0x6d,0x6f,0x6e,0x5f,0x65,0x72,0x6f,0x5f,0x63,0x68,0x75,0x70,0x61,0x36,0x06,0x3a,0x06,0x45,0x54,0x3a,0x0b,0x40,0x70,0x69,0x74,0x63,0x68,0x69,0x69,0x3a,0x0c,0x40,0x76,0x6f,0x6c,0x75,0x6d,0x65,0x69,0x55))
ChangeVariable(1034,1034,0,0,16)
ShowMessageFace("lilith2_fc1",1,0,2,26)
ShowMessage("【リリス】")
ShowMessage("うふふっ……気持ちいいでしょう？")
ShowMessage("残り少ない精気が、私に搾り尽くされているのですよ……")
ShowMessageFace("",0,0,2,27)
ShowMessage("【少年】")
ShowMessage("あぁぁぁぁぁぁぁ～～！！")
ChangeVariable(1034,1034,0,0,17)
ShowMessageFace("",0,0,2,28)
ShowMessage("少年の体が、みるみる朽ち果てていく。")
ShowMessage("一気に精を吸い上げられ、涸れ果ててしまったのだろう……")
PictureDisplay(5,"80_lilith2_st01b",0,0,0,0,100,100,0,0)
PictureMove(5,null,0,0,0,0,100,100,255,0,30,true)
ShowMessageFace("lilith2_fc1",0,0,2,29)
ShowMessage("【リリス】")
ShowMessage("それではアスタロト、この場は任せましたよ。")
ShowMessage("私達を阻む者全員、天国に送ってあげなさいね……")
PictureClear(5)
250(bytes(0x04,0x08,0x6f,0x3a,0x0c,0x52,0x50,0x47,0x3a,0x3a,0x53,0x45,0x08,0x3a,0x0a,0x40,0x6e,0x61,0x6d,0x65,0x49,0x22,0x0e,0x6d,0x6f,0x6e,0x5f,0x77,0x69,0x6e,0x64,0x31,0x06,0x3a,0x06,0x45,0x54,0x3a,0x0b,0x40,0x70,0x69,0x74,0x63,0x68,0x69,0x69,0x3a,0x0c,0x40,0x76,0x6f,0x6c,0x75,0x6d,0x65,0x69,0x69))
Wait(15)
ChangeVariable(1034,1034,0,0,18)
ShowMessageFace("",0,0,2,30)
ShowMessage("リリスはその場から消え去った……")
205(11,bytes(0x04,0x08,0x6f,0x3a,0x13,0x52,0x50,0x47,0x3a,0x3a,0x4d,0x6f,0x76,0x65,0x52,0x6f,0x75,0x74,0x65,0x09,0x3a,0x0c,0x40,0x72,0x65,0x70,0x65,0x61,0x74,0x46,0x3a,0x0f,0x40,0x73,0x6b,0x69,0x70,0x70,0x61,0x62,0x6c,0x65,0x46,0x3a,0x0a,0x40,0x77,0x61,0x69,0x74,0x54,0x3a,0x0a,0x40,0x6c,0x69,0x73,0x74,0x5b,0x07,0x6f,0x3a,0x15,0x52,0x50,0x47,0x3a,0x3a,0x4d,0x6f,0x76,0x65,0x43,0x6f,0x6d,0x6d,0x61,0x6e,0x64,0x07,0x3a,0x0a,0x40,0x63,0x6f,0x64,0x65,0x69,0x06,0x3a,0x10,0x40,0x70,0x61,0x72,0x61,0x6d,0x65,0x74,0x65,0x72,0x73,0x5b,0x00,0x6f,0x3b,0x0a,0x07,0x3b,0x0b,0x69,0x00,0x3b,0x0c,0x5b,0x00))
Wait(15)
241(bytes(0x04,0x08,0x6f,0x3a,0x0d,0x52,0x50,0x47,0x3a,0x3a,0x42,0x47,0x4d,0x08,0x3a,0x0a,0x40,0x6e,0x61,0x6d,0x65,0x49,0x22,0x0c,0x62,0x6f,0x73,0x73,0x30,0x2d,0x32,0x06,0x3a,0x06,0x45,0x54,0x3a,0x0c,0x40,0x76,0x6f,0x6c,0x75,0x6d,0x65,0x69,0x69,0x3a,0x0b,0x40,0x70,0x69,0x74,0x63,0x68,0x69,0x69))
PictureDisplay(5,"80_astaroth_st01b",0,0,0,0,100,100,0,0)
PictureMove(5,null,0,0,0,0,100,100,255,0,30,true)
ShowMessageFace("astaroth_fc1",0,0,2,31)
ShowMessage("【アスタロト】")
ShowMessage("さて、それでは始めましょうか。")
ShowMessage("怖くないわ、最高の快楽を味わわせてあげるから……")
ShowMessageFace("sara_fc1",2,0,2,32)
ShowMessage("【サラ】")
ShowMessage("気をつけて、みんな！")
ShowMessage("この淫魔、恐ろしく強いわよ！")
ShowMessageFace("ruka_fc1",0,0,2,33)
ShowMessage("【ルカ】")
ShowMessage("ああ、すでに妹とは戦った事がある……！")
ShowMessageFace("",0,0,2,34)
ShowMessage("あの時は、恐ろしくハンデがついた状態でも歯が立たなかった。")
ShowMessage("でも、腕を上げた今ならば――")
PictureDisplay(5,"80_astaroth_st02b",0,0,0,0,100,100,255,0)
ShowMessageFace("astaroth_fc1",1,0,2,35)
ShowMessage("【アスタロト】")
ShowMessage("それじゃあ、いらっしゃい。")
ShowMessage("この私が、たっぷりと可愛がってあげるから……")
PictureClear(5)
221()
242(1)
0()
