﻿// EVENT 5839
Name "Rケイト"

If(0,443,0)
 PictureDisplay(5,"80_mob_maid1_st01",0,0,0,0,100,100,255,0)
 0()
EndIf()
242(1)
250(bytes(0x04,0x08,0x6f,0x3a,0x0c,0x52,0x50,0x47,0x3a,0x3a,0x53,0x45,0x08,0x3a,0x0a,0x40,0x6e,0x61,0x6d,0x65,0x49,0x22,0x0a,0x7a,0x69,0x68,0x6f,0x75,0x06,0x3a,0x06,0x45,0x54,0x3a,0x0b,0x40,0x70,0x69,0x74,0x63,0x68,0x69,0x69,0x3a,0x0c,0x40,0x76,0x6f,0x6c,0x75,0x6d,0x65,0x69,0x55))
Wait(60)
ShowMessageFace("",0,0,2,1)
ShowMessage("その時――城内に、五時の鐘が鳴り響いた。")
241(bytes(0x04,0x08,0x6f,0x3a,0x0d,0x52,0x50,0x47,0x3a,0x3a,0x42,0x47,0x4d,0x08,0x3a,0x0a,0x40,0x6e,0x61,0x6d,0x65,0x49,0x22,0x09,0x65,0x72,0x6f,0x31,0x06,0x3a,0x06,0x45,0x54,0x3a,0x0c,0x40,0x76,0x6f,0x6c,0x75,0x6d,0x65,0x69,0x69,0x3a,0x0b,0x40,0x70,0x69,0x74,0x63,0x68,0x69,0x69))
ShowMessageFace("mob_maid1_fc1",0,0,2,2)
ShowMessage("【ケイト】")
ShowMessage("それでは、次は……床技の講習を始めましょう。")
ShowMessage("さあ、そこに寝て下さい。")
ShowMessageFace("",0,0,2,3)
ShowMessage("【ルカ】")
ShowMessage("えっ？　なんで、そんな――")
ShowMessageFace("mob_maid1_fc1",0,0,2,4)
ShowMessage("【ケイト】")
ShowMessage("パートナーを夜に満足させることは、")
ShowMessage("花嫁だろうと花婿だろうと必須の技術なのです。")
ShowMessageFace("",0,0,2,5)
ShowMessage("ケイトはそのまま、僕を強引に押し倒し――")
PictureDisplay(5,"ev_mob_maid1_hb01",0,0,0,0,100,100,255,0)
ShowMessageFace("mob_maid1_fc1",6,0,2,6)
ShowMessage("【ケイト】")
ShowMessage("……では、始めますよ。")
ShowMessage("私を性的に満足させられれば、免許皆伝です。")
ShowMessageFace("",0,0,2,7)
ShowMessage("【ルカ】")
ShowMessage("そ、そんな――")
ShowMessageFace("",0,0,2,8)
ShowMessage("ケイトは僕に跨がったまま、肉棒を自身の秘部に導き――")
245(bytes(0x04,0x08,0x6f,0x3a,0x0d,0x52,0x50,0x47,0x3a,0x3a,0x42,0x47,0x53,0x08,0x3a,0x0a,0x40,0x6e,0x61,0x6d,0x65,0x49,0x22,0x1e,0x6d,0x6f,0x6e,0x5f,0x68,0x73,0x65,0x61,0x6e,0x30,0x32,0x5f,0x69,0x6e,0x6e,0x65,0x72,0x77,0x6f,0x72,0x6b,0x73,0x5f,0x61,0x32,0x06,0x3a,0x06,0x45,0x54,0x3a,0x0c,0x40,0x76,0x6f,0x6c,0x75,0x6d,0x65,0x69,0x55,0x3a,0x0b,0x40,0x70,0x69,0x74,0x63,0x68,0x69,0x69))
PictureDisplay(5,"ev_mob_maid1_hb02",0,0,0,0,100,100,255,0)
ShowMessageFace("",0,0,2,9)
ShowMessage("【ルカ】")
ShowMessage("あ……あぁぁっ！！")
ShowMessageFace("",0,0,2,10)
ShowMessage("そのまま、僕のモノを膣内に咥え込んでしまった！")
ShowMessageFace("mob_maid1_fc1",6,0,2,11)
ShowMessage("【ケイト】")
ShowMessage("私の中は、いかがでしょうか……")
ShowMessage("こちらも、手加減はしませんよ。")
ShowMessageFace("",0,0,2,12)
ShowMessage("ぎゅぅぅっ……と、膣内の柔肉が狭まってきた。")
ShowMessage("ケイトは意識的に中を締め、肉棒を責めているのだ。")
ShowMessageFace("",0,0,2,13)
ShowMessage("【ルカ】")
ShowMessage("はぅぅぅっ……！")
ShowMessageFace("mob_maid1_fc1",6,0,2,14)
ShowMessage("【ケイト】")
ShowMessage("悦んでいる場合ではありませんよ。")
ShowMessage("そちらからも突き返し、反撃を――")
ShowMessageFace("",0,0,2,15)
ShowMessage("【ルカ】")
ShowMessage("出ちゃう……あ、あぁぁっ……！")
ShowMessageFace("",0,0,2,16)
ShowMessage("反撃するどころではなく、あまりの気持ち良さに屈服してしまい――")
RunCommonEvent(104)
PictureDisplay(5,"ev_mob_maid1_hb03",0,0,0,0,100,100,255,0)
RunCommonEvent(105)
ShowMessageFace("",0,0,2,17)
ShowMessage("ペニスを締められながら、ケイトの膣内に発射してしまった――")
ShowMessageFace("mob_maid1_fc1",6,0,2,18)
ShowMessage("【ケイト】")
ShowMessage("……もう、漏らしましたか。")
ShowMessage("こちらの方は、ずいぶん弱いのですね。")
ShowMessageFace("",0,0,2,19)
ShowMessage("【ルカ】")
ShowMessage("はぅぅぅぅ……")
ShowMessageFace("",0,0,2,20)
ShowMessage("ケイトに犯されたまま、脱力する僕――")
ShowMessage("ペニスを咥え込んだままの膣内が、再びぎゅぅっと締まった！")
PictureDisplay(5,"ev_mob_maid1_hb04",0,0,0,0,100,100,255,0)
ShowMessageFace("",0,0,2,21)
ShowMessage("【ルカ】")
ShowMessage("はぅぅぅっ……！！")
ShowMessageFace("mob_maid1_fc1",6,0,2,22)
ShowMessage("【ケイト】")
ShowMessage("何を、情けない声を出しているのです？")
ShowMessage("ちょっと中を締められただけで果てるなんて、論外です。")
ShowMessageFace("mob_maid1_fc1",6,0,2,23)
ShowMessage("【ケイト】")
ShowMessage("少々、刺激をこらえる特訓が必要なようですね。")
ShowMessage("さあ、これを付けて下さい――")
PictureDisplay(5,"ev_mob_maid1_hb05",0,0,0,0,100,100,255,0)
ShowMessageFace("",0,0,2,24)
ShowMessage("僕の首に付けてきたのは、なんと首輪だった。")
ShowMessageFace("",0,0,2,25)
ShowMessage("【ルカ】")
ShowMessage("あぁぁ……なんで、こんな事を……")
ShowMessageFace("mob_maid1_fc1",6,0,2,26)
ShowMessage("【ケイト】")
ShowMessage("これも、訓練の一環です。")
ShowMessage("それでは、中を断続的に締めますよ……")
ShowMessageFace("",0,0,2,27)
ShowMessage("膣内が、ぎゅっ、ぎゅっ……と収縮する。")
ShowMessage("締めては緩めての動作で、ペニスが艶めかしく揉みしだかれた。")
ShowMessageFace("",0,0,2,28)
ShowMessage("【ルカ】")
ShowMessage("はぅ……！　あ、あぁぁぁっ……！")
ShowMessage("だめぇ、気持ちいいよぉ……！")
ShowMessageFace("mob_maid1_fc1",6,0,2,29)
ShowMessage("【ケイト】")
ShowMessage("まだ我慢して下さい……")
ShowMessage("このまま、キスをしますね。")
PictureDisplay(5,"ev_mob_maid1_hb06",0,0,0,0,100,100,255,0)
ShowMessageFace("",0,0,2,30)
ShowMessage("【ルカ】")
ShowMessage("んんっ……！")
ShowMessageFace("",0,0,2,31)
ShowMessage("唇が重なり、ねっとりと舌が絡み合う。")
ShowMessage("甘いキスを交わしながらも、膣内はペニスをぎゅうぎゅうと締め上げ――")
ShowMessageFace("",0,0,2,32)
ShowMessage("【ルカ】")
ShowMessage("あぅぅ……はぅぅぅぅっ……！")
RunCommonEvent(104)
PictureDisplay(5,"ev_mob_maid1_hb08",0,0,0,0,100,100,255,0)
RunCommonEvent(105)
ShowMessageFace("",0,0,2,33)
ShowMessage("あっという間に、ケイトの膣内で射精してしまった。")
ShowMessage("柔肉で揉みしだかれながら、ドクドクと精液が溢れていく――")
ShowMessageFace("",0,0,2,34)
ShowMessage("【ルカ】")
ShowMessage("はぅ……あぅぅぅ……")
ShowMessageFace("mob_maid1_fc1",6,0,2,35)
ShowMessage("【ケイト】")
ShowMessage("我慢をしなさい、と言ったのに――")
ShowMessage("これくらいでも、耐えられないのですか。")
ShowMessageFace("mob_maid1_fc1",6,0,2,36)
ShowMessage("【ケイト】")
ShowMessage("いいでしょう、その心根から鍛え直します。")
ShowMessage("まずは、徹底的に精を吐き出し尽くしてもらいましょう……")
ShowMessageFace("",0,0,2,37)
ShowMessage("【ルカ】")
ShowMessage("そ、そんな――んぐっ！")
PictureDisplay(5,"ev_mob_maid1_hb09",0,0,0,0,100,100,255,0)
ShowMessageFace("",0,0,2,38)
ShowMessage("再び、ケイトはねっとりと唇を重ねてきた。")
ShowMessage("そのまま、腰をぐいぐいと振りたててくる――")
ShowMessageFace("",0,0,2,39)
ShowMessage("【ルカ】")
ShowMessage("ん……んんんん～～！！")
ShowMessageFace("mob_maid1_fc1",6,0,2,40)
ShowMessage("【ケイト】")
ShowMessage("少しばかり、本気を出しましょう……")
ShowMessage("この技に耐えられますか？")
ShowMessageFace("",0,0,2,41)
ShowMessage("中を締めながらの、激しいピストン責め。")
ShowMessage("さらに口はキスで塞がれ、甘い唾液を味わわされている。")
ShowMessageFace("",0,0,2,42)
ShowMessage("【ルカ】")
ShowMessage("んんんんん……")
ShowMessageFace("",0,0,2,43)
ShowMessage("頭の中が、薔薇色に染まりそうなほどの快感。")
ShowMessage("きつく締まる膣内で、ペニスがびくびくと脈動し――")
RunCommonEvent(104)
PictureDisplay(5,"ev_mob_maid1_hb12",0,0,0,0,100,100,255,0)
RunCommonEvent(105)
ShowMessageFace("",0,0,2,44)
ShowMessage("そして、ひときわ大量の精液をぶち撒けてしまった。")
ShowMessage("しかしケイトは、容赦なく腰を上下させ続ける――")
ShowMessageFace("",0,0,2,45)
ShowMessage("【ルカ】")
ShowMessage("はぅぅっ……！　もうイってるよお……！")
ShowMessageFace("mob_maid1_fc1",6,0,2,46)
ShowMessage("【ケイト】")
ShowMessage("まだまだ、精を吐き出させます。")
ShowMessage("このおちんちん、徹底的に鍛え直さなければ……")
ShowMessageFace("",0,0,2,47)
ShowMessage("【ルカ】")
ShowMessage("だめぇ……はぅぅぅっ……！")
RunCommonEvent(104)
RunCommonEvent(105)
ShowMessageFace("mob_maid1_fc1",6,0,2,48)
ShowMessage("【ケイト】")
ShowMessage("もっともっと、限界まで搾ります……")
ShowMessageFace("",0,0,2,49)
ShowMessage("【ルカ】")
ShowMessage("ひぁぁぁぁ……")
RunCommonEvent(104)
RunCommonEvent(105)
ShowMessageFace("",0,0,2,50)
ShowMessage("ケイトに一方的に責めたてられ、何度も何度も膣内射精する。")
ShowMessage("甘いキスを交わしながら、じわじわと意識が薄れていき――")
ShowMessageFace("",0,0,2,51)
ShowMessage("【ルカ】")
ShowMessage("ぁ……ぁぅぅ……")
RunCommonEvent(104)
RunCommonEvent(105)
ShowMessageFace("",0,0,2,52)
ShowMessage("そのまま僕は、足腰が立たなくなるまで搾り尽くされ――")
ShowMessage("そして、意識を失ってしまったのだった――")
221()
PictureClear(5)
242(1)
246(1)
ShowMessageFace("",0,0,2,53)
ShowMessage("・・・・・・・・")
221()
Wait(120)
If(0,443,0)
 EndEventProcessing()
 0()
EndIf()
RunCommonEvent(541)
0()
