// EVENT 4219
Name "High Slug Girl 4"

If(0,25,1)
 221()
 PictureClear(5)
 PictureClear(6)
 ShowMessageFace("",0,0,2,0)
 ShowMessage("......")
 242(2)
 Wait(120)
 241(bytes(0x04,0x08,0x6f,0x3a,0x0d,0x52,0x50,0x47,0x3a,0x3a,0x42,0x47,0x4d,0x08,0x3a,0x0a,0x40,0x6e,0x61,0x6d,0x65,0x49,0x22,0x0c,0x63,0x61,0x73,0x74,0x6c,0x65,0x36,0x06,0x3a,0x06,0x45,0x54,0x3a,0x0c,0x40,0x76,0x6f,0x6c,0x75,0x6d,0x65,0x69,0x69,0x3a,0x0b,0x40,0x70,0x69,0x74,0x63,0x68,0x69,0x69))
 EndEventProcessing()
 0()
EndIf()
PictureDisplay(5,"80_highslag_st01",0,0,0,0,100,100,255,0)
ShowMessageFace("highslag_fc1",0,0,2,1)
ShowMessage("\\n<Elisabeth>Hey, are you free?\nLet's take a little walk outside...")
ShowMessageFace("",0,0,2,2)
ShowMessage("\\n<Luka>Oh, okay.")
ShowMessageFace("",0,0,2,3)
ShowMessage("Elisabeth and I go for a walk.")
241(bytes(0x04,0x08,0x6f,0x3a,0x0d,0x52,0x50,0x47,0x3a,0x3a,0x42,0x47,0x4d,0x08,0x3a,0x0a,0x40,0x6e,0x61,0x6d,0x65,0x49,0x22,0x09,0x65,0x72,0x6f,0x31,0x06,0x3a,0x06,0x45,0x54,0x3a,0x0c,0x40,0x76,0x6f,0x6c,0x75,0x6d,0x65,0x69,0x69,0x3a,0x0b,0x40,0x70,0x69,0x74,0x63,0x68,0x69,0x69))
PictureDisplay(5,"ev_highslag_hc01",0,0,0,0,100,100,0,0)
PictureMove(5,null,0,0,0,0,100,100,255,0,30,true)
ShowMessageFace("highslag_fc1",0,0,2,4)
ShowMessage("\\n<Elisabeth>Fufu... Isn't my body nice and slimy?")
ShowMessageFace("",0,0,2,5)
ShowMessage("\\n<Luka>S-Stop this...! Let me go...!!")
ShowMessageFace("",0,0,2,6)
ShowMessage("I was suddenly bound by Elisabeth, my clothes melted away.")
ShowMessage("Her mucus is covering every inch of my body.")
PictureDisplay(5,"ev_highslag_hc02",0,0,0,0,100,100,255,0)
ShowMessageFace("highslag_fc1",0,0,2,7)
ShowMessage("\\n<Elisabeth>Now, mate with me.\nPour all of your semen into my reproductive hole...")
ShowMessageFace("",0,0,2,8)
ShowMessage("A pink hole appears in her lower body.")
ShowMessage("Wet with mucus, it looks strangely inviting...")
ShowMessageFace("highslag_fc1",0,0,2,9)
ShowMessage("\\n<Elisabeth>It would feel incredible if you were inside here.\nMy slug mucus is inside, too... All the way to the depths.")
ShowMessageFace("highslag_fc1",0,0,2,10)
ShowMessage("\\n<Elisabeth>Just from putting it in, any man would come in less than ten seconds.\nIf you put it in, you could come in seconds too...")
ShowMessageFace("",0,0,2,11)
ShowMessage("\\n<Luka>Ah, aaah...")
ShowMessageFace("",0,0,2,12)
ShowMessage("My eyes are drawn to her hole.")
ShowMessage("I'm going to be inside of that...")
ShowMessageFace("",0,0,2,13)
ShowMessage("There's a slight tinge of fear of mating with an inhuman vagina.")
ShowMessage("And an excitement for pleasure...")
ShowMessageFace("highslag_fc1",0,0,2,14)
ShowMessage("\\n<Elisabeth>Now, go inside...\nEven if you're afraid, it will be over in only a moment...")
ShowMessageFace("",0,0,2,15)
ShowMessage("Elisabeth's lower slug body starts to move...")
ShowMessage("She slowly forces me into her...")
ShowMessageFace("",0,0,2,16)
ShowMessage("\\n<Luka>Aaah...")
245(bytes(0x04,0x08,0x6f,0x3a,0x0d,0x52,0x50,0x47,0x3a,0x3a,0x42,0x47,0x53,0x08,0x3a,0x0a,0x40,0x6e,0x61,0x6d,0x65,0x49,0x22,0x1e,0x6d,0x6f,0x6e,0x5f,0x68,0x73,0x65,0x61,0x6e,0x31,0x31,0x5f,0x69,0x6e,0x6e,0x65,0x72,0x77,0x6f,0x72,0x6b,0x73,0x5f,0x63,0x31,0x06,0x3a,0x06,0x45,0x54,0x3a,0x0c,0x40,0x76,0x6f,0x6c,0x75,0x6d,0x65,0x69,0x55,0x3a,0x0b,0x40,0x70,0x69,0x74,0x63,0x68,0x69,0x69))
PictureDisplay(5,"ev_highslag_hc09",0,0,0,0,100,100,255,0)
ShowMessageFace("",0,0,2,17)
ShowMessage("My penis sinks into her reproductive organ!")
ShowMessage("Her slimy touch wraps around my penis.")
ShowMessageFace("",0,0,2,18)
ShowMessage("\\n<Luka>Ah, aaaaaah!!")
ShowMessageFace("",0,0,2,19)
ShowMessage("In the next moment, I was screaming in pleasure.")
ShowMessage("As Elisabeth said, it was incredible.")
ShowMessageFace("highslag_fc1",0,0,2,20)
ShowMessage("\\n<Elisabeth>Ufufu, well?\nIt's heaven inside me, isn't it?")
ShowMessageFace("",0,0,2,21)
ShowMessage("The flesh inside of her is slimy, like a slug's body.")
ShowMessage("Pressing against me from every side, her mucus sweetly rubs into me.")
ShowMessageFace("",0,0,2,22)
ShowMessage("Her slimy flesh massages my penis.")
ShowMessage("Her mysteriously squirming flesh strokes every inch of me.")
ShowMessageFace("",0,0,2,23)
ShowMessage("\\n<Luka>Auu... Aaah...!!")
ShowMessageFace("",0,0,2,24)
ShowMessage("It feels so good, it's as if I could melt away.")
ShowMessage("As she said, no man could endure more than 10 seconds of this.")
ShowMessageFace("",0,0,2,25)
ShowMessage("I feel like my penis could melt away in her.")
ShowMessage("My waist goes numb as the ecstasy fills me.")
RunCommonEvent(104)
PictureDisplay(5,"ev_highslag_hc10",0,0,0,0,100,100,255,0)
RunCommonEvent(105)
ShowMessageFace("",0,0,2,26)
ShowMessage("\\n<Luka>Huaaa...")
ShowMessageFace("",0,0,2,27)
ShowMessage("In no time, I come inside her.")
ShowMessage("My white semen pours into her reproductive hole.")
ShowMessageFace("",0,0,2,28)
ShowMessage("I couldn't last the 10 seconds Elisabeth warned me about.")
ShowMessage("Tasting incredible pleasure, I came in only moments.")
PictureDisplay(5,"ev_highslag_hc11",0,0,0,0,100,100,255,0)
246(2)
ShowMessageFace("highslag_fc1",0,0,2,29)
ShowMessage("\\n<Elisabeth>Fufu, such a quick mating.\nDid my reproductive hole feel that good?")
ShowMessageFace("",0,0,2,30)
ShowMessage("\\n<Luka>Unnngh...")
ShowMessageFace("",0,0,2,31)
ShowMessage("Misery and ecstasy mix in my relaxing body.")
ShowMessage("I can't go against this pleasure at all...")
ShowMessageFace("highslag_fc1",0,0,2,32)
ShowMessage("\\n<Elisabeth>It was only an instant, but our mating is over.\nI got plenty of your semen...")
ShowMessageFace("highslag_fc1",0,0,2,33)
ShowMessage("\\n<Elisabeth>I'll be using today's semen to feed on.\nBut if you'd wish, would you rather get me pregnant?")
ShowMessageFace("",0,0,2,34)
ShowMessage("\\n<Luka>......")
ShowMessageFace("highslag_fc1",0,0,2,35)
ShowMessage("\\n<Elisabeth>If you want to mate again, come back to me.\nIf you feel up to it, I'd be glad to be your partner...")
ShowMessageFace("",0,0,2,36)
ShowMessage("Elisabeth smiles, satisfied.")
ShowMessage("Still held up by her body, my weak body relaxes.")
221()
PictureClear(5)
PictureClear(6)
ShowMessageFace("",0,0,2,37)
ShowMessage("......")
242(2)
Wait(120)
241(bytes(0x04,0x08,0x6f,0x3a,0x0d,0x52,0x50,0x47,0x3a,0x3a,0x42,0x47,0x4d,0x08,0x3a,0x0a,0x40,0x6e,0x61,0x6d,0x65,0x49,0x22,0x0c,0x63,0x61,0x73,0x74,0x6c,0x65,0x36,0x06,0x3a,0x06,0x45,0x54,0x3a,0x0c,0x40,0x76,0x6f,0x6c,0x75,0x6d,0x65,0x69,0x69,0x3a,0x0b,0x40,0x70,0x69,0x74,0x63,0x68,0x69,0x69))
0()
