﻿// EVENT 0542
Name "ループ：相談者を選択"

DefineLabel("選択")
If(0,4,0)
 355("ex_choice_add(\"アリス\",1)")
 655("ex_choice_add(\"ソニア\",2)")
 655("ex_choice_add(\"アルマエルマ\",3)")
 655("ex_choice_add(\"プロメスティン\",4)")
 655("ex_choice_add(\"アミラ\",5)")
 655("ex_choice_add(\"カズヤ\",6)")
 655("ex_choice_add(\"マガツ\",7)")
 655("ex_choice_add(\"大明海\",8)")
 0()
EndIf()
If(0,5,0)
 355("ex_choice_add(\"イリアス\",1)")
 655("ex_choice_add(\"ソニア\",2)")
 655("ex_choice_add(\"エデン\",3)")
 655("ex_choice_add(\"プロメスティン\",4)")
 655("ex_choice_add(\"アミラ\",5)")
 655("ex_choice_add(\"カズヤ\",6)")
 655("ex_choice_add(\"マガツ\",7)")
 655("ex_choice_add(\"大明海\",8)")
 0()
EndIf()
355("ex_choice_show(0,11,[0,0])")
If(1,9,0,1,0)
 If(0,4,0)
  ShowMessageFace("ruka_fc1",0,0,2,1)
  ShowMessage("【ルカ】")
  ShowMessage("やっぱり、真っ先に相談するのはアリスだな……")
  ShowMessageFace("",0,0,2,2)
  ShowMessage("アリスなら、二階のステージで練習中のはず。")
  ShowMessage("休憩している時に、この異変について相談してみよう。")
  0()
 EndIf()
 If(0,5,0)
  ShowMessageFace("ruka_fc1",0,0,2,3)
  ShowMessage("【ルカ】")
  ShowMessage("やっぱり、真っ先に相談するのはイリアス様だな……")
  ShowMessageFace("",0,0,2,4)
  ShowMessage("イリアス様なら、二階のステージで練習中のはず。")
  ShowMessage("休憩している時に、この異変について相談してみよう。")
  0()
 EndIf()
 EndEventProcessing()
 0()
EndIf()
If(1,9,0,2,0)
 ShowMessageFace("ruka_fc1",0,0,2,5)
 ShowMessage("【ルカ】")
 ShowMessage("ソニアは……本当に、頼りになるのかな？")
 205(-1,bytes(0x04,0x08,0x6f,0x3a,0x13,0x52,0x50,0x47,0x3a,0x3a,0x4d,0x6f,0x76,0x65,0x52,0x6f,0x75,0x74,0x65,0x09,0x3a,0x0c,0x40,0x72,0x65,0x70,0x65,0x61,0x74,0x46,0x3a,0x0f,0x40,0x73,0x6b,0x69,0x70,0x70,0x61,0x62,0x6c,0x65,0x46,0x3a,0x0a,0x40,0x77,0x61,0x69,0x74,0x54,0x3a,0x0a,0x40,0x6c,0x69,0x73,0x74,0x5b,0x07,0x6f,0x3a,0x15,0x52,0x50,0x47,0x3a,0x3a,0x4d,0x6f,0x76,0x65,0x43,0x6f,0x6d,0x6d,0x61,0x6e,0x64,0x07,0x3a,0x0a,0x40,0x63,0x6f,0x64,0x65,0x69,0x16,0x3a,0x10,0x40,0x70,0x61,0x72,0x61,0x6d,0x65,0x74,0x65,0x72,0x73,0x5b,0x00,0x6f,0x3b,0x0a,0x07,0x3b,0x0b,0x69,0x00,0x3b,0x0c,0x5b,0x00))
 ShowMessageFace("",0,0,2,6)
 ShowMessage("正直なところ怪しいが、相談してみるか。")
 ShowMessage("今は自室にいると思うが、確実にいるとは言い切れないな……")
 EndEventProcessing()
 0()
EndIf()
If(1,9,0,3,0)
 If(0,4,0)
  ShowMessageFace("ruka_fc1",0,0,2,7)
  ShowMessage("【ルカ】")
  ShowMessage("アルマエルマは頼りになる仲間だけど……")
  ShowMessage("こういう異変は専門外じゃないかな？")
  ShowMessageFace("",0,0,2,8)
  ShowMessage("とにかく、相談してみよう。")
  ShowMessage("彼女は、三時頃に図書室でセクシー対決をしていたはずだ――")
  0()
 EndIf()
 If(0,5,0)
  ShowMessageFace("ruka_fc1",0,0,2,9)
  ShowMessage("【ルカ】")
  ShowMessage("エデンが……本当に、頼りになるのかな？")
  ShowMessageFace("",0,0,2,10)
  ShowMessage("相談相手として、あまり適しているとは思えないが――")
  ShowMessage("エデンなら、二階ステージで練習中のはずだ。")
  0()
 EndIf()
 EndEventProcessing()
 0()
EndIf()
If(1,9,0,4,0)
 ShowMessageFace("ruka_fc1",0,0,2,11)
 ShowMessage("【ルカ】")
 ShowMessage("プロメスティンなら……")
 ShowMessage("間違いなく、頼りになるはずだな。")
 ShowMessageFace("",0,0,2,12)
 ShowMessage("こうした異変に際して、最も相談相手に適しているのは彼女だ。")
 ShowMessage("プロメスティンは、三階の研究室にいるだろう。")
 If(1,1103,0,0,0)
  ChangeVariable(1103,1103,0,0,1)
  0()
 EndIf()
 EndEventProcessing()
 0()
EndIf()
If(1,9,0,5,0)
 ShowMessageFace("ruka_fc1",0,0,2,13)
 ShowMessage("【ルカ】")
 ShowMessage("アミラなら……")
 ShowMessage("何か、有益な情報を掴んでいるかも。")
 ShowMessageFace("",0,0,2,14)
 ShowMessage("こういう時にも、アミラの情報は頼りになるはず。")
 ShowMessage("彼女は確か、三時頃に食堂にいるはずだ。")
 EndEventProcessing()
 0()
EndIf()
If(1,9,0,6,0)
 ShowMessageFace("ruka_fc1",0,0,2,15)
 ShowMessage("【ルカ】")
 ShowMessage("カズヤなら……力になってくれるんじゃないか？")
 ShowMessageFace("",0,0,2,16)
 ShowMessage("カズヤは、デビルバスターとして様々な経験を積んでいるのだ。")
 ShowMessage("たしか二時頃、彼は二階の酒場にいるはずだ。")
 EndEventProcessing()
 0()
EndIf()
If(1,9,0,7,0)
 ShowMessageFace("ruka_fc1",0,0,2,17)
 ShowMessage("【ルカ】")
 ShowMessage("マガツなら……")
 ShowMessage("もしかして、こういうことに詳しいかも。")
 ShowMessageFace("",0,0,2,18)
 ShowMessage("マガツは、白念から師匠と慕われるほどの人格者。")
 ShowMessage("こういう異変に対する術を心得ているかもしれない。")
 205(-1,bytes(0x04,0x08,0x6f,0x3a,0x13,0x52,0x50,0x47,0x3a,0x3a,0x4d,0x6f,0x76,0x65,0x52,0x6f,0x75,0x74,0x65,0x09,0x3a,0x0c,0x40,0x72,0x65,0x70,0x65,0x61,0x74,0x46,0x3a,0x0f,0x40,0x73,0x6b,0x69,0x70,0x70,0x61,0x62,0x6c,0x65,0x46,0x3a,0x0a,0x40,0x77,0x61,0x69,0x74,0x54,0x3a,0x0a,0x40,0x6c,0x69,0x73,0x74,0x5b,0x07,0x6f,0x3a,0x15,0x52,0x50,0x47,0x3a,0x3a,0x4d,0x6f,0x76,0x65,0x43,0x6f,0x6d,0x6d,0x61,0x6e,0x64,0x07,0x3a,0x0a,0x40,0x63,0x6f,0x64,0x65,0x69,0x16,0x3a,0x10,0x40,0x70,0x61,0x72,0x61,0x6d,0x65,0x74,0x65,0x72,0x73,0x5b,0x00,0x6f,0x3b,0x0a,0x07,0x3b,0x0b,0x69,0x00,0x3b,0x0c,0x5b,0x00))
 ShowMessageFace("ruka_fc1",0,0,2,19)
 ShowMessage("【ルカ】")
 ShowMessage("今の時間、マガツを見た覚えはないから……")
 ShowMessage("ひょっとしたら、まだ自室にいるのかも。")
 ShowMessageFace("",0,0,2,20)
 ShowMessage("今すぐ居住区へ行って、マガツの部屋を尋ねてみようか。")
 EndEventProcessing()
 0()
EndIf()
If(1,9,0,8,0)
 ShowMessageFace("ruka_fc1",0,0,2,21)
 ShowMessage("【ルカ】")
 ShowMessage("大明海なら……")
 ShowMessage("こういう変事にも対処できるんじゃないかな？")
 ShowMessageFace("",0,0,2,22)
 ShowMessage("大明海は経験豊富で、知識も深いはず。")
 ShowMessage("彼女は確か、二時頃に図書室にいたはずだ。")
 EndEventProcessing()
 0()
EndIf()
ShowMessageFace("ruka_fc1",0,0,2,23)
ShowMessage("【ルカ】")
ShowMessage("今回は、自由に行動するか……")
EndEventProcessing()
0()
