// EVENT 4152
Name "Phoenix Girl 2"

If(0,25,1)
 221()
 PictureClear(5)
 PictureClear(6)
 ShowMessageFace("",0,0,2,0)
 ShowMessage("......")
 242(2)
 Wait(120)
 241(bytes(0x04,0x08,0x6f,0x3a,0x0d,0x52,0x50,0x47,0x3a,0x3a,0x42,0x47,0x4d,0x08,0x3a,0x0a,0x40,0x6e,0x61,0x6d,0x65,0x49,0x22,0x0c,0x63,0x61,0x73,0x74,0x6c,0x65,0x36,0x06,0x3a,0x06,0x45,0x54,0x3a,0x0c,0x40,0x76,0x6f,0x6c,0x75,0x6d,0x65,0x69,0x69,0x3a,0x0b,0x40,0x70,0x69,0x74,0x63,0x68,0x69,0x69))
 EndEventProcessing()
 0()
EndIf()
PictureDisplay(5,"80_phoenix_st04",0,0,0,0,100,100,255,0)
ShowMessageFace("phoenix_fc1",3,0,2,1)
ShowMessage("\\n<Mini>You want to mate with me...?")
ShowMessageFace("",0,0,2,2)
ShowMessage("\\n<Luka>P-please...")
PictureDisplay(5,"80_phoenix_st02",0,0,0,0,100,100,255,0)
ShowMessageFace("phoenix_fc1",1,0,2,3)
ShowMessage("\\n<Mini>Okay, come to my room!\nLet's play together!")
ShowMessageFace("",0,0,2,4)
ShowMessage("I follow Mini to her room...")
221()
PictureDisplay(1,"bg195",0,0,0,0,100,100,255,0)
PictureDisplay(5,"80_phoenix_st01",0,0,0,0,100,100,255,0)
222()
241(bytes(0x04,0x08,0x6f,0x3a,0x0d,0x52,0x50,0x47,0x3a,0x3a,0x42,0x47,0x4d,0x08,0x3a,0x0a,0x40,0x6e,0x61,0x6d,0x65,0x49,0x22,0x09,0x65,0x72,0x6f,0x31,0x06,0x3a,0x06,0x45,0x54,0x3a,0x0c,0x40,0x76,0x6f,0x6c,0x75,0x6d,0x65,0x69,0x69,0x3a,0x0b,0x40,0x70,0x69,0x74,0x63,0x68,0x69,0x69))
ShowMessageFace("phoenix_fc1",1,0,2,5)
ShowMessage("\\n<Mini>All right then, let's mate!")
ShowMessageFace("",0,0,2,6)
ShowMessage("The little girl flies out over on top of me.")
PictureDisplay(5,"ev_phoenix_hb01",0,0,0,0,100,100,0,0)
PictureMove(5,null,0,0,0,0,100,100,255,0,30,true)
ShowMessageFace("",0,0,2,7)
ShowMessage("Mini wastes no time in taking out my penis. Seeing that it's already erect, she gives me an innocent smile.")
ShowMessageFace("phoenix_fc1",0,0,2,8)
ShowMessage("\\n<Mini>It looks like you're ready to go. Let's mate then!")
ShowMessageFace("",0,0,2,9)
ShowMessage("With that, Mini drops her waist...")
245(bytes(0x04,0x08,0x6f,0x3a,0x0d,0x52,0x50,0x47,0x3a,0x3a,0x42,0x47,0x53,0x08,0x3a,0x0a,0x40,0x6e,0x61,0x6d,0x65,0x49,0x22,0x1e,0x6d,0x6f,0x6e,0x5f,0x68,0x73,0x65,0x61,0x6e,0x30,0x33,0x5f,0x69,0x6e,0x6e,0x65,0x72,0x77,0x6f,0x72,0x6b,0x73,0x5f,0x61,0x33,0x06,0x3a,0x06,0x45,0x54,0x3a,0x0c,0x40,0x76,0x6f,0x6c,0x75,0x6d,0x65,0x69,0x55,0x3a,0x0b,0x40,0x70,0x69,0x74,0x63,0x68,0x69,0x69))
PictureDisplay(5,"ev_phoenix_hb02",0,0,0,0,100,100,255,0)
ShowMessageFace("",0,0,2,10)
ShowMessage("Her narrow vagina sucks me inside! My penis slides easily through her hot, slick hole as she takes my entire length in one fluid motion.")
ShowMessageFace("phoenix_fc1",0,0,2,11)
ShowMessage("\\n<Mini>I'm mating!")
ShowMessage("So this is what it feels like to have a penis inside me...")
ShowMessageFace("",0,0,2,12)
ShowMessage("\\n<Luka>H-hot... Aaah...")
ShowMessageFace("",0,0,2,13)
ShowMessage("Mini's vagina is extremely warm. It almost feels like my dick is melting into her syrupy secretions.")
ShowMessageFace("",0,0,2,14)
ShowMessage("On top of that, it's obvious from her tightness that this is her first time. My shaft is practically smothered from all sides.")
ShowMessageFace("",0,0,2,15)
ShowMessage("\\n<Luka>Ah, unnngh...!")
PictureDisplay(5,"ev_phoenix_hb03",0,0,0,0,100,100,255,0)
ShowMessageFace("phoenix_fc1",0,0,2,16)
ShowMessage("\\n<Mini>Does it feel good inside me? You can shoot out as much of your sperm as you want!")
ShowMessageFace("",0,0,2,17)
ShowMessage("Mini joyfully swings her hips. With each shake of her tiny waist, her vaginal walls sloppily stroke my dick.")
ShowMessageFace("",0,0,2,18)
ShowMessage("Without a doubt, this girl's vagina is something special. She squeezes down on me and heats it up even further. It's wonderful...")
ShowMessageFace("",0,0,2,19)
ShowMessage("Even though we've barely just begun, I can already feel the desire to ejaculate boiling up inside me. At this rate, I'm going to come embarrassingly fast.")
ShowMessageFace("",0,0,2,20)
ShowMessage("\\n<Luka>Ugh, guh...")
ShowMessageFace("phoenix_fc1",0,0,2,21)
ShowMessage("\\n<Mini>Why aren't you coming? I want you to pew pew inside me!")
ShowMessageFace("",0,0,2,22)
ShowMessage("I try to hold back my ejaculation, but the phoenix keeps pumping me in her simple-minded innocence. Her tight pussy moves up and down like a piston, driving me to the edge.")
ShowMessageFace("",0,0,2,23)
ShowMessage("At the same time, her walls continue squeezing. Stuck inside her hot, sticky canal, my penis gradually heats up to match.")
ShowMessageFace("",0,0,2,24)
ShowMessage("\\n<Luka>Aaaah... No, can't hold...")
ShowMessageFace("",0,0,2,25)
ShowMessage("Recognizing the futility of my efforts, I stop resisting and give in to the soothing heat. I want to come so badly...")
ShowMessageFace("phoenix_fc1",0,0,2,26)
ShowMessage("\\n<Mini>Are you close yet? Come ooooooon!")
ShowMessageFace("",0,0,2,27)
ShowMessage("Mini acts like an impatient girl in a candy store as she bounces on top of me. I was already on the edge, and that was enough to deliver the finishing blow.")
ShowMessageFace("",0,0,2,28)
ShowMessage("\\n<Luka>Ah...! Aaaah...!!")
RunCommonEvent(104)
PictureDisplay(5,"ev_phoenix_hb04",0,0,0,0,100,100,255,0)
RunCommonEvent(105)
ShowMessageFace("",0,0,2,29)
ShowMessage("I pour my semen into the phoenix, intoxicating pleasure shooting through my lower half each time another spurt shoots out.")
ShowMessageFace("phoenix_fc1",0,0,2,30)
ShowMessage("\\n<Mini>Aha, you came!")
ShowMessage("There's so much semen coming out!")
ShowMessageFace("",0,0,2,32)
ShowMessage("\\n<Luka>Nnngh...")
PictureDisplay(5,"ev_phoenix_hb05",0,0,0,0,100,100,255,0)
ShowMessageFace("phoenix_fc1",1,0,2,33)
ShowMessage("\\n<Mini>Satisfied? Too bad, I'm not!")
ShowMessageFace("phoenix_fc1",1,0,2,34)
ShowMessage("\\n<Mini>Hora hora, come for me again! Gush out everything you've got inside me!")
ShowMessageFace("",0,0,2,35)
ShowMessage("\\n<Luka>N...no way... Ah, aaaaaah!!")
ShowMessageFace("",0,0,2,36)
ShowMessage("Clearly in high spirits, the little phoenix rides me ecstatically and urges my dick towards another climax with her hot pussy.")
ShowMessageFace("",0,0,2,37)
ShowMessage("Each time her waist drops, her flesh gives me a wonderfully tight squeeze. Then when she rises again, those warm, slimy walls stroke every inch of my penis.")
ShowMessageFace("",0,0,2,38)
ShowMessage("Even though I just came, the alternating forms of stimulation drive me to the edge in a flash.")
ShowMessageFace("",0,0,2,39)
ShowMessage("\\n<Luka>Ah, unnngh...!")
ShowMessageFace("phoenix_fc1",1,0,2,40)
ShowMessage("\\n<Mini>You're going to come again already? Your penis is weak! Here, let me defeat you inside of me!")
ShowMessageFace("",0,0,2,41)
ShowMessage("Mini drops all the way down and wriggles her hips side to side. That little maneuver sends my semen gushing out all at once.")
RunCommonEvent(104)
PictureDisplay(5,"ev_phoenix_hb06",0,0,0,0,100,100,255,0)
RunCommonEvent(105)
ShowMessageFace("",0,0,2,42)
ShowMessage("\\n<Luka>Aaaaah...!!")
ShowMessageFace("",0,0,2,43)
ShowMessage("Unable to do anything about it, the phoenix squeezes out my semen into her hot vagina with no signs of letting up.")
ShowMessageFace("phoenix_fc1",1,0,2,44)
ShowMessage("\\n<Mini>Ahaha, more, more, more!")
ShowMessage("Shoot out every sperm you've got saved up!")
ShowMessageFace("",0,0,2,45)
ShowMessage("\\n<Luka>Stop, please...")
ShowMessage("Ah! Aaaaaaah!!")
ShowMessageFace("",0,0,2,46)
ShowMessage("She shakes her hips with even more vigor, enthusiastically pumping me from an instinctual desire to reproduce.")
ShowMessageFace("",0,0,2,47)
ShowMessage("She appears dead set on molesting me. Her pussy contracts as she raises and lowers herself, leaving me unable to do anything but offer up my semen.")
ShowMessageFace("phoenix_fc1",1,0,2,48)
ShowMessage("\\n<Mini>I can feel your penis twitching again!")
ShowMessage("Hora, come for me!")
ShowMessageFace("",0,0,2,49)
ShowMessage("\\n<Luka>Aaah...!!")
RunCommonEvent(104)
PictureDisplay(5,"ev_phoenix_hb07",0,0,0,0,100,100,255,0)
RunCommonEvent(105)
ShowMessageFace("",0,0,2,50)
ShowMessage("Once again, I ejaculate a load into Mini. At this point, my dick is so warm that it doesn't even feel real to me.")
246(2)
PictureDisplay(5,"ev_phoenix_hb09",0,0,0,0,100,100,255,0)
ShowMessageFace("phoenix_fc1",1,0,2,51)
ShowMessage("\\n<Mini>Ahaha, you came so much!")
ShowMessage("All right, that's enough for me!")
ShowMessageFace("",0,0,2,52)
ShowMessage("\\n<Luka>Nnngh...")
ShowMessageFace("",0,0,2,53)
ShowMessage("I'm dead tired after being forced to ejaculate that many times. Mini, on the other hand, looks down on me with a satisfied grin.")
221()
PictureClear(5)
ShowMessageFace("",0,0,2,54)
ShowMessage("......")
242(2)
Wait(120)
241(bytes(0x04,0x08,0x6f,0x3a,0x0d,0x52,0x50,0x47,0x3a,0x3a,0x42,0x47,0x4d,0x08,0x3a,0x0a,0x40,0x6e,0x61,0x6d,0x65,0x49,0x22,0x0c,0x63,0x61,0x73,0x74,0x6c,0x65,0x36,0x06,0x3a,0x06,0x45,0x54,0x3a,0x0c,0x40,0x76,0x6f,0x6c,0x75,0x6d,0x65,0x69,0x69,0x3a,0x0b,0x40,0x70,0x69,0x74,0x63,0x68,0x69,0x69))
0()
