﻿// EVENT 2062
Name "Seduction: Anglerfish Girl"

If(0,25,1)
 EndEventProcessing()
 0()
EndIf()
355("$game_troop.lose_event_id = 3062")
ChangeVariable(26,26,0,3,3,1,4)
ChangeVariable(26,26,4,0,10)
ShowMessageFace("ankou_fc1",0,0,2,1)
ShowMessage("\\n<Anglerfish Girl>............")
250(bytes(0x04,0x08,0x6f,0x3a,0x0c,0x52,0x50,0x47,0x3a,0x3a,0x53,0x45,0x08,0x3a,0x0a,0x40,0x6e,0x61,0x6d,0x65,0x49,0x22,0x12,0x6d,0x6f,0x6e,0x5f,0x65,0x72,0x6f,0x5f,0x6e,0x61,0x6d,0x65,0x32,0x06,0x3a,0x06,0x45,0x54,0x3a,0x0b,0x40,0x70,0x69,0x74,0x63,0x68,0x69,0x69,0x3a,0x0c,0x40,0x76,0x6f,0x6c,0x75,0x6d,0x65,0x69,0x69))
ShowMessageFace("",0,0,2,2)
ShowMessage("The Anglerfish girl rams her body towards Luka!\nLuka's body sinks into the abdomen of the Anglerfish Girl!")
ShowMessageFace("",0,0,2,3)
ShowMessage("\\n<Luka>Uwaaaaah...!")
ShowMessageFace("",0,0,2,4)
ShowMessage("The Anglerfish Girl's abdominal flesh is semi-viscous, and strangely soft. It's as if my legs are sinking inside warm cheese.")
ShowMessageFace("",0,0,2,5)
ShowMessage("As it is, I'm unable to extract myself with just a little pulling. On the contrary, it appears she is gradually drawing me into her.")
ShowMessageFace("",0,0,2,6)
ShowMessage("If this continues, my entire body will be pulled in...")
ChangeSwitch(98,98,0)
ChangeSwitch(96,96,0)
ShowChoices(strings("Struggle","Let her continue"),1)
IfPlayerPicksChoice(0,"Struggle")
 ShowMessageFace("",0,0,2,7)
 ShowMessage("Luka struggles violently, and escapes from the Anglerfish Girl!")
 RunCommonEvent(1999)
 EndEventProcessing()
 0()
IfPlayerPicksChoice(1,"Let her continue")
 0()
404()
ShowMessageFace("ankou_fc1",0,0,2,8)
ShowMessage("\\n<Anglerfish Girl>............")
ChangeVariable(26,26,3,0,2)
250(bytes(0x04,0x08,0x6f,0x3a,0x0c,0x52,0x50,0x47,0x3a,0x3a,0x53,0x45,0x08,0x3a,0x0a,0x40,0x6e,0x61,0x6d,0x65,0x49,0x22,0x12,0x6d,0x6f,0x6e,0x5f,0x65,0x72,0x6f,0x5f,0x6e,0x61,0x6d,0x65,0x32,0x06,0x3a,0x06,0x45,0x54,0x3a,0x0b,0x40,0x70,0x69,0x74,0x63,0x68,0x69,0x69,0x3a,0x0c,0x40,0x76,0x6f,0x6c,0x75,0x6d,0x65,0x69,0x69))
PictureDisplay(6,"ev_ankou_cta01",0,0,0,0,100,100,255,0)
311(0,1,1,1,26,true)
ShowMessageFace("",0,0,2,9)
ShowMessage("The Anglerfish Girl pulls in Luka's body!\nHis body is gradually wrapped up in the Anglerfish Girl's abdomen!\\D")
ShowMessage("Luka takes \\V[26] damage!")
ChangeVariable(27,27,0,3,3,1,2)
If(1,27,0,0,0)
 JumpToLabel("射精1")
 0()
EndIf()
ShowMessageFace("",0,0,2,10)
ShowMessage("\\n<Luka>Auuuuu...!")
ShowMessageFace("",0,0,2,11)
ShowMessage("Both of my legs are submerged inside the Anglerfish Girl, her warm semi-viscous flesh wrapped around them.\nThis sticky sensation is giving me a soft pleasure filled with relaxation.")
ShowMessageFace("",0,0,2,12)
ShowMessage("\\n<Luka>Hiii...!")
ShowMessageFace("",0,0,2,13)
ShowMessage("As I'm being taken in, I'm given a peaceful pleasure...\nAs a matter of fact, this feeling fills me with an instinctive disgust.")
ShowMessageFace("ankou_fc1",0,0,2,14)
ShowMessage("\\n<Anglerfish Girl>............")
250(bytes(0x04,0x08,0x6f,0x3a,0x0c,0x52,0x50,0x47,0x3a,0x3a,0x53,0x45,0x08,0x3a,0x0a,0x40,0x6e,0x61,0x6d,0x65,0x49,0x22,0x12,0x6d,0x6f,0x6e,0x5f,0x65,0x72,0x6f,0x5f,0x6e,0x61,0x6d,0x65,0x32,0x06,0x3a,0x06,0x45,0x54,0x3a,0x0b,0x40,0x70,0x69,0x74,0x63,0x68,0x69,0x69,0x3a,0x0c,0x40,0x76,0x6f,0x6c,0x75,0x6d,0x65,0x69,0x69))
311(0,1,1,1,26,true)
ShowMessageFace("",0,0,2,15)
ShowMessage("The Anglerfish Girl pulls in Luka's body!\nHis body is gradually wrapped up in the Anglerfish Girl's abdomen!\\D")
ShowMessage("Luka takes \\V[26] damage!")
ChangeVariable(27,27,0,3,3,1,2)
If(1,27,0,0,0)
 JumpToLabel("射精1")
 0()
EndIf()
ShowMessageFace("",0,0,2,16)
ShowMessage("\\n<Luka>U-ugh...!")
ShowMessageFace("",0,0,2,17)
ShowMessage("More of her sticky flesh wraps around me.\nA strange feeling accompanied by relaxation spreads throughout my lower body.")
ShowMessageFace("",0,0,2,18)
ShowMessage("Her sticky flesh entwines with my body, as if being digested.")
ShowMessageFace("",0,0,2,19)
ShowMessage("\\n<Luka>No way, am I already being absorbed...?")
ShowMessageFace("",0,0,2,20)
ShowMessage("Fused into the Anglerfish Girl's flesh, my body will be dissolved at this rate. I'm going to be absorbed...")
ShowMessageFace("ankou_fc1",0,0,2,21)
ShowMessage("\\n<Anglerfish Girl>............")
250(bytes(0x04,0x08,0x6f,0x3a,0x0c,0x52,0x50,0x47,0x3a,0x3a,0x53,0x45,0x08,0x3a,0x0a,0x40,0x6e,0x61,0x6d,0x65,0x49,0x22,0x12,0x6d,0x6f,0x6e,0x5f,0x65,0x72,0x6f,0x5f,0x6e,0x61,0x6d,0x65,0x32,0x06,0x3a,0x06,0x45,0x54,0x3a,0x0b,0x40,0x70,0x69,0x74,0x63,0x68,0x69,0x69,0x3a,0x0c,0x40,0x76,0x6f,0x6c,0x75,0x6d,0x65,0x69,0x69))
PictureDisplay(6,"ev_ankou_cta02",0,0,0,0,100,100,255,0)
311(0,1,1,1,26,true)
ShowMessageFace("",0,0,2,22)
ShowMessage("The Anglerfish Girl pulls in Luka's body!\nFrom the neck down, he sinks deeper into the Anglerfish Girl's abdomen!\\D")
ShowMessage("Luka takes \\V[26] damage!")
ChangeVariable(27,27,0,3,3,1,2)
If(1,27,0,0,0)
 JumpToLabel("射精1")
 0()
EndIf()
ShowMessageFace("",0,0,2,23)
ShowMessage("\\n<Luka>Aaaaah--!!")
ShowMessageFace("",0,0,2,24)
ShowMessage("Almost my entire body has been enveloped in the Anglerfish Girl's flesh, making it impossible to escape.\nEven my dick is wrapped in the Anglerfish Girl's flesh, and is starting to be thoroughly stimulated.")
ShowMessageFace("ankou_fc1",0,0,2,25)
ShowMessage("\\n<Anglerfish Girl>............")
250(bytes(0x04,0x08,0x6f,0x3a,0x0c,0x52,0x50,0x47,0x3a,0x3a,0x53,0x45,0x08,0x3a,0x0a,0x40,0x6e,0x61,0x6d,0x65,0x49,0x22,0x12,0x6d,0x6f,0x6e,0x5f,0x65,0x72,0x6f,0x5f,0x6e,0x61,0x6d,0x65,0x32,0x06,0x3a,0x06,0x45,0x54,0x3a,0x0b,0x40,0x70,0x69,0x74,0x63,0x68,0x69,0x69,0x3a,0x0c,0x40,0x76,0x6f,0x6c,0x75,0x6d,0x65,0x69,0x69))
311(0,1,1,1,26,true)
ShowMessageFace("",0,0,2,26)
ShowMessage("The Anglerfish Girl's sticky flesh wraps around Luka's penis!\\D")
ShowMessage("Luka takes \\V[26] damage!")
250(bytes(0x04,0x08,0x6f,0x3a,0x0c,0x52,0x50,0x47,0x3a,0x3a,0x53,0x45,0x08,0x3a,0x0a,0x40,0x6e,0x61,0x6d,0x65,0x49,0x22,0x12,0x6d,0x6f,0x6e,0x5f,0x65,0x72,0x6f,0x5f,0x6e,0x61,0x6d,0x65,0x32,0x06,0x3a,0x06,0x45,0x54,0x3a,0x0b,0x40,0x70,0x69,0x74,0x63,0x68,0x69,0x69,0x3a,0x0c,0x40,0x76,0x6f,0x6c,0x75,0x6d,0x65,0x69,0x69))
311(0,1,1,1,26,true)
ShowMessageFace("",0,0,2,27)
ShowMessage("Her sticky flesh twines and circulates around his penis!\\D")
ShowMessage("Luka takes \\V[26] damage!")
250(bytes(0x04,0x08,0x6f,0x3a,0x0c,0x52,0x50,0x47,0x3a,0x3a,0x53,0x45,0x08,0x3a,0x0a,0x40,0x6e,0x61,0x6d,0x65,0x49,0x22,0x12,0x6d,0x6f,0x6e,0x5f,0x65,0x72,0x6f,0x5f,0x6e,0x61,0x6d,0x65,0x32,0x06,0x3a,0x06,0x45,0x54,0x3a,0x0b,0x40,0x70,0x69,0x74,0x63,0x68,0x69,0x69,0x3a,0x0c,0x40,0x76,0x6f,0x6c,0x75,0x6d,0x65,0x69,0x69))
311(0,1,1,1,26,true)
ShowMessageFace("",0,0,2,28)
ShowMessage("Luka's penis is gently massaged as her sticky flesh crawls all over, dissolving him!\\D")
ShowMessage("Luka takes \\V[26] damage!")
ChangeVariable(27,27,0,3,3,1,2)
If(1,27,0,0,0)
 JumpToLabel("射精2")
 0()
EndIf()
DefineLabel("射精1")
ShowMessageFace("",0,0,2,29)
ShowMessage("\\n<Luka>No, I'm coming... Aaaah...")
RunCommonEvent(104)
PictureDisplay(6,"ev_ankou_cta03",0,0,0,0,100,100,255,0)
RunCommonEvent(105)
ShowMessageFace("",0,0,2,30)
ShowMessage("As her melty flesh twines around my penis, I finally climax. It was a sweet ejaculation accompanied by so much pleasure, my whole body felt like it was melting.")
ShowMessageFace("ankou_fc1",0,0,2,31)
ShowMessage("\\n<Anglerfish Girl>............")
RunCommonEvent(2000)
EndEventProcessing()
0()
