// EVENT 2056
Name "Seduction: Watermelon Girl"

If(0,25,1)
 EndEventProcessing()
 0()
EndIf()
355("$game_troop.lose_event_id = 3056")
ChangeVariable(26,26,0,3,3,1,4)
ChangeVariable(26,26,4,0,10)
ShowMessageFace("suika_fc1",2,0,2,1)
ShowMessage("\\n<Watermelon Girl>This isn't good, I'll lose!\nI have to do something...")
ShowMessageFace("suika_fc1",1,0,2,2)
ShowMessage("\\n<Watermelon Girl>Hey, hey, do you want me to make your penis feel good?\nI'll rub you with my watermelon ivy♪")
ChangeSwitch(98,98,0)
ChangeSwitch(96,96,0)
ShowChoices(strings("Ignore her","Give in to temptation"),1)
IfPlayerPicksChoice(0,"Ignore her")
 ShowMessageFace("",0,0,2,3)
 ShowMessage("Luka resists her temptation!")
 RunCommonEvent(1999)
 EndEventProcessing()
 0()
IfPlayerPicksChoice(1,"誘惑に乗る")
 0()
404()
ShowMessageFace("suika_fc1",1,0,2,4)
ShowMessage("\\n<Watermelon Girl>Ahaha, do you want my watermelon ivy to rub you?\nThen I'll let you feel lots of it♪")
ChangeVariable(26,26,3,0,2)
250(bytes(0x04,0x08,0x6f,0x3a,0x0c,0x52,0x50,0x47,0x3a,0x3a,0x53,0x45,0x08,0x3a,0x0a,0x40,0x6e,0x61,0x6d,0x65,0x49,0x22,0x12,0x6d,0x6f,0x6e,0x5f,0x65,0x72,0x6f,0x5f,0x6b,0x6f,0x6b,0x69,0x31,0x06,0x3a,0x06,0x45,0x54,0x3a,0x0b,0x40,0x70,0x69,0x74,0x63,0x68,0x69,0x69,0x3a,0x0c,0x40,0x76,0x6f,0x6c,0x75,0x6d,0x65,0x69,0x69))
311(0,1,1,1,26,true)
ShowMessageFace("",0,0,2,5)
ShowMessage("Ivy coils itself around Luka's penis!")
ShowMessage("Covered in strange mucus, it gives him a unique stimulation!\\D")
ShowMessage("Luka takes \\V[26] damage!")
ChangeVariable(27,27,0,3,3,1,2)
If(1,27,0,0,0)
 JumpToLabel("射精1")
 0()
EndIf()
ShowMessageFace("suika_fc1",1,0,2,6)
ShowMessage("\\n<Watermelon Girl>Does my ivy feel nice and good?")
250(bytes(0x04,0x08,0x6f,0x3a,0x0c,0x52,0x50,0x47,0x3a,0x3a,0x53,0x45,0x08,0x3a,0x0a,0x40,0x6e,0x61,0x6d,0x65,0x49,0x22,0x12,0x6d,0x6f,0x6e,0x5f,0x65,0x72,0x6f,0x5f,0x6b,0x6f,0x6b,0x69,0x31,0x06,0x3a,0x06,0x45,0x54,0x3a,0x0b,0x40,0x70,0x69,0x74,0x63,0x68,0x69,0x69,0x3a,0x0c,0x40,0x76,0x6f,0x6c,0x75,0x6d,0x65,0x69,0x69))
311(0,1,1,1,26,true)
ShowMessageFace("",0,0,2,7)
ShowMessage("The ivy creeps up and down his penis!")
ShowMessage("It caresses every inch of his penis!\\D")
ShowMessage("Luka takes \\V[26] damage!")
ChangeVariable(27,27,0,3,3,1,2)
If(1,27,0,0,0)
 JumpToLabel("射精1")
 0()
EndIf()
ShowMessageFace("",0,0,2,8)
ShowMessage("\\n<Luka>Ah...")
ShowMessageFace("",0,0,2,9)
ShowMessage("The ivy feels better than I expected...")
ShowMessage("I'll come soon at this rate.")
ShowChoices(strings("Tear off ivy","Let her continue"),1)
IfPlayerPicksChoice(0,"ツタを引きはがす")
 ShowMessageFace("",0,0,2,10)
 ShowMessage("Luka tried to pull off the ivy!")
 ShowMessageFace("suika_fc1",1,0,2,11)
 ShowMessage("\\n<Watermelon Girl>There's no use trying to escape.\nHora, even my watermelon will eat you now♪")
 ShowMessageFace("",0,0,2,12)
 ShowMessage("The Watermelon Girl presses her watermelon onto Luka!")
 ShowMessage("The sweet smell overpowers Luka's senses!")
 ShowMessage("Luka is soaked in ecstasy!")
 ShowMessageFace("suika_fc1",1,0,2,13)
 ShowMessage("\\n<Watermelon Girl>Ehehe, you can't resist any more now.\nNow I'll make you come with my ivy♪")
 0()
IfPlayerPicksChoice(1,"なすがまま")
 ShowMessageFace("",0,0,2,14)
 ShowMessage("Luka surrenders to the pleasure...")
 ShowMessageFace("suika_fc1",1,0,2,15)
 ShowMessage("\\n<Watermelon Girl>Ehehe, you aren't resisting.\nNow I'll make you come with my ivy♪")
 0()
404()
250(bytes(0x04,0x08,0x6f,0x3a,0x0c,0x52,0x50,0x47,0x3a,0x3a,0x53,0x45,0x08,0x3a,0x0a,0x40,0x6e,0x61,0x6d,0x65,0x49,0x22,0x12,0x6d,0x6f,0x6e,0x5f,0x65,0x72,0x6f,0x5f,0x6b,0x6f,0x6b,0x69,0x31,0x06,0x3a,0x06,0x45,0x54,0x3a,0x0b,0x40,0x70,0x69,0x74,0x63,0x68,0x69,0x69,0x3a,0x0c,0x40,0x76,0x6f,0x6c,0x75,0x6d,0x65,0x69,0x69))
311(0,1,1,1,26,true)
ShowMessageFace("",0,0,2,16)
ShowMessage("The ivy around Luka's penis strokes him!")
ShowMessage("Dripping with mucus, it stimulates him!\\D")
ShowMessage("Luka takes \\V[26] damage!")
ChangeVariable(27,27,0,3,3,1,2)
If(1,27,0,0,0)
 JumpToLabel("射精1")
 0()
EndIf()
ShowMessageFace("suika_fc1",1,0,2,17)
ShowMessage("\\n<Watermelon Girl>Ahaha, isn't it nice?\nHora, shoot out your semen~♪")
250(bytes(0x04,0x08,0x6f,0x3a,0x0c,0x52,0x50,0x47,0x3a,0x3a,0x53,0x45,0x08,0x3a,0x0a,0x40,0x6e,0x61,0x6d,0x65,0x49,0x22,0x12,0x6d,0x6f,0x6e,0x5f,0x65,0x72,0x6f,0x5f,0x6b,0x6f,0x6b,0x69,0x31,0x06,0x3a,0x06,0x45,0x54,0x3a,0x0b,0x40,0x70,0x69,0x74,0x63,0x68,0x69,0x69,0x3a,0x0c,0x40,0x76,0x6f,0x6c,0x75,0x6d,0x65,0x69,0x69))
311(0,1,1,1,26,true)
ShowMessageFace("",0,0,2,18)
ShowMessage("The ivy tightens around Luka's penis!")
ShowMessage("It stimulates his tip as it strokes him!\\D")
ShowMessage("Luka takes \\V[26] damage!")
ChangeVariable(27,27,0,3,3,1,2)
If(1,27,0,0,0)
 JumpToLabel("射精1")
 0()
EndIf()
ShowMessageFace("suika_fc1",1,0,2,19)
ShowMessage("\\n<Watermelon Girl>Ok, this is the finish~♪\nShoot out all of your little sperm♪")
250(bytes(0x04,0x08,0x6f,0x3a,0x0c,0x52,0x50,0x47,0x3a,0x3a,0x53,0x45,0x08,0x3a,0x0a,0x40,0x6e,0x61,0x6d,0x65,0x49,0x22,0x12,0x6d,0x6f,0x6e,0x5f,0x65,0x72,0x6f,0x5f,0x6b,0x6f,0x6b,0x69,0x31,0x06,0x3a,0x06,0x45,0x54,0x3a,0x0b,0x40,0x70,0x69,0x74,0x63,0x68,0x69,0x69,0x3a,0x0c,0x40,0x76,0x6f,0x6c,0x75,0x6d,0x65,0x69,0x69))
311(0,1,1,1,26,true)
ShowMessageFace("",0,0,2,20)
ShowMessage("The ivy coils tighter around his penis!")
ShowMessage("Stroking up and down, it forces Luka to come!\\D")
ShowMessage("Luka takes \\V[26] damage!")
ChangeVariable(27,27,0,3,3,1,2)
If(1,27,0,0,0)
 JumpToLabel("射精1")
 0()
EndIf()
DefineLabel("射精1")
ShowMessageFace("",0,0,2,21)
ShowMessage("\\n<Luka>Aaah...I'm coming...")
RunCommonEvent(104)
RunCommonEvent(105)
ShowMessageFace("",0,0,2,22)
ShowMessage("As the Watermelon Girl's ivy strokes me, it's too much to take.")
ShowMessage("I come, shooting my semen all over the place.")
ShowMessageFace("suika_fc1",1,0,2,23)
ShowMessage("\\n<Watermelon Girl>Yep, you came...\nIsn't it a little sad how easy it is to make you come?")
RunCommonEvent(2000)
EndEventProcessing()
0()
