﻿// EVENT 5792
Name "Rエヴァ"

If(0,443,0)
 PictureDisplay(5,"80_eva_st02",0,0,0,0,100,100,255,0)
 0()
EndIf()
241(bytes(0x04,0x08,0x6f,0x3a,0x0d,0x52,0x50,0x47,0x3a,0x3a,0x42,0x47,0x4d,0x08,0x3a,0x0a,0x40,0x6e,0x61,0x6d,0x65,0x49,0x22,0x09,0x65,0x72,0x6f,0x31,0x06,0x3a,0x06,0x45,0x54,0x3a,0x0c,0x40,0x76,0x6f,0x6c,0x75,0x6d,0x65,0x69,0x69,0x3a,0x0b,0x40,0x70,0x69,0x74,0x63,0x68,0x69,0x69))
ShowMessageFace("eva_fc1",1,0,2,1)
ShowMessage("【エヴァ】")
ShowMessage("あはっ、ラッキー♪")
ShowMessage("じゃあ、遠慮なく……")
ShowMessageFace("",0,0,2,2)
ShowMessage("エヴァは腰をかがめ、ズボンを下ろしてきた――")
PictureDisplay(5,"ev_eva_hc1",0,0,0,0,100,100,0,0)
PictureMove(5,null,0,0,0,0,100,100,255,0,30,true)
ShowMessageFace("eva_fc1",1,0,2,3)
ShowMessage("【エヴァ】")
ShowMessage("それじゃあ、いただきま～す♪")
ShowMessage("……あむっ。")
245(bytes(0x04,0x08,0x6f,0x3a,0x0d,0x52,0x50,0x47,0x3a,0x3a,0x42,0x47,0x53,0x08,0x3a,0x0a,0x40,0x6e,0x61,0x6d,0x65,0x49,0x22,0x10,0x6d,0x6f,0x6e,0x5f,0x68,0x76,0x6f,0x69,0x63,0x65,0x31,0x06,0x3a,0x06,0x45,0x54,0x3a,0x0c,0x40,0x76,0x6f,0x6c,0x75,0x6d,0x65,0x69,0x55,0x3a,0x0b,0x40,0x70,0x69,0x74,0x63,0x68,0x69,0x69))
ShowMessageFace("",0,0,2,4)
ShowMessage("エヴァは、ペニスを口の中に咥え込んできた！")
ShowMessageFace("",0,0,2,5)
ShowMessage("【ルカ】")
ShowMessage("あぅぅっ……！")
ShowMessageFace("",0,0,2,6)
ShowMessage("温かな口の中で、亀頭に舌がねろねとろ絡み付く。")
ShowMessage("敏感な先端をねっとり舐め回され、腰を震わせてしまった。")
ShowMessageFace("eva_fc1",1,0,2,7)
ShowMessage("【エヴァ】")
ShowMessage("じゅるっ……れろれろ、れろ……")
ShowMessageFace("",0,0,2,8)
ShowMessage("【ルカ】")
ShowMessage("はぅ……あぁぁ……")
ShowMessageFace("eva_fc1",1,0,2,9)
ShowMessage("【エヴァ】")
ShowMessage("れるれる、じゅるっ……")
ShowMessage("あははっ、とっても気持ち良さそう……♪")
ShowMessageFace("eva_fc1",1,0,2,10)
ShowMessage("【エヴァ】")
ShowMessage("あんたも、ラッキーだって思ってるんじゃない？")
ShowMessage("貴重な品を借りるついでに、ちんちんしゃぶってもらえて……")
ShowMessageFace("",0,0,2,11)
ShowMessage("エヴァが喋るたび、舌が不規則に亀頭へと絡み付く。")
ShowMessage("その快感は、思わず腰砕けになるほどだった――")
ShowMessageFace("",0,0,2,12)
ShowMessage("【ルカ】")
ShowMessage("あ……あぅぅっ……！")
ShowMessageFace("eva_fc1",1,0,2,13)
ShowMessage("【エヴァ】")
ShowMessage("それじゃあ、すぐイかせちゃうね……")
ShowMessage("じゅぶ、じゅぶ、じゅるるるっ……")
ShowMessageFace("",0,0,2,14)
ShowMessage("【ルカ】")
ShowMessage("はぅぅぅっ……！")
ShowMessageFace("",0,0,2,15)
ShowMessage("エヴァは亀頭を口内で艶めかしくしゃぶりたてた。")
ShowMessage("舌を絡めながら、じゅるじゅると吸い付いてくる。")
ShowMessageFace("",0,0,2,16)
ShowMessage("甘い快感に、僕はたちまち限界が訪れた。")
ShowMessage("そのまま、放出感に身を任せ――")
245(bytes(0x04,0x08,0x6f,0x3a,0x0d,0x52,0x50,0x47,0x3a,0x3a,0x42,0x47,0x53,0x08,0x3a,0x0a,0x40,0x6e,0x61,0x6d,0x65,0x49,0x22,0x00,0x06,0x3a,0x06,0x45,0x54,0x3a,0x0c,0x40,0x76,0x6f,0x6c,0x75,0x6d,0x65,0x69,0x55,0x3a,0x0b,0x40,0x70,0x69,0x74,0x63,0x68,0x69,0x69))
RunCommonEvent(104)
PictureDisplay(5,"ev_eva_hc2",0,0,0,0,100,100,255,0)
RunCommonEvent(105)
ShowMessageFace("",0,0,2,17)
ShowMessage("【ルカ】")
ShowMessage("あ……あぁぁ……")
ShowMessageFace("",0,0,2,18)
ShowMessage("温かな口内で、ドクドクと射精してしまう。")
ShowMessage("エヴァは目を細めながら、発射された精液を飲み干していった――")
ShowMessageFace("eva_fc1",1,0,2,19)
ShowMessage("【エヴァ】")
ShowMessage("んっ……ごく、ごく……♪")
ShowMessageFace("",0,0,2,20)
ShowMessage("【ルカ】")
ShowMessage("はぅぅ……")
ShowMessageFace("",0,0,2,21)
ShowMessage("こうして、エヴァに精を捧げてしまった。")
ShowMessage("その口内に、ひとしきり精を放出してしまったのだ――")
221()
241(bytes(0x04,0x08,0x6f,0x3a,0x0d,0x52,0x50,0x47,0x3a,0x3a,0x42,0x47,0x4d,0x08,0x3a,0x0a,0x40,0x6e,0x61,0x6d,0x65,0x49,0x22,0x0c,0x63,0x61,0x73,0x74,0x6c,0x65,0x36,0x06,0x3a,0x06,0x45,0x54,0x3a,0x0c,0x40,0x76,0x6f,0x6c,0x75,0x6d,0x65,0x69,0x69,0x3a,0x0b,0x40,0x70,0x69,0x74,0x63,0x68,0x69,0x69))
PictureClear(5)
222()
ShowMessageFace("eva_fc1",1,0,2,22)
ShowMessage("【エヴァ】")
ShowMessage("んっ……ごちそうさま♪")
ShowMessage("あんたも、気持ち良かったでしょ？")
ShowMessageFace("",0,0,2,23)
ShowMessage("【ルカ】")
ShowMessage("……………………")
EndEventProcessing()
0()
