// EVENT 5406
Name "Forest Dryad"

PictureDisplay(5,"80_f_dryad_st02",0,0,0,0,100,100,0,0)
PictureMove(5,null,0,0,0,0,100,100,255,0,30,true)
ShowMessageFace("f_dryad_fc1",0,0,2,1)
ShowMessage("\\n<Rachel>")
ShowMessage("Do you want to do something that feels good...?")
ShowMessageFace("",0,0,2,2)
ShowMessage("\\n<Luka>")
ShowMessage("P-please...")
ShowMessageFace("f_dryad_fc1",1,0,2,3)
ShowMessage("\\n<Rachel>")
ShowMessage("Understood.  In that case, I'll suck out your semen...")
ShowMessageFace("",0,0,2,4)
ShowMessage("Tree roots crawl out of the ground, taking my clothes off and restraining me...")
241(bytes(0x04,0x08,0x6f,0x3a,0x0d,0x52,0x50,0x47,0x3a,0x3a,0x42,0x47,0x4d,0x08,0x3a,0x0a,0x40,0x6e,0x61,0x6d,0x65,0x49,0x22,0x09,0x65,0x72,0x6f,0x31,0x06,0x3a,0x06,0x45,0x54,0x3a,0x0c,0x40,0x76,0x6f,0x6c,0x75,0x6d,0x65,0x69,0x69,0x3a,0x0b,0x40,0x70,0x69,0x74,0x63,0x68,0x69,0x69))
PictureDisplay(5,"ev_f_dryad_h01",0,0,0,0,100,100,0,0)
PictureMove(5,null,0,0,0,0,100,100,255,0,30,true)
ShowMessageFace("",0,0,2,5)
ShowMessage("\\n<Luka>")
ShowMessage("Ugh... Urgh...")
ShowMessageFace("",0,0,2,6)
ShowMessage("Before I know it I'm stark naked in a humiliating position, bound to a solid tree trunk in front of Rachel.")
ShowMessageFace("",0,0,2,7)
ShowMessage("I'm even deprived of my vision but I can feel Rachel next to me. I realize there's no way I can resist this.")
PictureDisplay(5,"ev_f_dryad_h02",0,0,0,0,100,100,255,0)
ShowMessageFace("f_dryad_fc1",1,0,2,8)
ShowMessage("\\n<Rachel>")
ShowMessage("Now you can't escape, you're at my mercy...")
ShowMessageFace("f_dryad_fc1",1,0,2,9)
ShowMessage("\\n<Rachel>")
ShowMessage("Also, your penis is already like this...\nYou're quite expectant aren't you, fufufu...")
PictureDisplay(5,"ev_f_dryad_h03",0,0,0,0,100,100,255,0)
ShowMessageFace("",0,0,2,10)
ShowMessage("Rachel reaches out and touches my penis, filling me with the soft touch of her palm stroking it...")
ShowMessageFace("",0,0,2,11)
ShowMessage("\\n<Luka>")
ShowMessage("Hauuu...")
ShowMessageFace("",0,0,2,12)
ShowMessage("I feel even more sensitive because I can't see anything and her hand stroking my penis makes my waist tremble.")
PictureDisplay(5,"ev_f_dryad_h04",0,0,0,0,100,100,255,0)
ShowMessageFace("f_dryad_fc1",1,0,2,13)
ShowMessage("\\n<Rachel>")
ShowMessage("Your penis is trembling when I stroke it...\nDoes it feel that good, ufufu...")
ShowMessageFace("",0,0,2,14)
ShowMessage("Rachel keeps stroking and caressing my penis with her soft hand as she laughs, apparently satisfied with my reaction.")
ShowMessageFace("",0,0,2,15)
ShowMessage("\\n<Luka>")
ShowMessage("Hau... Ah, aau...!")
ShowMessageFace("f_dryad_fc1",1,0,2,16)
ShowMessage("\\n<Rachel>")
ShowMessage("It's quite big now; I can finally draw out nutrients from you, you pathetic boy...")
ShowMessageFace("",0,0,2,17)
ShowMessage("\\n<Luka>")
ShowMessage("N-nutrients...?")
PictureDisplay(5,"ev_f_dryad_h06",0,0,0,0,100,100,255,0)
ShowMessageFace("",0,0,2,18)
ShowMessage("I feel something slithering over me but because my vision is blocked, I have no idea what's going on...")
ShowMessageFace("f_dryad_fc1",1,0,2,19)
ShowMessage("\\n<Rachel>")
ShowMessage("I don't cross with men. I extract their semen and use it as nourishment but through my roots.")
ShowMessageFace("",0,0,2,20)
ShowMessage("\\n<Luka>")
ShowMessage("Roots? That's...!")
ShowMessageFace("f_dryad_fc1",1,0,2,21)
ShowMessage("\\n<Rachel>")
ShowMessage("I'll use this root to wring you, it's specifically designed to suck out semen.")
ShowMessageFace("",0,0,2,22)
ShowMessage("Even though I can't see it, I feel something like a tentacle moving, approaching my crotch...")
ShowMessageFace("",0,0,2,23)
ShowMessage("\\n<Luka>")
ShowMessage("S-stop... Aaah...!")
ShowMessageFace("f_dryad_fc1",1,0,2,24)
ShowMessage("\\n<Rachel>")
ShowMessage("Don't be afraid, it's going to be all right...\nYou're going to feel very good after I put your penis inside.")
ShowMessageFace("",0,0,2,25)
ShowMessage("\\n<Luka>")
ShowMessage("No, don't... Ah, aaaaah...!")
245(bytes(0x04,0x08,0x6f,0x3a,0x0d,0x52,0x50,0x47,0x3a,0x3a,0x42,0x47,0x53,0x08,0x3a,0x0a,0x40,0x6e,0x61,0x6d,0x65,0x49,0x22,0x17,0x6d,0x6f,0x6e,0x5f,0x68,0x73,0x65,0x61,0x6e,0x31,0x34,0x5f,0x6b,0x79,0x75,0x69,0x6e,0x31,0x06,0x3a,0x06,0x45,0x54,0x3a,0x0c,0x40,0x76,0x6f,0x6c,0x75,0x6d,0x65,0x69,0x55,0x3a,0x0b,0x40,0x70,0x69,0x74,0x63,0x68,0x69,0x69))
PictureDisplay(5,"ev_f_dryad_h07",0,0,0,0,100,100,255,0)
ShowMessageFace("",0,0,2,26)
ShowMessage("With a slurping sound, my penis is wrapped in a strange sensation. It feels as if I'm sinking inside a wriggling flesh hole.")
ShowMessageFace("",0,0,2,27)
ShowMessage("Rachel's root swallows my penis and encases it in a slimy sensation...")
ShowMessageFace("f_dryad_fc1",1,0,2,28)
ShowMessage("\\n<Rachel>")
ShowMessage("Ufufu... How does my semen squeezing root feel? It's far more pleasant than a woman's vagina...")
ShowMessageFace("",0,0,2,29)
ShowMessage("\\n<Luka>")
ShowMessage("Hau... Ah, aaaaah...")
PictureDisplay(5,"ev_f_dryad_h09",0,0,0,0,100,100,255,0)
ShowMessageFace("",0,0,2,30)
ShowMessage("The inside is slimy and full of sap, and the undulating membrane feels a lot softer than what I expected.")
ShowMessageFace("",0,0,2,31)
ShowMessage("Just being wrapped inside it feels so good that I could come. I focus on my waist, trying to hold back my ejaculation.")
ShowMessageFace("f_dryad_fc1",1,0,2,32)
ShowMessage("\\n<Rachel>")
ShowMessage("Ufufu... Are you trying to hold back from ejaculating? Regardless of how hard you try, I'm still going to squeeze it out of you by force...")
ShowMessageFace("",0,0,2,33)
ShowMessage("\\n<Luka>")
ShowMessage("Ah, aaaaah...!")
PictureDisplay(5,"ev_f_dryad_h10",0,0,0,0,100,100,255,0)
ShowMessageFace("",0,0,2,34)
ShowMessage("Slurping and squeezing, the undulation of her soft flesh becomes more intense, gradually increasing the power of its sucking.")
ShowMessageFace("",0,0,2,35)
ShowMessage("Her soft flesh gently clings to my penis, wriggling and squirming really fast, rubbing intensely against my glans...")
ShowMessageFace("",0,0,2,36)
ShowMessage("\\n<Luka>")
ShowMessage("Aaah... This feels, too good to endure...")
ShowMessageFace("f_dryad_fc1",1,0,2,37)
ShowMessage("\\n<Rachel>")
ShowMessage("Hoora, you can't endure it? Then give up, feed your nourishing semen to my root...")
ShowMessageFace("",0,0,2,38)
ShowMessage("\\n<Luka>")
ShowMessage("Hau... Urgh...")
ShowMessageFace("",0,0,2,39)
ShowMessage("Her soft flesh and membrane coats my male organ with sweet pleasure. As my penis is wrapped inside her semen squeezing hole, a wave of ecstasy washes over me.")
ShowMessageFace("",0,0,2,40)
ShowMessage("I give myself over to the slimy feeling of being sucked and all the power in my waist vanishes. A sweet numbness spreads through my nether region and the feeling of release shoots up my spine...")
ShowMessageFace("",0,0,2,41)
ShowMessage("\\n<Luka>")
ShowMessage("It feels so good... Ah, aaaaaaah...!!")
RunCommonEvent(104)
PictureDisplay(5,"ev_f_dryad_h11",0,0,0,0,100,100,255,0)
RunCommonEvent(105)
ShowMessageFace("",0,0,2,42)
ShowMessage("As my waist trembles, my semen finally shoots out and is absorbed by the root.")
ShowMessageFace("",0,0,2,43)
ShowMessage("On top of that, all throughout my ejaculation, the root keeps sucking on my penis making the ejaculation feel even better than it normally does...")
ShowMessageFace("",0,0,2,44)
ShowMessage("\\n<Luka>")
ShowMessage("Ah... Fuaaaa...")
ShowMessageFace("f_dryad_fc1",1,0,2,45)
ShowMessage("\\n<Rachel>")
ShowMessage("Ufufu, does it feel good? When I suck up nutrients it feels the best...")
ShowMessageFace("f_dryad_fc1",1,0,2,46)
ShowMessage("\\n<Rachel>")
ShowMessage("I'll suck out even more, until not even a single drop is left...")
ShowMessageFace("",0,0,2,47)
ShowMessage("\\n<Luka>")
ShowMessage("Hauu... Ah, aaaaah...!")
ShowMessageFace("",0,0,2,48)
ShowMessage("The root continues its crazy stimulation, the sucking becoming even more intense, making me want to be forcibly wrung.")
ShowMessageFace("",0,0,2,49)
ShowMessage("My waist shoots up and I give myself over to the feeling of release as my penis is encouraged to come...")
ShowMessageFace("",0,0,2,50)
ShowMessage("\\n<Luka>")
ShowMessage("Ah...! Aaaaaah...!!")
RunCommonEvent(104)
PictureDisplay(5,"ev_f_dryad_h12",0,0,0,0,100,100,255,0)
RunCommonEvent(105)
ShowMessageFace("",0,0,2,51)
ShowMessage("I come once more and weakness starts spreading through me as I continuously ejaculate.")
ShowMessageFace("",0,0,2,52)
ShowMessage("\\n<Luka>")
ShowMessage("Ah... Hauuu...")
ShowMessageFace("f_dryad_fc1",1,0,2,53)
ShowMessage("\\n<Rachel>")
ShowMessage("Ufufu, it feels good... Shoot everything out like this.")
ShowMessageFace("",0,0,2,54)
ShowMessage("\\n<Luka>")
ShowMessage("Aaaaaaah...!!")
RunCommonEvent(104)
PictureDisplay(5,"ev_f_dryad_h13",0,0,0,0,100,100,255,0)
RunCommonEvent(105)
ShowMessageFace("",0,0,2,55)
ShowMessage("My penis is mercilessly sucked, semen shooting out of it as I'm forced to ejaculate continuously.")
ShowMessageFace("f_dryad_fc1",1,0,2,56)
ShowMessage("\\n<Rachel>")
ShowMessage("More nutrients... Ufufufu...")
ShowMessageFace("",0,0,2,57)
ShowMessage("\\n<Luka>")
ShowMessage("Hya... Ah, aaaaaah...!!")
RunCommonEvent(104)
RunCommonEvent(105)
ShowMessageFace("f_dryad_fc1",1,0,2,58)
ShowMessage("\\n<Rachel>")
ShowMessage("You can still come... Shoot everything out until the last drop.")
ShowMessageFace("",0,0,2,59)
ShowMessage("\\n<Luka>")
ShowMessage("Ah... Ayeeeee...!!")
RunCommonEvent(104)
RunCommonEvent(105)
246(2)
ShowMessageFace("",0,0,2,60)
ShowMessage("Thus, I'm forced to come over and over until not a single drop came out of me anymore...")
ShowMessageFace("",0,0,2,61)
ShowMessage("\\n<Luka>")
ShowMessage("ah... aah...")
ShowMessageFace("",0,0,2,62)
ShowMessage("Completely wrung, my body convulses after every last drop is squeezed out of me.")
ShowMessageFace("f_dryad_fc1",1,0,2,63)
ShowMessage("\\n<Rachel>")
ShowMessage("...I've squeezed it all out. This is enough for today.")
ShowMessageFace("f_dryad_fc1",1,0,2,64)
ShowMessage("\\n<Rachel>")
ShowMessage("But I'm going to wring you again tomorrow... Please give me all your semen, every day from now on.")
ShowMessageFace("",0,0,2,65)
ShowMessage("\\n<Luka>")
ShowMessage("Th-that's...")
ShowMessageFace("",0,0,2,66)
ShowMessage("Totally exhausted, I can barely keep my eyes open and in the end, filled with despair, I faint...")
221()
PictureClear(5)
PictureClear(6)
ShowMessageFace("",0,0,2,67)
ShowMessage("......")
RunCommonEvent(3998)
0()
