﻿// EVENT 4646
Name "Lizard Thief"

If(0,25,1)
 221()
 PictureClear(5)
 PictureClear(6)
 ShowMessageFace("",0,0,2,0)
 ShowMessage("......")
 242(2)
 Wait(120)
 241(bytes(0x04,0x08,0x6f,0x3a,0x0d,0x52,0x50,0x47,0x3a,0x3a,0x42,0x47,0x4d,0x08,0x3a,0x0a,0x40,0x6e,0x61,0x6d,0x65,0x49,0x22,0x0c,0x63,0x61,0x73,0x74,0x6c,0x65,0x36,0x06,0x3a,0x06,0x45,0x54,0x3a,0x0c,0x40,0x76,0x6f,0x6c,0x75,0x6d,0x65,0x69,0x69,0x3a,0x0b,0x40,0x70,0x69,0x74,0x63,0x68,0x69,0x69))
 EndEventProcessing()
 0()
EndIf()
PictureDisplay(5,"80_lizardthief_st01",0,0,0,0,100,100,255,0)
ShowMessageFace("lizardthief_fc1",0,0,2,1)
ShowMessage("\\n<Liru>What? You want me to wring out your semen, you say?")
ShowMessageFace("",0,0,2,2)
ShowMessage("\\n<Luka>P-please...")
PictureDisplay(5,"80_lizardthief_st02",0,0,0,0,100,100,255,0)
ShowMessageFace("lizardthief_fc1",1,0,2,3)
ShowMessage("\\n<Liru>Haha, what a lewd brat you are.\nOkay then, I will do as you like...")
ShowMessageFace("",0,0,2,4)
ShowMessage("Liru looks down on me, grinning.\nShe bends forward and brings her face between my legs...")
241(bytes(0x04,0x08,0x6f,0x3a,0x0d,0x52,0x50,0x47,0x3a,0x3a,0x42,0x47,0x4d,0x08,0x3a,0x0a,0x40,0x6e,0x61,0x6d,0x65,0x49,0x22,0x09,0x65,0x72,0x6f,0x31,0x06,0x3a,0x06,0x45,0x54,0x3a,0x0c,0x40,0x76,0x6f,0x6c,0x75,0x6d,0x65,0x69,0x69,0x3a,0x0b,0x40,0x70,0x69,0x74,0x63,0x68,0x69,0x69))
245(bytes(0x04,0x08,0x6f,0x3a,0x0d,0x52,0x50,0x47,0x3a,0x3a,0x42,0x47,0x53,0x08,0x3a,0x0a,0x40,0x6e,0x61,0x6d,0x65,0x49,0x22,0x10,0x6d,0x6f,0x6e,0x5f,0x68,0x76,0x6f,0x69,0x63,0x65,0x32,0x06,0x3a,0x06,0x45,0x54,0x3a,0x0c,0x40,0x76,0x6f,0x6c,0x75,0x6d,0x65,0x69,0x55,0x3a,0x0b,0x40,0x70,0x69,0x74,0x63,0x68,0x69,0x69))
PictureDisplay(5,"ev_lizardthief_ha01",0,0,0,0,100,100,0,0)
PictureMove(5,null,0,0,0,0,100,100,255,0,30,true)
ShowMessageFace("lizardthief_fc1",1,0,2,5)
ShowMessage("\\n<Liru>*Lick*...*Sluuurp*...")
ShowMessageFace("",0,0,2,6)
ShowMessage("Her tongue reaches out and wraps around my penis!\nA sticky sensation covers my penis from the tip to the base...")
ShowMessageFace("",0,0,2,7)
ShowMessage("\\n<Luka>Ah...! Haauu... Aaaah...!")
ShowMessageFace("lizardthief_fc1",1,0,2,8)
ShowMessage("\\n<Liru>At this rate, I'll make you come with my tongue.\nThat's the way you wanted to enjoy yourself, right...?")
ShowMessageFace("",0,0,2,9)
ShowMessage("Her long tongue wrapped around my penis slowly vibrates.\nIt's just like a snake coiling around my penis.")
ShowMessageFace("",0,0,2,10)
ShowMessage("I thought she was going to slowly tighten her grip, but she instead lightly rubs me up and down. Then, the pointy end of her tongue crawls all over my tip...")
ShowMessageFace("",0,0,2,11)
ShowMessage("\\n<Luka>Ah, ugh...!")
ShowMessageFace("",0,0,2,12)
ShowMessage("She slowly traces her tongue around the glans, covering it with saliva. My body trembles when she attacks my weakest point.")
ShowMessageFace("lizardthief_fc1",1,0,2,13)
ShowMessage("\\n<Liru>Ahaha... You like this, being covered with saliva? Then I'll drool all over it...")
ShowMessageFace("lizardthief_fc1",1,0,2,14)
ShowMessage("\\n<Liru>Nnngg... *Suck*\n*Lick* *Suck*")
PictureDisplay(5,"ev_lizardthief_ha02",0,0,0,0,100,100,255,0)
ShowMessageFace("",0,0,2,15)
ShowMessage("A lot of drool overflows from Liru's tongue.\nShe drowns my penis with a warm, sticky pleasure.")
ShowMessageFace("",0,0,2,16)
ShowMessage("\\n<Luka>Ngh... Aaaah...!")
ShowMessageFace("lizardthief_fc1",1,0,2,17)
ShowMessage("\\n<Liru>*Sluuurp*\nFeels great, right...? *Lick*")
ShowMessageFace("",0,0,2,18)
ShowMessage("Her sticky saliva completely covers my penis.\nIt feels like she's tasting it.")
ShowMessageFace("",0,0,2,19)
ShowMessage("And the more her tongue plays with me...\nThe bigger my excitement and this sweet feeling grow.")
ShowMessageFace("",0,0,2,20)
ShowMessage("\\n<Luka>Unnngh... That feels good...")
ShowMessageFace("lizardthief_fc1",1,0,2,21)
ShowMessage("\\n<Liru>Come whenever you want if you can't take it anymore... *Lick* *Slurp*")
ShowMessageFace("",0,0,2,22)
ShowMessage("\\n<Luka>Nnngh...")
ShowMessageFace("",0,0,2,23)
ShowMessage("The tip of her sweet tongue crawls all over the tip of my penis. She carefully licks the back of my penis and the urethra, savoring its flavor.")
ShowMessageFace("",0,0,2,24)
ShowMessage("Her tongue coils around the neck and gently tightens...\nMy male instincts are stimulated as she plays with my glans.")
ShowMessageFace("",0,0,2,25)
ShowMessage("\\n<Luka>Ah...I'm coming...")
ShowMessageFace("lizardthief_fc1",1,0,2,26)
ShowMessage("\\n<Liru>Ahaha... Already? That was quick! Now, to one-shot you...*Sluuurp*")
ShowMessageFace("",0,0,2,27)
ShowMessage("\\n<Luka>Ah, aaaaaah!")
ShowMessageFace("",0,0,2,28)
ShowMessage("Her tongue plays even more with the neck of my penis without any rest. No man could withstand this finishing blow.")
ShowMessageFace("",0,0,2,29)
ShowMessage("My mind goes blank immediately when she assaults me.\nAt the same time, my penis throbs in delight...")
RunCommonEvent(104)
PictureDisplay(5,"ev_lizardthief_ha03",0,0,0,0,100,100,255,0)
RunCommonEvent(105)
ShowMessageFace("",0,0,2,30)
ShowMessage("\\n<Luka>Hnnaaa...")
ShowMessageFace("",0,0,2,31)
ShowMessage("I explode on her tongue that's still clinging to me.\nJust like fireworks, to show my submission...")
PictureDisplay(5,"ev_lizardthief_ha04",0,0,0,0,100,100,255,0)
ShowMessageFace("lizardthief_fc1",1,0,2,32)
ShowMessage("\\n<Liru>Hahaha, you let out a lot!\nDid my technique feel that good?")
ShowMessageFace("lizardthief_fc1",1,0,2,33)
ShowMessage("\\n<Liru>Now, time to feast...")
ShowMessageFace("",0,0,2,34)
ShowMessage("My penis is completely white, just like a cloud.\nLiru narrows her eyes in satisfaction...")
PictureDisplay(5,"ev_lizardthief_ha08",0,0,0,0,100,100,255,0)
ShowMessageFace("",0,0,2,35)
ShowMessage("Then she puts it in her mouth!\nA sticky, warm feeling envelops me...")
ShowMessageFace("",0,0,2,36)
ShowMessage("\\n<Luka>Ah, aaaaaah!!")
ShowMessageFace("lizardthief_fc1",1,0,2,37)
ShowMessage("\\n<Liru>*Lick* *Suck*")
ShowMessageFace("",0,0,2,38)
ShowMessage("Her tongue licks me inside her mouth.\nIt's as if my penis was stuck inside a wall of flesh.")
ShowMessageFace("",0,0,2,39)
ShowMessage("She completely cleans it with her furious movements.\nIntense pleasure spreads from my waist to my whole body!")
ShowMessageFace("",0,0,2,40)
ShowMessage("\\n<Luka>Ah, aaaaaah!!")
ShowMessageFace("lizardthief_fc1",1,0,2,41)
ShowMessage("\\n<Liru>Your semen was delicious.\nLet me taste it once more...")
ShowMessageFace("lizardthief_fc1",1,0,2,42)
ShowMessage("\\n<Liru>I'll drink it directly this time...\n*Lick* *Lick* *Suck*")
ShowMessageFace("",0,0,2,43)
ShowMessage("\\n<Luka>Ah, hnnngh...!!")
ShowMessageFace("",0,0,2,44)
ShowMessage("She slowly sucks me inside her mouth.\nHer tongue vibrates and sweetly pleasures my whole member.")
ShowMessageFace("",0,0,2,45)
ShowMessage("Furthermore, she sucks me deeper into her mouth...\nI feel threads of saliva sticking to the tip of my penis.")
ShowMessageFace("lizardthief_fc1",1,0,2,46)
ShowMessage("\\n<Liru>Fufu... How's my mouth technique?\nYou can't endure it either anyway...*Lick* *Suck*")
ShowMessageFace("",0,0,2,47)
ShowMessage("\\n<Luka>Ah, unnngh... aaah...")
ShowMessageFace("",0,0,2,48)
ShowMessage("Her mouth sucks like a vacuum meant to squeeze men dry.\nI can feel even more drool on my penis.")
ShowMessageFace("",0,0,2,49)
ShowMessage("Also, her waving tongue tightens around my length...\nIt's as if my brain itself was filled with this pleasure only.")
ShowMessageFace("",0,0,2,50)
ShowMessage("\\n<Luka>Hnnaaa...")
ShowMessageFace("",0,0,2,51)
ShowMessage("Before I know it, I completely entrust myself to her mouth.\nHer soft, swelling tongue makes me feel happy I was born a man.")
ShowMessageFace("lizardthief_fc1",1,0,2,52)
ShowMessage("\\n<Liru>Moaning already?\nThen take this, come for me...!")
ShowMessageFace("lizardthief_fc1",1,0,2,53)
ShowMessage("\\n<Liru>*Suck* *Suuuuck*\n*Suuuuuuck*")
ShowMessageFace("",0,0,2,54)
ShowMessage("\\n<Luka>Ah, aaaah...!!")
ShowMessageFace("",0,0,2,55)
ShowMessage("Her tongue vibrates even more as she sucks me with more strength. My head goes pure white from this pleasure, it's impossible for me to resist this rising orgasm...")
RunCommonEvent(104)
PictureDisplay(5,"ev_lizardthief_ha09",0,0,0,0,100,100,255,0)
RunCommonEvent(105)
ShowMessageFace("",0,0,2,56)
ShowMessage("\\n<Luka>Nnngh...")
ShowMessageFace("",0,0,2,57)
ShowMessage("Semen gushes out inside of Liru's mouth.\nThe only thing I can feel is this melting pleasure as power leaves my body...")
ShowMessageFace("lizardthief_fc1",1,0,2,58)
ShowMessage("\\n<Liru>Nnn... *Lick*\nYup, drinking directly from you is the best... *Lick* *Suck*")
ShowMessageFace("",0,0,2,59)
ShowMessage("\\n<Luka>Hnnaaa...")
ShowMessageFace("",0,0,2,60)
ShowMessage("She strokes my penis with her sticky tongue to get the rest of the semen out. Her mouth makes me taste the finest pleasure there is.")
ShowMessageFace("",0,0,2,61)
ShowMessage("I'm already a slave to this pleasure.\nMy body trembles as she drinks everything down to the last drop...")
246(2)
ShowMessageFace("lizardthief_fc1",1,0,2,62)
ShowMessage("\\n<Liru>Fuaaaah, thanks for the meal...\nCome again, I'll make you feel good anytime.")
ShowMessageFace("",0,0,2,63)
ShowMessage("\\n<Luka>......")
ShowMessageFace("",0,0,2,64)
ShowMessage("She doesn't need to tell me twice, I would have come again anyway. I'm already her tongue's prisoner, after all...")
221()
PictureClear(5)
ShowMessageFace("",0,0,2,65)
ShowMessage("......")
242(2)
Wait(120)
241(bytes(0x04,0x08,0x6f,0x3a,0x0d,0x52,0x50,0x47,0x3a,0x3a,0x42,0x47,0x4d,0x08,0x3a,0x0a,0x40,0x6e,0x61,0x6d,0x65,0x49,0x22,0x0c,0x63,0x61,0x73,0x74,0x6c,0x65,0x36,0x06,0x3a,0x06,0x45,0x54,0x3a,0x0c,0x40,0x76,0x6f,0x6c,0x75,0x6d,0x65,0x69,0x69,0x3a,0x0b,0x40,0x70,0x69,0x74,0x63,0x68,0x69,0x69))
0()
