// EVENT 7075
Name "Kate: Ejaculation 1"

ShowMessageFace("ruka_fc1",0,0,2,1)
ShowMessage("\\n<Luka>Ah...I'm coming...")
ShowMessageFace("mob_maid1_fc1",3,0,2,2)
ShowMessage("\\n<Kate>You can't endure it?\nThen hurry up and come...")
PictureDisplay(10,"sys_white",0,0,0,0,100,100,0,0)
PictureMove(10,null,0,0,0,0,100,100,255,0,20,true)
PictureDisplay(6,"ev_mob_maid1_ha4",0,0,0,0,100,100,255,0)
250(bytes(0x04,0x08,0x6f,0x3a,0x0c,0x52,0x50,0x47,0x3a,0x3a,0x53,0x45,0x08,0x3a,0x0a,0x40,0x6e,0x61,0x6d,0x65,0x49,0x22,0x0f,0x6d,0x6f,0x6e,0x5f,0x73,0x79,0x61,0x73,0x65,0x69,0x06,0x3a,0x06,0x45,0x54,0x3a,0x0b,0x40,0x70,0x69,0x74,0x63,0x68,0x69,0x69,0x3a,0x0c,0x40,0x76,0x6f,0x6c,0x75,0x6d,0x65,0x69,0x69))
PictureMove(10,null,0,0,0,0,100,100,0,0,25,true)
PictureMove(10,null,0,0,0,0,100,100,255,0,20,true)
PictureMove(10,null,0,0,0,0,100,100,0,0,25,true)
PictureMove(10,null,0,0,0,0,100,100,255,0,6,true)
PictureMove(10,null,0,0,0,0,100,100,0,0,60,true)
PictureDisplay(6,"ev_mob_maid1_ha5",0,0,0,0,100,100,255,0)
ShowMessageFace("",0,0,2,3)
ShowMessage("I come in Kate's hand in no time at all.")
ShowMessage("Her hand gets dirtied by my semen...")
ShowMessageFace("mob_maid1_fc1",3,0,2,4)
ShowMessage("\\n<Kate>Look at it all, disgusting...\nThat win was nothing for me to be proud of.")
RunCommonEvent(7073)
EndEventProcessing()
0()
