// EVENT 0160
Name "コロシアム各種戦闘"

ChangeVariable(11,11,0,2,1,10)
If(1,702,0,1,0)
 If(1,11,0,1,0)
  Battle(0,250,false,false)
  EndEventProcessing()
  0()
 EndIf()
 If(1,11,0,2,0)
  Battle(0,253,false,false)
  EndEventProcessing()
  0()
 EndIf()
 If(1,11,0,3,0)
  Battle(0,257,false,false)
  EndEventProcessing()
  0()
 EndIf()
 If(1,11,0,4,0)
  Battle(0,259,false,false)
  EndEventProcessing()
  0()
 EndIf()
 If(1,11,0,5,0)
  Battle(0,264,false,false)
  EndEventProcessing()
  0()
 EndIf()
 If(1,11,0,6,0)
  Battle(0,266,false,false)
  EndEventProcessing()
  0()
 EndIf()
 If(1,11,0,7,0)
  Battle(0,268,false,false)
  EndEventProcessing()
  0()
 EndIf()
 If(1,11,0,8,0)
  Battle(0,282,false,false)
  EndEventProcessing()
  0()
 EndIf()
 If(1,11,0,9,0)
  Battle(0,278,false,false)
  EndEventProcessing()
  0()
 EndIf()
 If(1,11,0,10,0)
  Battle(0,288,false,false)
  EndEventProcessing()
  0()
 EndIf()
 0()
EndIf()
If(1,702,0,2,0)
 If(1,11,0,1,0)
  Battle(0,634,false,false)
  EndEventProcessing()
  0()
 EndIf()
 If(1,11,0,2,0)
  Battle(0,636,false,false)
  EndEventProcessing()
  0()
 EndIf()
 If(1,11,0,3,0)
  Battle(0,640,false,false)
  EndEventProcessing()
  0()
 EndIf()
 If(1,11,0,4,0)
  Battle(0,644,false,false)
  EndEventProcessing()
  0()
 EndIf()
 If(1,11,0,5,0)
  Battle(0,660,false,false)
  EndEventProcessing()
  0()
 EndIf()
 If(1,11,0,6,0)
  Battle(0,662,false,false)
  EndEventProcessing()
  0()
 EndIf()
 If(1,11,0,7,0)
  Battle(0,667,false,false)
  EndEventProcessing()
  0()
 EndIf()
 If(1,11,0,8,0)
  Battle(0,645,false,false)
  EndEventProcessing()
  0()
 EndIf()
 If(1,11,0,9,0)
  Battle(0,616,false,false)
  EndEventProcessing()
  0()
 EndIf()
 If(1,11,0,10,0)
  Battle(0,613,false,false)
  EndEventProcessing()
  0()
 EndIf()
 0()
EndIf()
If(1,702,0,3,0)
 If(1,11,0,1,0)
  Battle(0,778,false,false)
  EndEventProcessing()
  0()
 EndIf()
 If(1,11,0,2,0)
  Battle(0,780,false,false)
  EndEventProcessing()
  0()
 EndIf()
 If(1,11,0,3,0)
  Battle(0,788,false,false)
  EndEventProcessing()
  0()
 EndIf()
 If(1,11,0,4,0)
  Battle(0,792,false,false)
  EndEventProcessing()
  0()
 EndIf()
 If(1,11,0,5,0)
  Battle(0,795,false,false)
  EndEventProcessing()
  0()
 EndIf()
 If(1,11,0,6,0)
  Battle(0,797,false,false)
  EndEventProcessing()
  0()
 EndIf()
 If(1,11,0,7,0)
  Battle(0,804,false,false)
  EndEventProcessing()
  0()
 EndIf()
 If(1,11,0,8,0)
  Battle(0,805,false,false)
  EndEventProcessing()
  0()
 EndIf()
 If(1,11,0,9,0)
  Battle(0,808,false,false)
  EndEventProcessing()
  0()
 EndIf()
 If(1,11,0,10,0)
  Battle(0,809,false,false)
  EndEventProcessing()
  0()
 EndIf()
 0()
EndIf()
If(1,702,0,4,0)
 If(1,11,0,1,0)
  Battle(0,815,false,false)
  EndEventProcessing()
  0()
 EndIf()
 If(1,11,0,2,0)
  Battle(0,816,false,false)
  EndEventProcessing()
  0()
 EndIf()
 If(1,11,0,3,0)
  Battle(0,819,false,false)
  EndEventProcessing()
  0()
 EndIf()
 If(1,11,0,4,0)
  Battle(0,820,false,false)
  EndEventProcessing()
  0()
 EndIf()
 If(1,11,0,5,0)
  Battle(0,823,false,false)
  EndEventProcessing()
  0()
 EndIf()
 If(1,11,0,6,0)
  Battle(0,824,false,false)
  EndEventProcessing()
  0()
 EndIf()
 If(1,11,0,7,0)
  Battle(0,825,false,false)
  EndEventProcessing()
  0()
 EndIf()
 If(1,11,0,8,0)
  Battle(0,828,false,false)
  EndEventProcessing()
  0()
 EndIf()
 If(1,11,0,9,0)
  Battle(0,832,false,false)
  EndEventProcessing()
  0()
 EndIf()
 If(1,11,0,10,0)
  Battle(0,829,false,false)
  EndEventProcessing()
  0()
 EndIf()
 0()
EndIf()
If(1,702,0,5,0)
 If(1,11,0,1,0)
  Battle(0,858,false,false)
  EndEventProcessing()
  0()
 EndIf()
 If(1,11,0,2,0)
  Battle(0,859,false,false)
  EndEventProcessing()
  0()
 EndIf()
 If(1,11,0,3,0)
  Battle(0,860,false,false)
  EndEventProcessing()
  0()
 EndIf()
 If(1,11,0,4,0)
  Battle(0,861,false,false)
  EndEventProcessing()
  0()
 EndIf()
 If(1,11,0,5,0)
  Battle(0,862,false,false)
  EndEventProcessing()
  0()
 EndIf()
 If(1,11,0,6,0)
  Battle(0,863,false,false)
  EndEventProcessing()
  0()
 EndIf()
 If(1,11,0,7,0)
  Battle(0,864,false,false)
  EndEventProcessing()
  0()
 EndIf()
 If(1,11,0,8,0)
  Battle(0,865,false,false)
  EndEventProcessing()
  0()
 EndIf()
 If(1,11,0,9,0)
  Battle(0,866,false,false)
  EndEventProcessing()
  0()
 EndIf()
 If(1,11,0,10,0)
  Battle(0,867,false,false)
  EndEventProcessing()
  0()
 EndIf()
 0()
EndIf()
If(1,702,0,6,0)
 If(1,11,0,1,0)
  Battle(0,801,false,false)
  EndEventProcessing()
  0()
 EndIf()
 If(1,11,0,2,0)
  Battle(0,812,false,false)
  EndEventProcessing()
  0()
 EndIf()
 If(1,11,0,3,0)
  Battle(0,813,false,false)
  EndEventProcessing()
  0()
 EndIf()
 If(1,11,0,4,0)
  Battle(0,751,false,false)
  EndEventProcessing()
  0()
 EndIf()
 If(1,11,0,5,0)
  Battle(0,748,false,false)
  EndEventProcessing()
  0()
 EndIf()
 If(1,11,0,6,0)
  Battle(0,742,false,false)
  EndEventProcessing()
  0()
 EndIf()
 If(1,11,0,7,0)
  Battle(0,741,false,false)
  EndEventProcessing()
  0()
 EndIf()
 If(1,11,0,8,0)
  Battle(0,735,false,false)
  EndEventProcessing()
  0()
 EndIf()
 If(1,11,0,9,0)
  Battle(0,705,false,false)
  EndEventProcessing()
  0()
 EndIf()
 If(1,11,0,10,0)
  Battle(0,678,false,false)
  EndEventProcessing()
  0()
 EndIf()
 0()
EndIf()
If(1,702,0,7,0)
 If(1,11,0,1,0)
  Battle(0,854,false,false)
  EndEventProcessing()
  0()
 EndIf()
 If(1,11,0,2,0)
  Battle(0,814,false,false)
  EndEventProcessing()
  0()
 EndIf()
 If(1,11,0,3,0)
  Battle(0,807,false,false)
  EndEventProcessing()
  0()
 EndIf()
 If(1,11,0,4,0)
  Battle(0,802,false,false)
  EndEventProcessing()
  0()
 EndIf()
 If(1,11,0,5,0)
  Battle(0,794,false,false)
  EndEventProcessing()
  0()
 EndIf()
 If(1,11,0,6,0)
  Battle(0,793,false,false)
  EndEventProcessing()
  0()
 EndIf()
 If(1,11,0,7,0)
  Battle(0,785,false,false)
  EndEventProcessing()
  0()
 EndIf()
 If(1,11,0,8,0)
  Battle(0,784,false,false)
  EndEventProcessing()
  0()
 EndIf()
 If(1,11,0,9,0)
  Battle(0,769,false,false)
  EndEventProcessing()
  0()
 EndIf()
 If(1,11,0,10,0)
  Battle(0,836,false,false)
  EndEventProcessing()
  0()
 EndIf()
 0()
EndIf()
0()
