﻿// EVENT 0129
Name "Promestein Race Change Events"

241(bytes(0x04,0x08,0x6f,0x3a,0x0d,0x52,0x50,0x47,0x3a,0x3a,0x42,0x47,0x4d,0x08,0x3a,0x0a,0x40,0x6e,0x61,0x6d,0x65,0x49,0x22,0x0a,0x73,0x74,0x65,0x69,0x6e,0x06,0x3a,0x06,0x45,0x54,0x3a,0x0c,0x40,0x76,0x6f,0x6c,0x75,0x6d,0x65,0x69,0x69,0x3a,0x0b,0x40,0x70,0x69,0x74,0x63,0x68,0x69,0x69))
PictureDisplay(5,"80_stein_st32",0,0,0,0,100,100,0,0)
PictureMove(5,null,0,0,0,0,100,100,255,0,30,true)
If(0,1920,1)
 ChangeSwitch(1920,1920,0)
 ShowMessageFace("stein_fc2",1,0,2,1)
 ShowMessage("\\n<Promestein>I've further refined my Carrot Extract!")
 ShowMessageFace("stein_fc2",1,0,2,2)
 ShowMessage("\\n<Promestein>If you've reached level 10 in the Slime race, you can transform into a Beast!")
 ShowMessageFace("bunnyslime_fc1",0,0,2,3)
 ShowMessage("\\n<Bunni>Yaaay♪\nI hope I can make some new rabbit friends♪")
 RunCommonEvent(130)
 0()
EndIf()
If(0,1921,1)
 If(12,"actor_class_level_over?(167, 214, 1)")
  If(0,2141,0)
   If(0,2141,0)
    If(0,2141,0)
     If(0,2141,0)
      ChangeSwitch(1921,1921,0)
      ShowMessageFace("stein_fc2",1,0,2,4)
      ShowMessage("\\n<Promestein>By the way, lately I've been working together with Lucia on a new project. Could we perhaps make it possible for others to become fairies, also?")
      ShowMessageFace("lusia_fc1",0,0,2,5)
      ShowMessage("\\n<Lucia>Using my body, I managed to absorb the power of the elements and become a fairy, however... We want to make the same possible for other races, as well.")
      ShowMessageFace("stein_fc2",1,0,2,6)
      ShowMessage("\\n<Promestein>We've discovered that mermaids in particular have a high affinity for the elements. If we could only find one who is deeply in touch with the powers of nature...")
      ShowMessageFace("lusia_fc1",0,0,2,7)
      ShowMessage("\\n<Lucia>Indeed, perhaps one within whom the elements have already taken root... We'd be able to make rapid progress with our research on fairy transformation.")
      ShowMessageFace("namazu_fc1",2,0,2,8)
      ShowMessage("\\n<Gigi>Well then, I seem to remember I have something urgent to take care of, so...")
      ShowMessageFace("stein_fc2",2,0,2,9)
      ShowMessage("\\n<Promestein>Ah! She's getting away!\nGrab her, Lucia!")
      ShowMessageFace("lusia_fc1",1,0,2,10)
      ShowMessage("\\n<Lucia>You won't escape from my tentacles!")
      241(bytes(0x04,0x08,0x6f,0x3a,0x0d,0x52,0x50,0x47,0x3a,0x3a,0x42,0x47,0x4d,0x08,0x3a,0x0a,0x40,0x6e,0x61,0x6d,0x65,0x49,0x22,0x10,0x73,0x63,0x65,0x6e,0x65,0x5f,0x63,0x6f,0x6d,0x69,0x32,0x06,0x3a,0x06,0x45,0x54,0x3a,0x0c,0x40,0x76,0x6f,0x6c,0x75,0x6d,0x65,0x69,0x69,0x3a,0x0b,0x40,0x70,0x69,0x74,0x63,0x68,0x69,0x69))
      250(bytes(0x04,0x08,0x6f,0x3a,0x0c,0x52,0x50,0x47,0x3a,0x3a,0x53,0x45,0x08,0x3a,0x0a,0x40,0x6e,0x61,0x6d,0x65,0x49,0x22,0x16,0x6d,0x6f,0x6e,0x5f,0x65,0x72,0x6f,0x5f,0x6d,0x61,0x6b,0x69,0x74,0x75,0x6b,0x69,0x33,0x06,0x3a,0x06,0x45,0x54,0x3a,0x0b,0x40,0x70,0x69,0x74,0x63,0x68,0x69,0x69,0x3a,0x0c,0x40,0x76,0x6f,0x6c,0x75,0x6d,0x65,0x69,0x69))
      ShowMessageFace("namazu_fc1",2,0,2,11)
      ShowMessage("\\n<Gigi>Cease this! Release me this instant!")
      ShowMessageFace("stein_fc2",1,0,2,12)
      ShowMessage("\\n<Promestein>Become a sacrifice for the sake of science!\nHere we go, hold out your arm!")
      ShowMessageFace("lusia_fc1",1,0,2,13)
      ShowMessage("\\n<Lucia>Science demands more living sacrifices than even religion! Accept your fate as science's guinea pig!")
      ShowMessageFace("namazu_fc1",2,0,2,14)
      ShowMessage("\\n<Gigi>CEASE--")
      221()
      ShowMessageFace("",0,0,2,15)
      ShowMessage("Promestein and Lucia injected Gigi with a strange liquid!")
      222()
      ShowMessageFace("stein_fc2",0,0,2,16)
      ShowMessage("\\n<Promestein>.........")
      ShowMessageFace("lusia_fc1",0,0,2,17)
      ShowMessage("\\n<Lucia>.........")
      ShowMessageFace("namazu_fc1",0,0,2,18)
      ShowMessage("\\n<Gigi>.........")
      ShowMessageFace("namazu_fc1",0,0,2,19)
      ShowMessage("\\n<Gigi>...Chi Pa Pa!")
      ShowMessageFace("stein_fc2",1,0,2,20)
      ShowMessage("\\n<Promestein>Success!")
      ShowMessageFace("lusia_fc1",0,0,2,21)
      ShowMessage("\\n<Lucia>We've done it!")
      250(bytes(0x04,0x08,0x6f,0x3a,0x0c,0x52,0x50,0x47,0x3a,0x3a,0x53,0x45,0x08,0x3a,0x0a,0x40,0x6e,0x61,0x6d,0x65,0x49,0x22,0x11,0x6d,0x6f,0x6e,0x5f,0x66,0x61,0x6e,0x66,0x61,0x6c,0x65,0x32,0x06,0x3a,0x06,0x45,0x54,0x3a,0x0b,0x40,0x70,0x69,0x74,0x63,0x68,0x69,0x69,0x3a,0x0c,0x40,0x76,0x6f,0x6c,0x75,0x6d,0x65,0x69,0x69))
      355("set_class_level(99, 214, 10, false, false)")
      655("set_class_level(99, 215, 10, false, true)")
      655("set_class_level(99, 217, 10, false, false)")
      ShowMessageFace("",0,0,2,22)
      ShowMessage("Gigi became a fairy!")
      ShowMessageFace("stein_fc2",1,0,2,23)
      ShowMessage("\\n<Promestein>With this, we now have the technology to transform any mermaid into a fairy! As would be expected, this requires 10 levels in the mermaid race.")
      ShowMessageFace("bunnyslime_fc1",0,0,2,24)
      ShowMessage("\\n<Bunni>Hey, what are you gonna call this extract?")
      ShowMessageFace("stein_fc2",0,0,2,25)
      ShowMessage("\\n<Promestein>Err... Catfish... Extract?") 
      ShowMessageFace("sonia_fc4",0,0,2,26)
      ShowMessage("\\n<Sonya>Getting harder and harder to come up with names for these, isn't it?")
      ShowMessageFace("stein_fc2",1,0,2,27)
      ShowMessage("\\n<Promestein>Now then, let us continue to further our research!")
      ShowMessageFace("lusia_fc1",0,0,2,28)
      ShowMessage("\\n<Lucia>I'll help in any way I can, of course.\nThe search for truth is without end, after all.")
      ShowMessageFace("namazu_fc1",0,0,2,29)
      ShowMessage("\\n<Gigi>Chi Pa Pa! Chi Pa Pa!")
      ShowMessageFace("sonia_fc4",0,0,2,30)
      ShowMessage("\\n<Sonya>........")
      PictureClear(5)
      241(bytes(0x04,0x08,0x6f,0x3a,0x0d,0x52,0x50,0x47,0x3a,0x3a,0x42,0x47,0x4d,0x08,0x3a,0x0a,0x40,0x6e,0x61,0x6d,0x65,0x49,0x22,0x0c,0x63,0x61,0x73,0x74,0x6c,0x65,0x36,0x06,0x3a,0x06,0x45,0x54,0x3a,0x0c,0x40,0x76,0x6f,0x6c,0x75,0x6d,0x65,0x69,0x69,0x3a,0x0b,0x40,0x70,0x69,0x74,0x63,0x68,0x69,0x69))
      EndEventProcessing()
      0()
     EndIf()
     0()
    EndIf()
    0()
   EndIf()
   0()
  EndIf()
  0()
 EndIf()
 0()
EndIf()
If(1,1124,0,1,0)
 ShowMessageFace("stein_fc2",1,0,2,31)
 ShowMessage("\\n<Promestein>Fufufufu...\nCurious about another race, are we?")
 ShowMessageFace("saki_fc1",0,0,2,32)
 ShowMessage("\\n<Saki>Saki wants to learn how to dance like a sea dweller☆")
 ShowMessageFace("wakame_fc1",1,0,2,33)
 ShowMessage("\\n<Wakame>Me too, I want to dance like the sea...")
 ShowMessageFace("kaniloid_fc1",0,0,2,34)
 ShowMessage("\\n<Jillian>I have little interest in dancing. However... As a crab shaped android, I wish to become closer to a true crustacean.")
 ShowMessageFace("stein_fc2",1,0,2,35)
 ShowMessage("\\n<Promestein>Mufufufu, so we have three subjects who wish to become sea dwellers... Very well, prepare for your shots-")
 ShowMessageFace("poseidones_fc1",0,0,2,36)
 ShowMessage("\\n<Poseidoness>Stop right there! You mustn't rush such a thing!")
 ShowMessageFace("kraken_fc1",0,0,2,37)
 ShowMessage("\\n<Kraken>If you desire to learn the dances of the sea, there's another way.")
 ShowMessageFace("saki_fc1",0,0,2,38)
 ShowMessage("\\n<Saki>Tell me, tell me!☆")
 ShowMessageFace("wakame_fc1",1,0,2,39)
 ShowMessage("\\n<Wakame>...tell me!☆")
 ShowMessageFace("poseidones_fc1",0,0,2,40)
 ShowMessage("\\n<Poseidoness>The Trial of the Dragon Palace, passed down through generations. Clear it, and you'll be able to learn the Dragon Palace Dance.")
 ShowMessageFace("kraken_fc1",0,0,2,41)
 ShowMessage("\\n<Kraken>We shall begin preparations.\nNow, let us head for Natalia Coast.")
 ShowMessageFace("saki_fc1",0,0,2,42)
 ShowMessage("\\n<Saki>Natalia Coast... west from Port Natalia, right?\nOK, let's gooooo☆!")
 ShowMessageFace("wakame_fc1",1,0,2,43)
 ShowMessage("\\n<Wakame>Let's gooooo☆!")
 ShowMessageFace("kaniloid_fc1",2,0,2,44)
 ShowMessage("\\n<Jillian>Really not interested in dancing, personally...")
 ShowMessageFace("stein_fc2",2,0,2,45)
 ShowMessage("\\n<Promestein>Damn it, there goes my chance...")
 ShowMessageFace("ruka_fc1",0,0,2,46)
 ShowMessage("\\n<Luka>All right, let's head for Natalia Coast.\nI wonder...what kind of trial could it be...?")
 ChangeVariable(1124,1124,0,0,2)
 PictureClear(5)
 241(bytes(0x04,0x08,0x6f,0x3a,0x0d,0x52,0x50,0x47,0x3a,0x3a,0x42,0x47,0x4d,0x08,0x3a,0x0a,0x40,0x6e,0x61,0x6d,0x65,0x49,0x22,0x0c,0x63,0x61,0x73,0x74,0x6c,0x65,0x36,0x06,0x3a,0x06,0x45,0x54,0x3a,0x0c,0x40,0x76,0x6f,0x6c,0x75,0x6d,0x65,0x69,0x69,0x3a,0x0b,0x40,0x70,0x69,0x74,0x63,0x68,0x69,0x69))
 EndEventProcessing()
 0()
EndIf()
If(1,1125,0,1,0)
 ShowMessageFace("stein_fc2",1,0,2,47)
 ShowMessage("\\n<Promestein>Is there anybody who wishes to learn the skills of another race? Through the power of science, I can help!")
 ShowMessageFace("highslag_fc1",0,0,2,48)
 ShowMessage("\\n<Elisabeth>I wish to further refine my rapier technique...\nPlease, transform me into a yoma.")
 If(0,4,0)
  ShowMessageFace("alice_fc5",2,0,2,49)
  ShowMessage("\\n<Alice>Stop right there!\nYou must first pass the appropriate trials-")
  ShowMessageFace("stein_fc2",2,0,2,50)
  ShowMessage("\\n<Promestein>We have no need for such pointless, antiquated errands! Eat this! Idealism Eradicator #1!")
  ShowMessageFace("alice_fc5",6,0,2,51)
  ShowMessage("\\n<Alice>N-no! Stop!!")
  ShowMessageFace("alice_fc5",3,0,2,52)
  ShowMessage("\\n<Alice>Zzz...")
  313(0,5,0,11)
  ShowMessageFace("",0,0,2,53)
  ShowMessage("Alice fell asleep...")
  ShowMessageFace("stein_fc2",1,0,2,54)
  ShowMessage("\\n<Promestein>What excellent timing.\nWith the blood of the monster lord, I'll have everything I need.")
  ShowMessageFace("stein_fc2",1,0,2,55)
  ShowMessage("\\n<Promestein>Wonderful. Thank you for your kind donation, monster lord. Now to just mix it with secret ingredients A and B...")
  0()
 EndIf()
 If(0,5,0)
  ShowMessageFace("stein_fc2",1,0,2,56)
  ShowMessage("\\n<Promestein>Hmmm, I see.\nNow then, using the monster lord DNA I collected previously, let us create the extract!")
  ShowMessageFace("iriasu_fc4",2,0,2,57)
  ShowMessage("\\n<Ilias>Where on earth did you find Alipheese's DNA?")
  ShowMessageFace("stein_fc2",1,0,2,58)
  ShowMessage("\\n<Promestein>Remember the banquet at Grand Noah? I stole the glass she used and collected the cells she left on it.")
  ShowMessageFace("sonia_fc2",2,0,2,59)
  ShowMessage("\\n<Sonya>That's kind of creepy...")
  ShowMessageFace("stein_fc2",1,0,2,60)
  ShowMessage("\\n<Promestein>Now, if I just mix that DNA with secret ingredients A and B...")
  0()
 EndIf()
 250(bytes(0x04,0x08,0x6f,0x3a,0x0c,0x52,0x50,0x47,0x3a,0x3a,0x53,0x45,0x08,0x3a,0x0a,0x40,0x6e,0x61,0x6d,0x65,0x49,0x22,0x11,0x6d,0x6f,0x6e,0x5f,0x66,0x61,0x6e,0x66,0x61,0x6c,0x65,0x32,0x06,0x3a,0x06,0x45,0x54,0x3a,0x0b,0x40,0x70,0x69,0x74,0x63,0x68,0x69,0x69,0x3a,0x0c,0x40,0x76,0x6f,0x6c,0x75,0x6d,0x65,0x69,0x69))
 ShowMessageFace("stein_fc2",1,0,2,61)
 ShowMessage("\\n<Promestein>...It's complete!\nWith this mixture, land dwellers can now become yoma!")
 ShowMessageFace("highslag_fc1",0,0,2,62)
 ShowMessage("\\n<Elisabeth>Wonderful. May I have my shot?\nDon't worry, I'm ready for it.")
 ShowMessageFace("stein_fc2",1,0,2,63)
 ShowMessage("\\n<Promestein>OK! Hold out your arm for me, please.\n...and done♪")
 ShowMessageFace("highslag_fc1",0,0,2,64)
 ShowMessage("\\n<Elisabeth>........")
 ShowMessageFace("highslag_fc1",1,0,2,65)
 ShowMessage("\\n<Elisabeth>I can feel a new strength blazing inside of me...\nSo this is the power of a yoma...")
 250(bytes(0x04,0x08,0x6f,0x3a,0x0c,0x52,0x50,0x47,0x3a,0x3a,0x53,0x45,0x08,0x3a,0x0a,0x40,0x6e,0x61,0x6d,0x65,0x49,0x22,0x11,0x6d,0x6f,0x6e,0x5f,0x66,0x61,0x6e,0x66,0x61,0x6c,0x65,0x32,0x06,0x3a,0x06,0x45,0x54,0x3a,0x0b,0x40,0x70,0x69,0x74,0x63,0x68,0x69,0x69,0x3a,0x0c,0x40,0x76,0x6f,0x6c,0x75,0x6d,0x65,0x69,0x69))
 355("set_class_level(85, 158, 10, false, false)")
 655("set_class_level(85, 159, 10, false, true)")
 ShowMessageFace("",0,0,2,66)
 ShowMessage("Elisabeth became a yoma!")
 ShowMessageFace("stein_fc2",1,0,2,67)
 ShowMessage("\\n<Promestein>The experiment is a success!\nI shall call this mixture... Demon Extract, I guess.")
 ShowMessageFace("bunnyslime_fc1",2,0,2,68)
 ShowMessage("\\n<Bunni>We're going to run out of names for these medicines soon...")
 ShowMessageFace("stein_fc2",2,0,2,69)
 ShowMessage("\\n<Promestein>Quite embarrassing to have that pointed out by Bunni, of all people...")
 ShowMessageFace("ruka_fc1",0,0,2,70)
 ShowMessage("\\n<Luka>Anyway, with this extract, land dwellers can now become yoma, right? Looks like you're making steady progress with your research, Promestein.")
 ShowMessageFace("stein_fc2",1,0,2,71)
 ShowMessage("\\n<Promestein>Indeed, it feels wonderful.\nAt this rate, soon I'll... Mufufu.")
 ShowMessageFace("sonia_fc2",2,0,2,72)
 ShowMessage("\\n<Sonya>Getting kind of creepy, again...")
 If(0,4,0)
  ShowMessageFace("alice_fc5",3,0,2,73)
  ShowMessage("\\n<Alice>Zzz...")
  0()
 EndIf()
 ChangeSwitch(1925,1925,0)
 ChangeVariable(1125,1125,0,0,2)
 PictureClear(5)
 241(bytes(0x04,0x08,0x6f,0x3a,0x0d,0x52,0x50,0x47,0x3a,0x3a,0x42,0x47,0x4d,0x08,0x3a,0x0a,0x40,0x6e,0x61,0x6d,0x65,0x49,0x22,0x0c,0x63,0x61,0x73,0x74,0x6c,0x65,0x36,0x06,0x3a,0x06,0x45,0x54,0x3a,0x0c,0x40,0x76,0x6f,0x6c,0x75,0x6d,0x65,0x69,0x69,0x3a,0x0b,0x40,0x70,0x69,0x74,0x63,0x68,0x69,0x69))
 EndEventProcessing()
 0()
EndIf()
If(1,1126,0,1,0)
 ShowMessageFace("stein_fc2",1,0,2,74)
 ShowMessage("\\n<Promestein>Ah, I've been waiting for you!\nI would like you to cooperate for just a moment with one of my experiments.")
 ShowMessageFace("byakunen_fc1",0,0,2,75)
 ShowMessage("\\n<Hakunen>If it's anything I can do, I'll help you.\n...Though there's not a lot I can do.")
 ShowMessageFace("stein_fc2",1,0,2,76)
 ShowMessage("\\n<Promestein>I'm currently studying the transfer of genes into other races. By the way, you're a sorcerer aren't you Hakunen?")
 ShowMessageFace("byakunen_fc1",0,0,2,77)
 ShowMessage("\\n<Hakunen>Yeah...although I'm still in the middle of training.")
 ShowMessageFace("stein_fc2",0,0,2,78)
 ShowMessage("\\n<Promestein>A sorcerer is someone who has mastered monster skills, yes? Through training, they reshape their bodies so that they can use the techniques of youkai.")
 ShowMessageFace("byakunen_fc1",0,0,2,79)
 ShowMessage("\\n<Hakunen>...Yes, that's what I'm being taught.")
 ShowMessageFace("stein_fc2",0,0,2,80)
 ShowMessage("\\n<Promestein>I see, truly fascinating...\nIf you have the body of a sorcerer, your affinity for demi-human genes should also be high...")
 ShowMessageFace("stein_fc2",1,0,2,81)
 ShowMessage("\\n<Promestein>...With that said, Mr. Hakunen.\nCould you let me harvest a little extract out of you?")
 ShowMessageFace("byakunen_fc2",0,0,2,82)
 ShowMessage("\\n<Hakunen>E-extract? Hey, what are you--")
 221()
 Wait(60)
 ShowMessageFace("byakunen_fc1",3,0,2,83)
 ShowMessage("\\n<Hakunen>Waaaah!!")
 Wait(60)
 ShowMessageFace("byakunen_fc1",4,0,2,84)
 ShowMessage("\\n<Hakunen>Ooooh...")
 ShowMessageFace("stein_fc2",1,0,2,85)
 ShowMessage("\\n<Promestein>Fufufu, I've gathered so much extract.\nNow if I separate this, and make it into that...")
 Wait(60)
 222()
 250(bytes(0x04,0x08,0x6f,0x3a,0x0c,0x52,0x50,0x47,0x3a,0x3a,0x53,0x45,0x08,0x3a,0x0a,0x40,0x6e,0x61,0x6d,0x65,0x49,0x22,0x11,0x6d,0x6f,0x6e,0x5f,0x66,0x61,0x6e,0x66,0x61,0x6c,0x65,0x32,0x06,0x3a,0x06,0x45,0x54,0x3a,0x0b,0x40,0x70,0x69,0x74,0x63,0x68,0x69,0x69,0x3a,0x0c,0x40,0x76,0x6f,0x6c,0x75,0x6d,0x65,0x69,0x69))
 ShowMessageFace("stein_fc2",1,0,2,86)
 ShowMessage("\\n<Promestein>...I've done it!")
 ShowMessageFace("stein_fc2",1,0,2,87)
 ShowMessage("\\n<Promestein>This extract works on those who have reached Level 10 in the human race. You can take in a high concentration of youkai genes and change into the demi-human and yoma races.")
 ShowMessageFace("bunnyslime_fc1",0,0,2,88)
 ShowMessage("\\n<Bunni>What's this extract going to be called?")
 ShowMessageFace("stein_fc2",1,0,2,89)
 ShowMessage("\\n<Promestein>If Hakunen is the name of the one who provided it... Shall I name it Hakunen Extract™?")
 ShowMessageFace("sonia_fc2",2,0,2,90)
 ShowMessage("\\n<Sonya>Hakunen extract, huh...\nIsn't there anything that can be done with that name?")
 ShowMessageFace("stein_fc2",0,0,2,91)
 ShowMessage("\\n<Promestein>You forgot the little ™.\nHakunen Extract™ is its official name, so try to remember it.")
 ShowMessageFace("byakunen_fc2",5,0,2,92)
 ShowMessage("\\n<Hakunen>This is all so complicated...")
 ShowMessageFace("stein_fc2",1,0,2,93)
 ShowMessage("\\n<Promestein>If I'm correct, it should also be possible to become an entirely new race. Humans make such excellent test subjects...fufufu.")
 ChangeSwitch(1929,1929,0)
 ChangeVariable(1126,1126,0,0,2)
 PictureClear(5)
 241(bytes(0x04,0x08,0x6f,0x3a,0x0d,0x52,0x50,0x47,0x3a,0x3a,0x42,0x47,0x4d,0x08,0x3a,0x0a,0x40,0x6e,0x61,0x6d,0x65,0x49,0x22,0x0c,0x63,0x61,0x73,0x74,0x6c,0x65,0x36,0x06,0x3a,0x06,0x45,0x54,0x3a,0x0c,0x40,0x76,0x6f,0x6c,0x75,0x6d,0x65,0x69,0x69,0x3a,0x0b,0x40,0x70,0x69,0x74,0x63,0x68,0x69,0x69))
 EndEventProcessing()
 0()
EndIf()
If(1,1097,0,1,0)
 ShowMessageFace("stein_fc2",1,0,2,94)
 ShowMessage("\\n<Promestein>You've been here for a while, Kazuya.\nNow, let me borrow you for an experiment!")
 ShowMessageFace("kazuya_fc2",2,0,2,95)
 ShowMessage("\\n<Kazuya>...No, not without an explanation first.")
 ShowMessageFace("stein_fc2",0,0,2,96)
 ShowMessage("\\n<Promestein>Cautious as I expected...\nAs you are aware, I was temporarily sent into another world.")
 ShowMessageFace("byakunen_fc1",0,0,2,97)
 ShowMessage("\\n<Hakunen>It sounds like you ended up in my world and came back. But we don't even know what happened there...")
 ShowMessageFace("stein_fc2",1,0,2,98)
 ShowMessage("\\n<Promestein>Ufufu...It's S-E-C-R-E-T♪")
 ShowMessageFace("stein_fc2",0,0,2,99)
 ShowMessage("\\n<Promestein>Anyhow, I also got the chance to see another world, and that experience gave me an idea.")
 ShowMessageFace("stein_fc2",0,0,2,100)
 ShowMessage("\\n<Promestein>As it stands, all parallel worlds are currently on the brink of disappearing. Would we be able to escape that by migrating to another world...?")
 ShowMessageFace("ruka_fc1",0,0,2,101)
 ShowMessage("\\n<Luka>I see...\nSo you want to move to another world so that we can escape from this threat.")
 ShowMessageFace("",0,0,2,102)
 ShowMessage("Of course, we can't just escape by ourselves.\nWe need a plan to migrate everyone living in this world to another one...")
 ShowMessageFace("sonia_fc3",4,0,2,103)
 ShowMessage("\\n<Sonya>That won't accomplish anything... If this parallel world disappears, everything that originated from our world will disappear too in turn.")
 If(0,4,0)
  ShowMessageFace("stein_fc2",0,0,2,104)
  ShowMessage("\\n<Promestein>...That's right.\nIt turns out the plan to evacuate everyone into another world is theoretically hopeless.")
  0()
 EndIf()
 If(0,5,0)
  ShowMessageFace("stein_fc2",2,0,2,105)
  ShowMessage("\\n<Promestein>Eh...? How do you know this...?")
  ShowMessageFace("stein_fc2",0,0,2,106)
  ShowMessage("\\n<Promestein>At any rate, Sonya is correct.\nIt turns out the plan to evacuate everyone into another world is theoretically hopeless.")
  0()
 EndIf()
 ShowMessageFace("stein_fc2",0,0,2,107)
 ShowMessage("\\n<Promestein>For instance, suppose we decided to take refuge in Hakunen's world, and then our world disappears.")
 ShowMessageFace("stein_fc2",0,0,2,108)
 ShowMessage("\\n<Promestein>Then...those of us living in Hakunen's world would also disappear in turn.")
 If(0,4,0)
  ShowMessageFace("alice_fc5",2,0,2,109)
  ShowMessage("\\n<Alice>So even if we run away to another world...\nThere's nothing the people who escaped from the vanishing world can do to avoid disappearing?")
  ShowMessageFace("stein_fc2",0,0,2,110)
  ShowMessage("\\n<Promestein>Yes, it seems so.\nEverything will vanish at a quantum level, so even the facts of our existence will disappear.")
  0()
 EndIf()
 If(0,5,0)
  ShowMessageFace("iriasu_fc4",2,0,2,111)
  ShowMessage("\\n<Ilias>This was a truth I could have predicted, but still... Evacuating everyone to another world was never a solution to the problem after all.")
  ShowMessageFace("stein_fc2",0,0,2,112)
  ShowMessage("\\n<Promestein>Yes, it seems so.\nEverything will vanish at a quantum level, so even the facts of our existence will disappear.")
  0()
 EndIf()
 ShowMessageFace("stein_fc2",0,0,2,113)
 ShowMessage("\\n<Promestein>In other words, even if we are in Hakunen's world, we will still disappear. Even the memories of us being there will be erased.")
 ShowMessageFace("kazuya_fc2",0,0,2,114)
 ShowMessage("\\n<Kazuya>I see... But you have done well to confirm this.\nSo what's this experiment about...")
 ShowMessageFace("kazuya_fc2",0,0,2,115)
 ShowMessage("\\n<Kazuya>............")
 ShowMessageFace("kazuya_fc2",3,0,2,116)
 ShowMessage("\\n<Kazuya>.....You can't possibly mean?!")
 ShowMessageFace("stein_fc2",1,0,2,117)
 ShowMessage("\\n<Promestein>Ufufu, you seem to have a good guess.\nThat's I've called for you, Kazuya.")
 ShowMessageFace("stein_fc2",1,0,2,118)
 ShowMessage("\\n<Promestein>There are people who have come into contact with this world without the help of the White Rabbit's power, correct? They sent Kazuya a letter and equipment...")
 ShowMessageFace("kazuya_fc2",2,0,2,119)
 ShowMessage("\\n<Kazuya>Dr. Yui...")
 ShowMessageFace("stein_fc2",1,0,2,120)
 ShowMessage("\\n<Promestein>Yes, that's who I'm referring to.\nSo I've been attempting to send communications to the coordinates of the sender.")
 ShowMessageFace("stein_fc2",1,0,2,121)
 ShowMessage("\\n<Promestein>And I was ultimately successful!\nI've just received a message from Dr. Yui, who is in Kazuya's world.")
 ShowMessageFace("stein_fc2",1,0,2,122)
 ShowMessage("\\n<Promestein>And I quickly received a reply from the other side... I was able to exchange messages with Dr. Yui.")
 ShowMessageFace("kazuya_fc2",5,0,2,123)
 ShowMessage("\\n<Kazuya>You've communicated with Dr. Yui...?!")
 ShowMessageFace("stein_fc2",0,0,2,124)
 ShowMessage("\\n<Promestein>Not only did we send messages, we also conducted an experiment to transfer items. And as it turns out...")
 ShowMessageFace("stein_fc2",0,0,2,125)
 ShowMessage("\\n<Promestein>Just as I had explained earlier, the existential events of the matter were also causally linked to the original dimension.")
 ShowMessageFace("stein_fc2",0,0,2,126)
 ShowMessage("\\n<Promestein>If this world disappears, whatever gets sent over there will disappear as well... I'm definitely certain of that based on this joint experiment with Dr. Yui.")
 ShowMessageFace("ruka_fc1",0,0,2,127)
 ShowMessage("\\n<Luka>But we've communicated between worlds before. Even though it should be impossible with even a god's power...")
 ShowMessageFace("stein_fc2",0,0,2,128)
 ShowMessage("\\n<Promestein>...Have you forgotten?\nLuka functions similarly to a cross-world antenna.")
 ShowMessageFace("stein_fc2",0,0,2,129)
 ShowMessage("\\n<Promestein>You were used as an intermediary to communicate across parallel worlds before, right? Communicating with Kazuya's world was also possible with Luka as the antenna.")
 If(0,4,0)
  ShowMessageFace("alice_fc5",3,0,2,130)
  ShowMessage("\\n<Alice>This is a bizarre conversation to follow.\nWhy on earth would his hair work like an antenna?")
  0()
 EndIf()
 If(0,5,0)
  ShowMessageFace("iriasu_fc4",2,0,2,131)
  ShowMessage("\\n<Ilias>This phenomena is beyond comprehension for even a god such as I. Why does Luka's hair work like an antenna?")
  0()
 EndIf()
 ShowMessageFace("ruka_fc1",0,0,2,132)
 ShowMessage("\\n<Luka>No, it's not my hair that's an antenna...")
 ShowMessageFace("stein_fc2",0,0,2,133)
 ShowMessage("\\n<Promestein>Eh? You think his hair is the antenna?\nWhenever his hair's a mess, communications also seems to get worse.")
 ShowMessageFace("ruka_fc1",0,0,2,134)
 ShowMessage("\\n<Luka>Eh?! It really was?!")
 ShowMessageFace("stein_fc2",0,0,2,135)
 ShowMessage("\\n<Promestein>Sorry...we're getting off topic here.\nSo anyways, I've been exchanging various theories with Dr. Yui.")
 ShowMessageFace("stein_fc2",0,0,2,136)
 ShowMessage("\\n<Promestein>She has also been trying to find a way to bring Kazuya back home. We tried some experiments to see if we could transfer living organisms across dimensions.")
 ShowMessageFace("kazuya_fc2",0,0,2,137)
 ShowMessage("\\n<Kazuya>And what were the results of that experiment...?")
 ShowMessageFace("stein_fc2",0,0,2,138)
 ShowMessage("\\n<Promestein>We were successful with yeast...\nBut we encountered problems when we tried euglena and it came apart.")
 ShowMessageFace("stein_fc2",0,0,2,139)
 ShowMessage("\\n<Promestein>The transfer experiment also failed on bananas, turning their tissue into gel. We stopped at dogs and cats because they were just a little too scared.")
 ShowMessageFace("stein_fc2",1,0,2,140)
 ShowMessage("\\n<Promestein>Our next one is going to be done impromptu.\nKazuya, will you summon the courage to do it?")
 ShowMessageFace("kazuya_fc2",5,0,2,141)
 ShowMessage("\\n<Kazuya>No way!!")
 ShowMessageFace("stein_fc2",0,0,2,142)
 ShowMessage("\\n<Promestein>If we're only transferring a single arm, there's a possibiity it will reach the other side. But if that's your response, there's no helping it.")
 ShowMessageFace("stein_fc2",0,0,2,143)
 ShowMessage("\\n<Promestein>Anyhow, this is not the main topic at hand.\nI have a message for you from Dr. Yui.")
 ShowMessageFace("kazuya_fc2",2,0,2,144)
 ShowMessage("\\n<Kazuya>A message from Dr. Yui...?")
 Wait(30)
 241(bytes(0x04,0x08,0x6f,0x3a,0x0d,0x52,0x50,0x47,0x3a,0x3a,0x42,0x47,0x4d,0x08,0x3a,0x0a,0x40,0x6e,0x61,0x6d,0x65,0x49,0x22,0x10,0x73,0x63,0x65,0x6e,0x65,0x5f,0x63,0x6f,0x6d,0x69,0x32,0x06,0x3a,0x06,0x45,0x54,0x3a,0x0c,0x40,0x76,0x6f,0x6c,0x75,0x6d,0x65,0x69,0x69,0x3a,0x0b,0x40,0x70,0x69,0x74,0x63,0x68,0x69,0x69))
 ShowMessageFace("yuihakase_fc1",1,0,2,145)
 ShowMessage("\\n<Dr. Yui>Hiya there (^○^)\nHow are you doing Kazuya-kun? (^w^)")
 ShowMessageFace("yuihakase_fc1",1,0,2,146)
 ShowMessage("\\n<Dr. Yui>The guys back at the office came storming in and made a big fuss when they found out we sent you supplies over there (；o；) ")
 ShowMessageFace("yuihakase_fc1",1,0,2,147)
 ShowMessage("\\n<Dr. Yui>I should probably tell you this now in advance...\nWe're still unable to transfer living organisms across dimensions, and we have no estimation of when we'll be able to.")
 ShowMessageFace("yuihakase_fc1",1,0,2,148)
 ShowMessage("\\n<Dr. Yui>After we explained ourselves, they said they were going to go help Kazuya themselves this time. (○ω○;)")
 ShowMessageFace("yuihakase_fc1",1,0,2,149)
 ShowMessage("\\n<Dr. Yui>It's possible that they could follow the signal built into Mukuro, but... If Kazuya-kun materializes that way, he will quickly run out of life energy.")
 ShowMessageFace("yuihakase_fc1",1,0,2,150)
 ShowMessage("\\n<Dr. Yui>Troubled by their solution, Meira-san came to our lab... She gave me something so absolutely groundbreaking, I just had to send it! (*^^*)")
 ShowMessageFace("yuihakase_fc1",1,0,2,151)
 ShowMessage("\\n<Dr. Yui>\"Thank you for fulfilling my wish\" is what she said... I have no idea what that's all about, but she seemed reassuring!")
 ShowMessageFace("yuihakase_fc1",1,0,2,152)
 ShowMessage("\\n<Dr. Yui>Anyway! If you put that on, you'll be able to call upon anyone from My Room in a matter of seconds （V＾－°）")
 ShowMessageFace("yuihakase_fc1",1,0,2,153)
 ShowMessage("\\n<Dr. Yui>Coordinate lag and the like have been adjusted in light of past experiments! You can call upon everyone in My Room, not just the guys from the office!")
 ShowMessageFace("yuihakase_fc1",1,0,2,154)
 ShowMessage("\\n<Dr. Yui>Don't hesistate to call for help so that my lab won't get trashed by everyone on standby there! ヾ(*´∀`*)ﾉ ")
 241(bytes(0x04,0x08,0x6f,0x3a,0x0d,0x52,0x50,0x47,0x3a,0x3a,0x42,0x47,0x4d,0x08,0x3a,0x0a,0x40,0x6e,0x61,0x6d,0x65,0x49,0x22,0x0c,0x63,0x61,0x73,0x74,0x6c,0x65,0x36,0x06,0x3a,0x06,0x45,0x54,0x3a,0x0c,0x40,0x76,0x6f,0x6c,0x75,0x6d,0x65,0x69,0x69,0x3a,0x0b,0x40,0x70,0x69,0x74,0x63,0x68,0x69,0x69))
 Wait(60)
 ShowMessageFace("kazuya_fc2",2,0,2,155)
 ShowMessage("\\n<Kazuya>So...\nShe sent me this ring...?")
 ShowMessageFace("stein_fc2",0,0,2,156)
 ShowMessage("\\n<Promestein>I was also curious about it myself and touched it a little, but... It would seem that it will only respond to Kazuya.")
 ShowMessageFace("stein_fc2",0,0,2,157)
 ShowMessage("\\n<Promestein>I surmise this object is not something which can be used with physical science nor magic science. It seems to have a strong connection to Kazuya's spirit...")
 ShowMessageFace("kazuya_fc2",2,0,2,158)
 ShowMessage("\\n<Kazuya>............")
 ShowMessageFace("",0,0,2,159)
 ShowMessage("When I put on the ring I received from Promestein, I could sense the strong powers of \"Kizuna\" I felt from the time I was with Mukuro.")
 ShowMessageFace("",0,0,2,160)
 ShowMessage("Surely, if I were to call out with this ring, I feel as if everyone in My Room would respond to my summon...")
 249(bytes(0x04,0x08,0x6f,0x3a,0x0c,0x52,0x50,0x47,0x3a,0x3a,0x4d,0x45,0x08,0x3a,0x0a,0x40,0x6e,0x61,0x6d,0x65,0x49,0x22,0x11,0x6d,0x6f,0x6e,0x5f,0x66,0x61,0x6e,0x66,0x61,0x6c,0x65,0x33,0x06,0x3a,0x06,0x45,0x54,0x3a,0x0b,0x40,0x70,0x69,0x74,0x63,0x68,0x69,0x69,0x3a,0x0c,0x40,0x76,0x6f,0x6c,0x75,0x6d,0x65,0x69,0x69))
 318(0,815,0,6361)
 ShowMessageFace("",0,0,2,161)
 ShowMessage("Kazuya can now summon demons from My Room!\nBy equipping the ability \"Kizuna's Ring\", he will be able to use new Summoning skills!")
 Wait(60)
 ShowMessageFace("stein_fc2",0,0,2,162)
 ShowMessage("\\n<Promestein>...I'm certain that's what she wanted to convey to you. It's too bad that I couldn't get around to experimenting with you, but this matter has come to a close.")
 ShowMessageFace("kazuya_fc2",1,0,2,163)
 ShowMessage("\\n<Kazuya>Any experiments would be out of the question...\nBut it's reassuring to know I can call upon everyone from My Room.")
 ShowMessageFace("",0,0,2,164)
 ShowMessage("And so Kazuya acquired new powers.\nThese should be of great help to us in the coming battles...")
 ChangeVariable(1097,1097,0,0,2)
 PictureClear(5)
 EndEventProcessing()
 0()
EndIf()
RunCommonEvent(130)
0()
