﻿// EVENT 5772
Name "サキュバスSQ"

PictureDisplay(5,"80_succubusq_st01",0,0,0,0,100,100,0,0)
PictureMove(5,null,0,0,0,0,100,100,255,0,30,true)
ShowMessageFace("",0,0,2,1)
ShowMessage("【ルカ】")
ShowMessage("お……お願い……")
ShowMessageFace("succubusq_fc1",0,0,2,2)
ShowMessage("【リリン】")
ShowMessage("いいわ、快楽の夢を見せてあげる。")
ShowMessage("それじゃあ、楽しみましょ……♡")
ShowMessageFace("",0,0,2,3)
ShowMessage("リリンは、脱力した僕へとのしかかってきた。")
ShowMessage("体をまたいで馬乗りになると、ペニスを自身の秘所へと導き――")
ShowMessageFace("succubusq_fc1",0,0,2,4)
ShowMessage("【リリン】")
ShowMessage("うふふっ、いただきまぁす……♡")
ShowMessageFace("",0,0,2,5)
ShowMessage("【ルカ】")
ShowMessage("あ……あぁぁぁ……")
ShowMessageFace("",0,0,2,6)
ShowMessage("そしてリリンは、自身の肉壺に僕のモノを導く。")
ShowMessage("温かく蕩けた膣内に、ペニスがゆっくりと包み込まれ――")
241(bytes(0x04,0x08,0x6f,0x3a,0x0d,0x52,0x50,0x47,0x3a,0x3a,0x42,0x47,0x4d,0x08,0x3a,0x0a,0x40,0x6e,0x61,0x6d,0x65,0x49,0x22,0x09,0x65,0x72,0x6f,0x31,0x06,0x3a,0x06,0x45,0x54,0x3a,0x0c,0x40,0x76,0x6f,0x6c,0x75,0x6d,0x65,0x69,0x69,0x3a,0x0b,0x40,0x70,0x69,0x74,0x63,0x68,0x69,0x69))
245(bytes(0x04,0x08,0x6f,0x3a,0x0d,0x52,0x50,0x47,0x3a,0x3a,0x42,0x47,0x53,0x08,0x3a,0x0a,0x40,0x6e,0x61,0x6d,0x65,0x49,0x22,0x1e,0x6d,0x6f,0x6e,0x5f,0x68,0x73,0x65,0x61,0x6e,0x30,0x34,0x5f,0x69,0x6e,0x6e,0x65,0x72,0x77,0x6f,0x72,0x6b,0x73,0x5f,0x61,0x34,0x06,0x3a,0x06,0x45,0x54,0x3a,0x0c,0x40,0x76,0x6f,0x6c,0x75,0x6d,0x65,0x69,0x55,0x3a,0x0b,0x40,0x70,0x69,0x74,0x63,0x68,0x69,0x69))
PictureDisplay(5,"ev_succubusq_h1",0,0,0,0,100,100,0,0)
PictureMove(5,null,0,0,0,0,100,100,255,0,30,true)
ShowMessageFace("",0,0,2,7)
ShowMessage("【ルカ】")
ShowMessage("はぅぅぅっ……！")
ShowMessageFace("",0,0,2,8)
ShowMessage("あっという間に、僕はリリンに犯されてしまった。")
ShowMessage("男の精を貪る魔性の存在と、とうとう交わってしまったのだ――")
ShowMessageFace("succubusq_fc1",0,0,2,9)
ShowMessage("【リリン】")
ShowMessage("うふふっ、食べちゃったぁ♡")
ShowMessage("もう、逃げられないわよ……")
ShowMessageFace("succubusq_fc1",0,0,2,10)
ShowMessage("【リリン】")
ShowMessage("このまま、堕ちていきましょう……")
ShowMessage("醒めない夢の中で、甘い快楽に溺れ続けるのよ。")
ShowMessageFace("",0,0,2,11)
ShowMessage("【ルカ】")
ShowMessage("あぁぁぁぁ……")
ShowMessageFace("succubusq_fc1",0,0,2,12)
ShowMessage("【リリン】")
ShowMessage("うふふっ、とっても気持ち良いみたいね。")
ShowMessage("もっともっとサービスしてあげるわ♡")
PictureDisplay(5,"ev_succubusq_h2",0,0,0,0,100,100,255,0)
ShowMessageFace("",0,0,2,13)
ShowMessage("【ルカ】")
ShowMessage("はぅぅぅっ……！")
ShowMessageFace("",0,0,2,14)
ShowMessage("僕を犯すリリンの体が、淡い光を放ち始めた。")
ShowMessage("エナジードレインで、精気を吸い上げてきたのだ。")
ShowMessageFace("",0,0,2,15)
ShowMessage("膣内が甘く狂おしく収縮し、ずきゅずきゅと脈動する。")
ShowMessage("とろけるような快楽を味わい、僕はみるみる脱力していった。")
ShowMessageFace("",0,0,2,16)
ShowMessage("【ルカ】")
ShowMessage("あ……あぅぅぅぅっ……")
ShowMessageFace("succubusq_fc1",0,0,2,17)
ShowMessage("【リリン】")
ShowMessage("あはっ、どうかしら？")
ShowMessage("もう、我慢できないでしょう……？")
ShowMessageFace("succubusq_fc1",0,0,2,18)
ShowMessage("【リリン】")
ShowMessage("このままイっちゃいなさい。")
ShowMessage("私の中に、たっぷりと精液を漏らすのよ……♡")
ShowMessageFace("",0,0,2,19)
ShowMessage("【ルカ】")
ShowMessage("あ……ふぁぁぁ……")
ShowMessageFace("",0,0,2,20)
ShowMessage("吸精の魔力が、ペニスを通じて体全体に侵蝕していく。")
ShowMessage("艶めかしく脈動する肉壺の中で、肉棒が甘くとろけていくような快感。")
ShowMessageFace("",0,0,2,21)
ShowMessage("あまりの気持ち良さに、僕はあえなく降参してしまった。")
ShowMessage("腰の奥から湧き上がる放出感に身を任せ――")
RunCommonEvent(104)
PictureDisplay(5,"ev_succubusq_h3",0,0,0,0,100,100,255,0)
RunCommonEvent(105)
ShowMessageFace("",0,0,2,22)
ShowMessage("【ルカ】")
ShowMessage("あ……あぁぁぁ……")
ShowMessageFace("",0,0,2,23)
ShowMessage("リリンの肉壺に、ドクドクと精液が迸る。")
ShowMessage("ペニスがびくんびくんと脈打ち、膣内に精を捧げていった――")
PictureDisplay(5,"ev_succubusq_h4",0,0,0,0,100,100,255,0)
ShowMessageFace("succubusq_fc1",0,0,2,24)
ShowMessage("【リリン】")
ShowMessage("うふふっ、たっぷり出したわね。")
ShowMessage("サキュバスと交わるのは、最高に気持ちいいでしょ……？")
ShowMessageFace("succubusq_fc1",0,0,2,25)
ShowMessage("【リリン】")
ShowMessage("もっと気持ち良くしてあげる。")
ShowMessage("私と一緒に、天国に行きましょう……♡")
ShowMessageFace("",0,0,2,26)
ShowMessage("【ルカ】")
ShowMessage("あ……あぅぅぅぅっ……！")
ShowMessageFace("",0,0,2,27)
ShowMessage("リリンは軽く揺さぶるように、腰を動かしてくる。")
ShowMessage("同時にじっくり精を吸い上げ、咥え込んだペニスに極上の快楽を与えた。")
ShowMessageFace("",0,0,2,28)
ShowMessage("膣内の収縮は激しさを増し、ますます艶めかしくなっていく。")
ShowMessage("ペニスが柔らかな肉壺の中で甘くとろけ、弱らされていく――")
ShowMessageFace("",0,0,2,29)
ShowMessage("【ルカ】")
ShowMessage("はぅ……あ、あぁぁっ……")
ShowMessageFace("succubusq_fc1",0,0,2,30)
ShowMessage("【リリン】")
ShowMessage("あはっ、すっかりとろけちゃったわね。")
ShowMessage("遠慮しないで、またイっちゃいなさい……♡")
ShowMessageFace("",0,0,2,31)
ShowMessage("【ルカ】")
ShowMessage("はぅぅぅっ……！")
ShowMessageFace("",0,0,2,32)
ShowMessage("甘く優しい快感に、僕はすっかり身を委ねてしまった。")
ShowMessage("頭の中までとろけそうな恍惚感を味わい、放出感に身を任せ――")
RunCommonEvent(104)
PictureDisplay(5,"ev_succubusq_h5",0,0,0,0,100,100,255,0)
RunCommonEvent(105)
ShowMessageFace("",0,0,2,33)
ShowMessage("【ルカ】")
ShowMessage("ふぁぁぁ……")
ShowMessageFace("",0,0,2,34)
ShowMessage("リリンの蜜壺に、どっぷりと精を捧げてしまう。")
ShowMessage("射精に呼応するように肉壁が収縮し、ペニスを艶めかしく揉み解された。")
ShowMessageFace("",0,0,2,35)
ShowMessage("これは、サキュバスにとっての捕食。")
ShowMessage("僕は精を貪られ、夢の世界に堕とされているのだ――")
ShowMessageFace("succubusq_fc1",0,0,2,36)
ShowMessage("【リリン】")
ShowMessage("うふふっ……キミの精、おいしい……♡")
ShowMessage("もっともっと、天国を見せてあげる♡")
ShowMessageFace("",0,0,2,37)
ShowMessage("【ルカ】")
ShowMessage("はぅ……あぅぅぅ……")
RunCommonEvent(104)
PictureDisplay(5,"ev_succubusq_h6",0,0,0,0,100,100,255,0)
RunCommonEvent(105)
ShowMessageFace("",0,0,2,38)
ShowMessage("ドクドクと精液を放ち、生命そのものを捧げていく。")
ShowMessage("リリンに誘われるがままに、夢の世界に堕ちていくのが分かる――")
ShowMessageFace("succubusq_fc1",0,0,2,39)
ShowMessage("【リリン】")
ShowMessage("このままずっと、この快楽を味わっていたいでしょう？")
ShowMessage("私と一緒に、一夜の夢に溺れなさい……♡")
ShowMessageFace("",0,0,2,40)
ShowMessage("【ルカ】")
ShowMessage("あ……あぁぁぁ……")
RunCommonEvent(104)
RunCommonEvent(105)
ShowMessageFace("succubusq_fc1",0,0,2,41)
ShowMessage("【リリン】")
ShowMessage("うふふっ、気持ちいいでしょう……？")
ShowMessage("私も満足させて……もっと、精をちょうだい……")
ShowMessageFace("",0,0,2,42)
ShowMessage("【ルカ】")
ShowMessage("はぅぅぅ……")
RunCommonEvent(104)
RunCommonEvent(105)
ShowMessageFace("succubusq_fc1",0,0,2,43)
ShowMessage("【リリン】")
ShowMessage("あははっ、もっと出して……")
ShowMessage("もうここは現実じゃないから、死ぬこともないのよ……")
ShowMessageFace("",0,0,2,44)
ShowMessage("【ルカ】")
ShowMessage("うぁ……あぁぁ……")
RunCommonEvent(104)
RunCommonEvent(105)
ShowMessageFace("succubusq_fc1",0,0,2,45)
ShowMessage("【リリン】")
ShowMessage("うふふふふっ……")
ShowMessage("いいわぁ……♡　もっとちょうだい……♡")
ShowMessageFace("",0,0,2,46)
ShowMessage("【ルカ】")
ShowMessage("はぅぅぅぅ……")
RunCommonEvent(104)
RunCommonEvent(105)
221()
PictureClear(5)
PictureClear(6)
246(2)
ShowMessageFace("",0,0,2,47)
ShowMessage("あくまで一夜の夢に過ぎなかったが――")
ShowMessage("それでも僕は、甘い快楽の夢に溺れきったのだった。")
ShowMessageFace("",0,0,2,48)
ShowMessage("・・・・・・・・")
RunCommonEvent(3998)
0()
