// EVENT 0311
Name "Dog Girl Understanding"

ShowMessageFace("dog_fc1",4,0,2,1)
ShowMessage("\\n<Pochi>......")
ShowMessageFace("dog_fc1",2,0,2,2)
ShowMessage("\\n<Pochi>Are we really domesticated, though? If we're treated like mangy beasts, we run away...")
ShowMessageFace("dog_fc1",2,0,2,3)
ShowMessage("\\n<Pochi>Domesticated animals wouldn't do that...\nTherefore, it's more like coexisting with humans.")
ShowMessageFace("dog_fc1",2,0,2,4)
ShowMessage("\\n<Pochi>Dog girls benefit from being fed by humans, and in turn, we...\nActually, I have no idea what we do for them.")
ShowMessageFace("dog_fc1",2,0,2,5)
ShowMessage("\\n<Pochi>It's a mutually beneficial relationship. By living together, we can reach our full potential...")
ShowMessageFace("",0,0,2,6)
ShowMessage("Pochi reached an understanding!")
250(bytes(0x04,0x08,0x6f,0x3a,0x0c,0x52,0x50,0x47,0x3a,0x3a,0x53,0x45,0x08,0x3a,0x0a,0x40,0x6e,0x61,0x6d,0x65,0x49,0x22,0x0a,0x49,0x74,0x65,0x6d,0x31,0x06,0x3a,0x06,0x45,0x54,0x3a,0x0b,0x40,0x70,0x69,0x74,0x63,0x68,0x69,0x69,0x3a,0x0c,0x40,0x76,0x6f,0x6c,0x75,0x6d,0x65,0x69,0x55))
ChangeInventoryArmor(1674,0,0,1,false)
355("gain_medal(2009)")
ShowMessageFace("sonia_fc1",0,0,2,7)
ShowMessage("\\n<Sonya>Pochi, you really like other dogs, don't you? You are always playing with ones you find in town.")
ShowMessageFace("dog_fc1",4,0,2,8)
ShowMessage("\\n<Pochi>Woof! Woof!")
EndEventProcessing()
0()
