// EVENT 2002
Name "Seduction: Bunny Slime"

If(0,25,1)
 EndEventProcessing()
 0()
EndIf()
355("$game_troop.lose_event_id = 3002")
ChangeVariable(26,26,0,3,3,1,4)
ChangeVariable(26,26,4,0,10)
ShowMessageFace("bunnyslime_fc1",2,0,2,1)
ShowMessage("\\n<Bunny Slime>I think I might be in big trouble here...\nWhat's a rabbit to do...")
ShowMessageFace("bunnyslime_fc1",0,0,2,2)
ShowMessage("\\n<Bunny Slime>Hey, how about I give your penis my special service?\nYou don't want to miss it!")
ChangeSwitch(98,98,0)
ChangeSwitch(96,96,0)
ShowChoices(strings("Ignore her","Get serviced"),1)
IfPlayerPicksChoice(0,"Ignore her")
 ShowMessageFace("",0,0,2,3)
 ShowMessage("Luka resists her temptation!")
 RunCommonEvent(1999)
 EndEventProcessing()
 0()
IfPlayerPicksChoice(1,"Get serviced")
 0()
404()
ShowMessageFace("bunnyslime_fc1",0,0,2,4)
ShowMessage("\\n<Bunny Slime>Ehehe, you want the special?\nAll right, let's get your penis wrapped up in slime right away♪")
ChangeVariable(26,26,3,0,2)
250(bytes(0x04,0x08,0x6f,0x3a,0x0c,0x52,0x50,0x47,0x3a,0x3a,0x53,0x45,0x08,0x3a,0x0a,0x40,0x6e,0x61,0x6d,0x65,0x49,0x22,0x13,0x6d,0x6f,0x6e,0x5f,0x65,0x72,0x6f,0x5f,0x73,0x6c,0x69,0x6d,0x65,0x31,0x06,0x3a,0x06,0x45,0x54,0x3a,0x0b,0x40,0x70,0x69,0x74,0x63,0x68,0x69,0x69,0x3a,0x0c,0x40,0x76,0x6f,0x6c,0x75,0x6d,0x65,0x69,0x69))
311(0,1,1,1,26,true)
ShowMessageFace("",0,0,2,5)
ShowMessage("Slime coils around Luka's groin!\nThe pink sticky substance clings to his penis!\\D")
ShowMessage("Luka takes \\V[26] damage!")
ChangeVariable(27,27,0,3,3,1,2)
If(1,27,0,0,0)
 JumpToLabel("射精1")
 0()
EndIf()
ShowMessageFace("bunnyslime_fc1",0,0,2,6)
ShowMessage("\\n<Bunny Slime>How is it? I can make it really thick and sticky for you!")
250(bytes(0x04,0x08,0x6f,0x3a,0x0c,0x52,0x50,0x47,0x3a,0x3a,0x53,0x45,0x08,0x3a,0x0a,0x40,0x6e,0x61,0x6d,0x65,0x49,0x22,0x13,0x6d,0x6f,0x6e,0x5f,0x65,0x72,0x6f,0x5f,0x73,0x6c,0x69,0x6d,0x65,0x31,0x06,0x3a,0x06,0x45,0x54,0x3a,0x0b,0x40,0x70,0x69,0x74,0x63,0x68,0x69,0x69,0x3a,0x0c,0x40,0x76,0x6f,0x6c,0x75,0x6d,0x65,0x69,0x69))
311(0,1,1,1,26,true)
ShowMessageFace("",0,0,2,7)
ShowMessage("The slime becomes thicker and flows around Luka's penis! The sticky sensation covers every inch!\\D")
ShowMessage("Luka takes \\V[26] damage!")
ChangeVariable(27,27,0,3,3,1,2)
If(1,27,0,0,0)
 JumpToLabel("射精1")
 0()
EndIf()
ShowMessageFace("",0,0,2,8)
ShowMessage("\\n<Luka>Ungh...\nIt's like its coiling around me...")
ShowMessageFace("bunnyslime_fc1",1,0,2,9)
ShowMessage("\\n<Bunny Slime>Ehehe♪ Feels good, right?\nJust give me a bit longer and it'll feel even better, okay?")
ShowChoices(strings("Resist the temptation","Give in"),1)
IfPlayerPicksChoice(0,"Resist the temptation")
 PictureClear(5)
 ChangeSwitch(96,96,1)
 ChangeSwitch(98,98,1)
 ShowMessageFace("",0,0,2,10)
 ShowMessage("Luka resists the temptation and shakes off the Bunny Slime!")
 EndEventProcessing()
 0()
IfPlayerPicksChoice(1,"Give in")
 ShowMessageFace("",0,0,2,11)
 ShowMessage("Luka surrenders to the pleasure...")
 0()
404()
ShowMessageFace("bunnyslime_fc1",1,0,2,12)
ShowMessage("\\n<Bunny Slime>There we go. Just relax.\nMy thick slime will make you come before you know it♪")
250(bytes(0x04,0x08,0x6f,0x3a,0x0c,0x52,0x50,0x47,0x3a,0x3a,0x53,0x45,0x08,0x3a,0x0a,0x40,0x6e,0x61,0x6d,0x65,0x49,0x22,0x13,0x6d,0x6f,0x6e,0x5f,0x65,0x72,0x6f,0x5f,0x73,0x6c,0x69,0x6d,0x65,0x31,0x06,0x3a,0x06,0x45,0x54,0x3a,0x0b,0x40,0x70,0x69,0x74,0x63,0x68,0x69,0x69,0x3a,0x0c,0x40,0x76,0x6f,0x6c,0x75,0x6d,0x65,0x69,0x69))
311(0,1,1,1,26,true)
ShowMessageFace("",0,0,2,13)
ShowMessage("The slime clamps down on Luka's glans and massages him! His entire head is fondled by sticky sensations of slime!\\D")
ShowMessage("Luka takes \\V[26] damage!")
ChangeVariable(27,27,0,3,3,1,2)
If(1,27,0,0,0)
 JumpToLabel("射精1")
 0()
EndIf()
250(bytes(0x04,0x08,0x6f,0x3a,0x0c,0x52,0x50,0x47,0x3a,0x3a,0x53,0x45,0x08,0x3a,0x0a,0x40,0x6e,0x61,0x6d,0x65,0x49,0x22,0x13,0x6d,0x6f,0x6e,0x5f,0x65,0x72,0x6f,0x5f,0x73,0x6c,0x69,0x6d,0x65,0x31,0x06,0x3a,0x06,0x45,0x54,0x3a,0x0b,0x40,0x70,0x69,0x74,0x63,0x68,0x69,0x69,0x3a,0x0c,0x40,0x76,0x6f,0x6c,0x75,0x6d,0x65,0x69,0x69))
311(0,1,1,1,26,true)
ShowMessageFace("",0,0,2,14)
ShowMessage("The slime wrapped around his penis squishes up and down! Being stroked by that thick slime makes him want to ejaculate badly!\\D")
ShowMessage("Luka takes \\V[26] damage!")
ChangeVariable(27,27,0,3,3,1,2)
If(1,27,0,0,0)
 JumpToLabel("射精1")
 0()
EndIf()
ShowMessageFace("",0,0,2,15)
ShowMessage("\\n<Luka>Can't... hang on...\nGoing to come soon...")
ShowMessageFace("bunnyslime_fc1",1,0,2,16)
ShowMessage("\\n<Bunny Slime>My slime is amazing, isn't it?\nI'll make you come in a second...♪")
ShowChoices(strings("Resist the temptation","Give in"),1)
IfPlayerPicksChoice(0,"Resist the temptation")
 ShowMessageFace("",0,0,2,17)
 ShowMessage("Luka resists the temptation and tries to shake off the Bunny Slime! But he's been too weakened and can't move...")
 ShowMessageFace("bunnyslime_fc1",1,0,2,18)
 ShowMessage("\\n<Bunny Slime>Ahaha, it's too late to get away♪\nHora, come inside my slime! ♪")
 0()
IfPlayerPicksChoice(1,"Give in")
 ShowMessageFace("",0,0,2,19)
 ShowMessage("Luka surrenders to the pleasure...")
 ShowMessageFace("bunnyslime_fc1",1,0,2,20)
 ShowMessage("\\n<Bunny Slime>Ahaha, not going to fight?\nHora, come inside my slime then! ♪")
 0()
404()
250(bytes(0x04,0x08,0x6f,0x3a,0x0c,0x52,0x50,0x47,0x3a,0x3a,0x53,0x45,0x08,0x3a,0x0a,0x40,0x6e,0x61,0x6d,0x65,0x49,0x22,0x13,0x6d,0x6f,0x6e,0x5f,0x65,0x72,0x6f,0x5f,0x73,0x6c,0x69,0x6d,0x65,0x31,0x06,0x3a,0x06,0x45,0x54,0x3a,0x0b,0x40,0x70,0x69,0x74,0x63,0x68,0x69,0x69,0x3a,0x0c,0x40,0x76,0x6f,0x6c,0x75,0x6d,0x65,0x69,0x69))
311(0,1,1,1,26,true)
ShowMessageFace("",0,0,2,21)
ShowMessage("The slime rapidly crawls over Luka's entire penis, teasing every inch! It forms a constant flowing stream from the base to the head!\\D")
ShowMessage("Luka takes \\V[26] damage!")
ChangeVariable(27,27,0,3,3,1,2)
If(1,27,0,0,0)
 JumpToLabel("射精1")
 0()
EndIf()
DefineLabel("射精1")
ShowMessageFace("",0,0,2,22)
ShowMessage("\\n<Luka>Nngh... coming...\nAh, aaaaah!")
RunCommonEvent(104)
RunCommonEvent(105)
ShowMessageFace("",0,0,2,23)
ShowMessage("Luka gushes thick semen into the pink slime.\nUnable to resist the sensations of the sticky slime, he ejaculated...")
ShowMessageFace("bunnyslime_fc1",1,0,2,24)
ShowMessage("\\n<Bunny Slime>Ahaha, you came! ♪\nSo how good did that feel?")
RunCommonEvent(2000)
EndEventProcessing()
0()
