﻿
DisplayName "Hellgondo Shrine"



EVENT   1
 PAGE   1
  0()



EVENT   2
 PAGE   1
  0()



EVENT   3
 PAGE   1
  0()



EVENT   4
 PAGE   1
  0()



EVENT   5
 PAGE   1
  0()



EVENT   6
 PAGE   1
  0()



EVENT   7
 PAGE   1
  0()



EVENT   8
 PAGE   1
  0()



EVENT   9
 PAGE   1
  250(bytes(0x04,0x08,0x6f,0x3a,0x0c,0x52,0x50,0x47,0x3a,0x3a,0x53,0x45,0x08,0x3a,0x0a,0x40,0x6e,0x61,0x6d,0x65,0x49,0x22,0x09,0x4d,0x6f,0x76,0x65,0x06,0x3a,0x06,0x45,0x54,0x3a,0x0b,0x40,0x70,0x69,0x74,0x63,0x68,0x69,0x69,0x3a,0x0c,0x40,0x76,0x6f,0x6c,0x75,0x6d,0x65,0x69,0x55))
  TeleportPlayer(0,194,132,70,0,0)
  0()



EVENT   10
 PAGE   1
  250(bytes(0x04,0x08,0x6f,0x3a,0x0c,0x52,0x50,0x47,0x3a,0x3a,0x53,0x45,0x08,0x3a,0x0a,0x40,0x6e,0x61,0x6d,0x65,0x49,0x22,0x09,0x4d,0x6f,0x76,0x65,0x06,0x3a,0x06,0x45,0x54,0x3a,0x0b,0x40,0x70,0x69,0x74,0x63,0x68,0x69,0x69,0x3a,0x0c,0x40,0x76,0x6f,0x6c,0x75,0x6d,0x65,0x69,0x55))
  TeleportPlayer(0,194,132,70,0,0)
  0()



EVENT   11
 PAGE   1
  250(bytes(0x04,0x08,0x6f,0x3a,0x0c,0x52,0x50,0x47,0x3a,0x3a,0x53,0x45,0x08,0x3a,0x0a,0x40,0x6e,0x61,0x6d,0x65,0x49,0x22,0x09,0x4d,0x6f,0x76,0x65,0x06,0x3a,0x06,0x45,0x54,0x3a,0x0b,0x40,0x70,0x69,0x74,0x63,0x68,0x69,0x69,0x3a,0x0c,0x40,0x76,0x6f,0x6c,0x75,0x6d,0x65,0x69,0x55))
  TeleportPlayer(0,194,132,70,0,0)
  0()



EVENT   12
 PAGE   1
  250(bytes(0x04,0x08,0x6f,0x3a,0x0c,0x52,0x50,0x47,0x3a,0x3a,0x53,0x45,0x08,0x3a,0x0a,0x40,0x6e,0x61,0x6d,0x65,0x49,0x22,0x09,0x4d,0x6f,0x76,0x65,0x06,0x3a,0x06,0x45,0x54,0x3a,0x0b,0x40,0x70,0x69,0x74,0x63,0x68,0x69,0x69,0x3a,0x0c,0x40,0x76,0x6f,0x6c,0x75,0x6d,0x65,0x69,0x55))
  TeleportPlayer(0,194,132,70,0,0)
  0()



EVENT   13
 PAGE   1
  250(bytes(0x04,0x08,0x6f,0x3a,0x0c,0x52,0x50,0x47,0x3a,0x3a,0x53,0x45,0x08,0x3a,0x0a,0x40,0x6e,0x61,0x6d,0x65,0x49,0x22,0x09,0x4d,0x6f,0x76,0x65,0x06,0x3a,0x06,0x45,0x54,0x3a,0x0b,0x40,0x70,0x69,0x74,0x63,0x68,0x69,0x69,0x3a,0x0c,0x40,0x76,0x6f,0x6c,0x75,0x6d,0x65,0x69,0x55))
  TeleportPlayer(0,194,132,70,0,0)
  0()



EVENT   14
 PAGE   1
  // condition: switch 2257 is ON
  PictureDisplay(5,"80_lilith_st01",0,0,0,0,100,100,0,0)
  PictureMove(5,null,0,0,0,0,100,100,255,0,30,true)
  ShowMessageFace("lilith_fc1",0,0,2,1)
  ShowMessage("\\n<Lilith>You're that hero from last time...!")
  ShowMessageFace("lilith_fc1",0,0,2,2)
  ShowMessage("\\n<Lilim>I never expected him to come to the land of Hellgondo...")
  ShowMessageFace("alice_fc5",0,0,2,3)
  ShowMessage("\\n<Alice>Were you the ones who corrupted the priest?\nIf you're going to stand in our way, we won't go easy on you!")
  ShowMessageFace("lilith_fc1",0,0,2,4)
  ShowMessage("\\n<Lilith>That would be our line...\nWe will not let you reach the Monster Lord's Castle.")
  ShowMessageFace("lilith_fc1",0,0,2,5)
  ShowMessage("\\n<Lilim>We'll settle this here...\nNow, have at you--")
  ShowMessageFace("alicetromeria_fc1",0,0,2,6)
  ShowMessage("\\n<Alicetroemeria>...Please wait a moment.\nI demand you lay down your weapons.")
  PictureDisplay(5,"80_lilith_st03",0,0,0,0,100,100,255,0)
  ShowMessageFace("lilith_fc1",2,0,2,7)
  ShowMessage("\\n<Lilith>Y-you are...?!")
  ShowMessageFace("lilith_fc1",2,0,2,8)
  ShowMessage("\\n<Lilim>Why, Black Al--")
  ShowMessageFace("alicetromeria_fc1",4,0,2,9)
  ShowMessage("\\n<Alicetroemeria>Oh dear... It would spoil my fun if you were to reveal my identity. You wouldn't want to ruin my little game, would you?")
  PictureDisplay(5,"80_lilith_st01",0,0,0,0,100,100,255,0)
  ShowMessageFace("lilith_fc1",0,0,2,10)
  ShowMessage("\\n<Lilith>O-of course not!\nYou're certainly just a magician who happens to be accompanying the hero...")
  ShowMessageFace("alicetromeria_fc1",0,0,2,11)
  ShowMessage("\\n<Alicetroemeria>It would be a lot of trouble, so please go along with my little game. Now, let us travel together...")
  ShowMessageFace("lilith_fc1",0,0,2,12)
  ShowMessage("\\n<Lilith>Y-yes... Let us accompany you.")
  ShowMessageFace("lilith_fc1",0,0,2,13)
  ShowMessage("\\n<Lilim>If it's for you, we'll go anywhere...")
  PictureClear(5)
  205(0,bytes(0x04,0x08,0x6f,0x3a,0x13,0x52,0x50,0x47,0x3a,0x3a,0x4d,0x6f,0x76,0x65,0x52,0x6f,0x75,0x74,0x65,0x09,0x3a,0x0c,0x40,0x72,0x65,0x70,0x65,0x61,0x74,0x46,0x3a,0x0f,0x40,0x73,0x6b,0x69,0x70,0x70,0x61,0x62,0x6c,0x65,0x46,0x3a,0x0a,0x40,0x77,0x61,0x69,0x74,0x54,0x3a,0x0a,0x40,0x6c,0x69,0x73,0x74,0x5b,0x09,0x6f,0x3a,0x15,0x52,0x50,0x47,0x3a,0x3a,0x4d,0x6f,0x76,0x65,0x43,0x6f,0x6d,0x6d,0x61,0x6e,0x64,0x07,0x3a,0x0a,0x40,0x63,0x6f,0x64,0x65,0x69,0x2a,0x3a,0x10,0x40,0x70,0x61,0x72,0x61,0x6d,0x65,0x74,0x65,0x72,0x73,0x5b,0x00,0x6f,0x3b,0x0a,0x07,0x3b,0x0b,0x69,0x0f,0x3b,0x0c,0x5b,0x00,0x6f,0x3b,0x0a,0x07,0x3b,0x0b,0x69,0x2c,0x3b,0x0c,0x5b,0x00,0x6f,0x3b,0x0a,0x07,0x3b,0x0b,0x69,0x00,0x3b,0x0c,0x5b,0x00))
  355("add_actor_ex(341)")
  249(bytes(0x04,0x08,0x6f,0x3a,0x0c,0x52,0x50,0x47,0x3a,0x3a,0x4d,0x45,0x08,0x3a,0x0a,0x40,0x6e,0x61,0x6d,0x65,0x49,0x22,0x0c,0x66,0x61,0x6e,0x66,0x61,0x6c,0x65,0x06,0x3a,0x06,0x45,0x54,0x3a,0x0b,0x40,0x70,0x69,0x74,0x63,0x68,0x69,0x69,0x3a,0x0c,0x40,0x76,0x6f,0x6c,0x75,0x6d,0x65,0x69,0x69))
  ShowMessageFace("",0,0,2,14)
  ShowMessage("Lilith & Lilim joined the party!")
  Wait(60)
  ChangeSwitch(2160,2160,0)
  If(0,6,0)
   ShowMessageFace("sonia_fc2",2,0,2,15)
   ShowMessage("\\n<Sonya>Is this really okay...?")
   0()
  Else()
   ShowMessageFace("ruka_fc1",0,0,2,16)
   ShowMessage("\\n<Luka>Is this really okay...?")
   0()
  EndIf()
  ShowMessageFace("alicetromeria_fc1",0,0,2,17)
  ShowMessage("\\n<Alicetroemeria>Ufufu... Isn't having lots of companions fun?\nThis is going to be such a wondrous adventure...")
  ShowMessageFace("lilith_fc1",0,0,2,18)
  ShowMessage("\\n<Lilith>Traveling with my lady...\nMy heart is pounding with excitement...!")
  ShowMessageFace("lilith_fc1",0,0,2,19)
  ShowMessage("\\n<Lilim>Indeed, sister...\nI look forward to seeing what kind of exciting banquet she will lead us to...")
  EndEventProcessing()
  0()
 PAGE   2
  // condition: switch 2160 is ON
  0()

EVENT   15
 PAGE   1
  // condition: switch 4 is ON
  ChangeSwitch(2257,2257,0)
  ShowMessageFace("",0,0,2,1)
  ShowMessage("\\n<Priest>Ahiii...\nI loooove succubiiii...")
  If(2,"A",1)
   ShowMessageFace("alice_fc5",6,0,2,2)
   ShowMessage("\\n<Alice>What's with this priest?!\nHe looks broken!")
   0()
  EndIf()
  ShowMessageFace("",0,0,2,3)
  ShowMessage("\\n<Priest>Thhhiiiisss...Liiiggghhhtttt...♪")
  250(bytes(0x04,0x08,0x6f,0x3a,0x0c,0x52,0x50,0x47,0x3a,0x3a,0x53,0x45,0x08,0x3a,0x0a,0x40,0x6e,0x61,0x6d,0x65,0x49,0x22,0x0a,0x48,0x65,0x61,0x6c,0x37,0x06,0x3a,0x06,0x45,0x54,0x3a,0x0b,0x40,0x70,0x69,0x74,0x63,0x68,0x69,0x69,0x3a,0x0c,0x40,0x76,0x6f,0x6c,0x75,0x6d,0x65,0x69,0x55))
  224(bytes(0x04,0x08,0x75,0x3a,0x0a,0x43,0x6f,0x6c,0x6f,0x72,0x25,0x00,0x00,0x00,0x00,0x00,0xe0,0x6f,0x40,0x00,0x00,0x00,0x00,0x00,0xe0,0x6f,0x40,0x00,0x00,0x00,0x00,0x00,0xe0,0x6f,0x40,0x00,0x00,0x00,0x00,0x00,0xe0,0x6f,0x40),30,true)
  314(0,0)
  ShowMessageFace("",0,0,2,4)
  ShowMessage("The party's HP and MP have been fully restored!")
  ShowChoices(strings("Pray","Change party/jobs","Do nothing"),3)
  IfPlayerPicksChoice(0,null)
   ChangeVariable(1002,1002,0,0,38)
   ShowMessageFace("",0,0,2,5)
   ShowMessage("\\n<Priest>Let us praaaaay...\nEhehehehe...")
   ShowMessageFace("",0,0,2,6)
   ShowMessage("\\n<Priest>I'm comiiiiiiiing!!")
   0()
  IfPlayerPicksChoice(1,null)
   RunCommonEvent(113)
   0()
  IfPlayerPicksChoice(2,null)
   ShowMessageFace("",0,0,2,7)
   ShowMessage("\\n<Priest>I'm comiiiiiiiing!!")
   0()
  404()
  If(2,"A",1)
   ChangeSelfSwitch("A",0)
   ShowMessageFace("alice_fc5",2,0,2,8)
   ShowMessage("\\n<Alice>Seems like he's been snacked on by a succubus from somewhere... Well, his mind isn't too deeply scarred, so he should return to his senses if he's left alone.")
   If(0,6,0)
    ShowMessageFace("sonia_fc2",2,0,2,9)
    ShowMessage("\\n<Sonya>But who could have done this...?")
    0()
   Else()
    ShowMessageFace("ruka_fc1",0,0,2,10)
    ShowMessage("\\n<Luka>But who could have done this...?")
    0()
   EndIf()
   0()
  EndIf()
  0()
 PAGE   2
  // condition: switch 5 is ON
  ShowMessageFace("",0,0,2,1)
  ShowMessage("\\n<Priest>Oh, hero!\nYou were able to reach the Monster Continent safely!")
  ShowMessageFace("",0,0,2,2)
  ShowMessage("\\n<Priest>Great Hero, may the light be with you!")
  250(bytes(0x04,0x08,0x6f,0x3a,0x0c,0x52,0x50,0x47,0x3a,0x3a,0x53,0x45,0x08,0x3a,0x0a,0x40,0x6e,0x61,0x6d,0x65,0x49,0x22,0x0a,0x48,0x65,0x61,0x6c,0x37,0x06,0x3a,0x06,0x45,0x54,0x3a,0x0b,0x40,0x70,0x69,0x74,0x63,0x68,0x69,0x69,0x3a,0x0c,0x40,0x76,0x6f,0x6c,0x75,0x6d,0x65,0x69,0x55))
  224(bytes(0x04,0x08,0x75,0x3a,0x0a,0x43,0x6f,0x6c,0x6f,0x72,0x25,0x00,0x00,0x00,0x00,0x00,0xe0,0x6f,0x40,0x00,0x00,0x00,0x00,0x00,0xe0,0x6f,0x40,0x00,0x00,0x00,0x00,0x00,0xe0,0x6f,0x40,0x00,0x00,0x00,0x00,0x00,0xe0,0x6f,0x40),30,true)
  314(0,0)
  ShowMessageFace("",0,0,2,3)
  ShowMessage("The party's HP and MP have been fully restored!")
  ShowChoices(strings("Pray","Change Party/Jobs","Do nothing"),3)
  IfPlayerPicksChoice(0,null)
   ChangeVariable(1002,1002,0,0,38)
   ShowMessageFace("",0,0,2,4)
   ShowMessage("\\n<Priest>I shall offer prayers to Ilias, so that you may be guided back to this holy place... May Ilias watch over you, hero!")
   0()
  IfPlayerPicksChoice(1,null)
   RunCommonEvent(113)
   0()
  IfPlayerPicksChoice(2,null)
   0()
  404()
  If(1,1001,0,31,0)
   If(2,"A",1)
    ChangeSelfSwitch("A",0)
    ShowMessageFace("",0,0,2,5)
    ShowMessage("\\n<Priest>Go west from here, and you will find the heretical town of Remina. You should take the opportunity to prepare yourself for the final battle, but do not let that town's degeneracy taint you.")
    If(0,6,0)
     ShowMessageFace("sonia_fc2",2,0,2,6)
     ShowMessage("\\n<Sonya>A town of degenerates? No way, is it a town full of perverts like Pornof? Or shady like Monte Carlo...?")
     0()
    Else()
     ShowMessageFace("ruka_fc1",0,0,2,7)
     ShowMessage("\\n<Luka>A town of degenerates? Is it a town full of perverts like Pornof? Or is it shady like Monte Carlo...?")
     0()
    EndIf()
    ShowMessageFace("iriasu_fc4",2,0,2,8)
    ShowMessage("\\n<Ilias>It is a town where humans and monsters coexist... It may sound normal to you, but it was very rare in this era.")
    ShowMessageFace("heinrich_fc1",1,0,2,9)
    ShowMessage("\\n<Heinrich>Still, I've always believed that humans and monsters--")
    ShowMessageFace("iriasu_fc4",7,0,2,10)
    ShowMessage("\\n<Ilias>...Heinrich.")
    ShowMessageFace("heinrich_fc1",5,0,2,11)
    ShowMessage("\\n<Heinrich>...Yes, I know.\nI am a failure as a disciple of Ilias.")
    ShowMessageFace("iriasu_fc4",2,0,2,12)
    ShowMessage("\\n<Ilias>(Ultimately, he'll be the cause of all this...)")
    EndEventProcessing()
    0()
   EndIf()
   0()
  EndIf()
  0()


