﻿


EVENT   2
 PAGE   1
  ChangeSwitch(31,31,1)
  250(bytes(0x04,0x08,0x6f,0x3a,0x0c,0x52,0x50,0x47,0x3a,0x3a,0x53,0x45,0x08,0x3a,0x0a,0x40,0x6e,0x61,0x6d,0x65,0x49,0x22,0x09,0x4d,0x6f,0x76,0x65,0x06,0x3a,0x06,0x45,0x54,0x3a,0x0b,0x40,0x70,0x69,0x74,0x63,0x68,0x69,0x69,0x3a,0x0c,0x40,0x76,0x6f,0x6c,0x75,0x6d,0x65,0x69,0x55))
  TeleportPlayer(0,897,28,8,0,0)
  0()



EVENT   7
 PAGE   1
  250(bytes(0x04,0x08,0x6f,0x3a,0x0c,0x52,0x50,0x47,0x3a,0x3a,0x53,0x45,0x08,0x3a,0x0a,0x40,0x6e,0x61,0x6d,0x65,0x49,0x22,0x09,0x4d,0x6f,0x76,0x65,0x06,0x3a,0x06,0x45,0x54,0x3a,0x0b,0x40,0x70,0x69,0x74,0x63,0x68,0x69,0x69,0x3a,0x0c,0x40,0x76,0x6f,0x6c,0x75,0x6d,0x65,0x69,0x55))
  TeleportPlayer(0,895,38,26,0,0)
  0()



EVENT   1
 PAGE   1
  250(bytes(0x04,0x08,0x6f,0x3a,0x0c,0x52,0x50,0x47,0x3a,0x3a,0x53,0x45,0x08,0x3a,0x0a,0x40,0x6e,0x61,0x6d,0x65,0x49,0x22,0x09,0x4d,0x6f,0x76,0x65,0x06,0x3a,0x06,0x45,0x54,0x3a,0x0b,0x40,0x70,0x69,0x74,0x63,0x68,0x69,0x69,0x3a,0x0c,0x40,0x76,0x6f,0x6c,0x75,0x6d,0x65,0x69,0x55))
  TeleportPlayer(0,895,38,27,0,0)
  0()



EVENT   8
 PAGE   1
  250(bytes(0x04,0x08,0x6f,0x3a,0x0c,0x52,0x50,0x47,0x3a,0x3a,0x53,0x45,0x08,0x3a,0x0a,0x40,0x6e,0x61,0x6d,0x65,0x49,0x22,0x09,0x4d,0x6f,0x76,0x65,0x06,0x3a,0x06,0x45,0x54,0x3a,0x0b,0x40,0x70,0x69,0x74,0x63,0x68,0x69,0x69,0x3a,0x0c,0x40,0x76,0x6f,0x6c,0x75,0x6d,0x65,0x69,0x55))
  TeleportPlayer(0,895,51,26,0,0)
  0()



EVENT   9
 PAGE   1
  250(bytes(0x04,0x08,0x6f,0x3a,0x0c,0x52,0x50,0x47,0x3a,0x3a,0x53,0x45,0x08,0x3a,0x0a,0x40,0x6e,0x61,0x6d,0x65,0x49,0x22,0x09,0x4d,0x6f,0x76,0x65,0x06,0x3a,0x06,0x45,0x54,0x3a,0x0b,0x40,0x70,0x69,0x74,0x63,0x68,0x69,0x69,0x3a,0x0c,0x40,0x76,0x6f,0x6c,0x75,0x6d,0x65,0x69,0x55))
  TeleportPlayer(0,895,51,26,0,0)
  0()



EVENT   3
 PAGE   1
  ChangeSwitch(31,31,1)
  250(bytes(0x04,0x08,0x6f,0x3a,0x0c,0x52,0x50,0x47,0x3a,0x3a,0x53,0x45,0x08,0x3a,0x0a,0x40,0x6e,0x61,0x6d,0x65,0x49,0x22,0x09,0x4d,0x6f,0x76,0x65,0x06,0x3a,0x06,0x45,0x54,0x3a,0x0b,0x40,0x70,0x69,0x74,0x63,0x68,0x69,0x69,0x3a,0x0c,0x40,0x76,0x6f,0x6c,0x75,0x6d,0x65,0x69,0x55))
  TeleportPlayer(0,897,28,8,0,0)
  0()



EVENT   4
 PAGE   1
  ChangeSwitch(31,31,1)
  250(bytes(0x04,0x08,0x6f,0x3a,0x0c,0x52,0x50,0x47,0x3a,0x3a,0x53,0x45,0x08,0x3a,0x0a,0x40,0x6e,0x61,0x6d,0x65,0x49,0x22,0x09,0x4d,0x6f,0x76,0x65,0x06,0x3a,0x06,0x45,0x54,0x3a,0x0b,0x40,0x70,0x69,0x74,0x63,0x68,0x69,0x69,0x3a,0x0c,0x40,0x76,0x6f,0x6c,0x75,0x6d,0x65,0x69,0x55))
  TeleportPlayer(0,897,28,8,0,0)
  0()



EVENT   5
 PAGE   1
  ChangeSwitch(31,31,1)
  250(bytes(0x04,0x08,0x6f,0x3a,0x0c,0x52,0x50,0x47,0x3a,0x3a,0x53,0x45,0x08,0x3a,0x0a,0x40,0x6e,0x61,0x6d,0x65,0x49,0x22,0x09,0x4d,0x6f,0x76,0x65,0x06,0x3a,0x06,0x45,0x54,0x3a,0x0b,0x40,0x70,0x69,0x74,0x63,0x68,0x69,0x69,0x3a,0x0c,0x40,0x76,0x6f,0x6c,0x75,0x6d,0x65,0x69,0x55))
  TeleportPlayer(0,897,28,8,0,0)
  0()



EVENT   6
 PAGE   1
  ChangeSwitch(31,31,1)
  250(bytes(0x04,0x08,0x6f,0x3a,0x0c,0x52,0x50,0x47,0x3a,0x3a,0x53,0x45,0x08,0x3a,0x0a,0x40,0x6e,0x61,0x6d,0x65,0x49,0x22,0x09,0x4d,0x6f,0x76,0x65,0x06,0x3a,0x06,0x45,0x54,0x3a,0x0b,0x40,0x70,0x69,0x74,0x63,0x68,0x69,0x69,0x3a,0x0c,0x40,0x76,0x6f,0x6c,0x75,0x6d,0x65,0x69,0x55))
  TeleportPlayer(0,897,28,8,0,0)
  0()



EVENT   10
 PAGE   1
  ChangeSwitch(35,35,0)
  355("release_temp_actors")
  355("take_all_item")
  222()
  Wait(60)
  PictureDisplay(5,"80_kazuya_st01",0,0,0,0,100,100,0,0)
  PictureMove(5,null,0,0,0,0,100,100,255,0,30,true)
  ShowMessageFace("kazuya_fc1",0,0,2,1)
  ShowMessage("\\n<Kazuya>We've become a big party all of a sudden...")
  PictureDisplay(5,"80_rest_st01",0,0,0,0,100,100,255,0)
  ShowMessageFace("rest_fc1",0,0,2,2)
  ShowMessage("\\n<Lest>I think it will be difficult to proceed with this many people. We should reorganize the party.")
  PictureDisplay(5,"80_rejeo_st01",0,0,0,0,100,100,255,0)
  ShowMessageFace("rejeo_fc1",0,0,2,3)
  ShowMessage("\\n<Rigeo>Hey, come here for a second.\nIf we use the portal--")
  250(bytes(0x04,0x08,0x6f,0x3a,0x0c,0x52,0x50,0x47,0x3a,0x3a,0x53,0x45,0x08,0x3a,0x0a,0x40,0x6e,0x61,0x6d,0x65,0x49,0x22,0x10,0x6d,0x6f,0x6e,0x5f,0x61,0x73,0x69,0x6f,0x74,0x6f,0x33,0x06,0x3a,0x06,0x45,0x54,0x3a,0x0b,0x40,0x70,0x69,0x74,0x63,0x68,0x69,0x69,0x3a,0x0c,0x40,0x76,0x6f,0x6c,0x75,0x6d,0x65,0x69,0x69))
  221()
  ChangeSwitch(35,35,1)
  PictureClear(5)
  Wait(60)
  216(0)
  TeleportPlayer(0,897,21,23,8,2)
  222()
  If(0,4,0)
   ShowMessageFace("alice_fc5",1,0,2,4)
   ShowMessage("\\n<Alice>I see... If we use this, we can reorganize the party.")
   0()
  EndIf()
  If(0,5,0)
   ShowMessageFace("iriasu_fc4",0,0,2,5)
   ShowMessage("\\n<Ilias>I see... If we use this, we can reorganize the party.")
   0()
  EndIf()
  250(bytes(0x04,0x08,0x6f,0x3a,0x0c,0x52,0x50,0x47,0x3a,0x3a,0x53,0x45,0x08,0x3a,0x0a,0x40,0x6e,0x61,0x6d,0x65,0x49,0x22,0x0b,0x4d,0x61,0x67,0x69,0x63,0x32,0x06,0x3a,0x06,0x45,0x54,0x3a,0x0b,0x40,0x70,0x69,0x74,0x63,0x68,0x69,0x69,0x3a,0x0c,0x40,0x76,0x6f,0x6c,0x75,0x6d,0x65,0x69,0x55))
  Wait(30)
  355("add_stand_actor(801)")
  355("add_stand_actor(802)")
  355("add_stand_actor(807)")
  355("add_stand_actor(808)")
  355("add_stand_actor(811)")
  355("add_stand_actor(812)")
  355("add_stand_actor(813)")
  355("add_stand_actor(814)")
  355("add_stand_actor(815)")
  355("add_stand_actor(816)")
  355("add_stand_actor(817)")
  355("add_stand_actor(819)")
  355("add_stand_actor(823)")
  355("add_stand_actor(825)")
  355("call_party_edit")
  314(0,0)
  ShowMessageFace("ruka_fc1",0,0,2,6)
  ShowMessage("\\n<Luka>This should do...\nCome on, let's get out of here at once.")
  ShowMessageFace("kazuya_fc1",0,0,2,7)
  ShowMessage("\\n<Kazuya>That would be for the best...\nIf we don't reformulate a plan, we won't be able to do anything.")
  ShowMessageFace("",0,0,2,8)
  ShowMessage("There are a lot of Nightmares inside of this intricate castle. In addition, the members of the Alliance are more troublesome than expected...")
  ShowMessageFace("",0,0,2,9)
  ShowMessage("Even though all the heroes are here, it would be too reckless to explore the castle like this.")
  PictureDisplay(5,"80_rejeo_st01",0,0,0,0,100,100,0,0)
  PictureMove(5,null,0,0,0,0,100,100,255,0,30,true)
  ShowMessageFace("rejeo_fc1",0,0,2,10)
  ShowMessage("\\n<Rigeo>Um... I think I have an idea.\nCould you listen to me before we leave this castle?")
  ShowMessageFace("magatu_fc1",0,0,2,11)
  ShowMessage("\\n<Magatsu>Oh... You seem to have a good idea.\nCome to think of it, this castle belongs to your world, doesn't it?")
  ShowMessageFace("rejeo_fc1",0,0,2,12)
  ShowMessage("\\n<Rigeo>There is someone I need to bring out before we leave this place. I'm sure she'll come in handy in the fight against the Queen of Dreams.")
  ShowMessageFace("rejeo_fc1",0,0,2,13)
  ShowMessage("\\n<Rigeo>Demon Lord Gilgorn... She is the Demon Lord of our world.")
  If(0,4,0)
   ShowMessageFace("alice_fc5",1,0,2,14)
   ShowMessage("\\n<Alice>What, a Demon Lord from another world?\nThen there is no doubt her strength is the real deal.")
   0()
  EndIf()
  If(0,5,0)
   ShowMessageFace("iriasu_fc4",2,0,2,15)
   ShowMessage("\\n<Ilias>A Demon Lord...\nSo there is a Demon Lord in your world as well.")
   0()
  EndIf()
  ShowMessageFace("kazuya_fc1",0,0,2,16)
  ShowMessage("\\n<Kazuya>Be that as it may, will that Demon Lord help us?\nIsn't she more likely to be on the Queen of Dreams' side...?")
  ShowMessageFace("rejeo_fc1",0,0,2,17)
  ShowMessage("\\n<Rigeo>That's impossible.\nDemon Lord Gilgorn should be hostile to Nightmares.")
  ShowMessageFace("rejeo_fc1",0,0,2,18)
  ShowMessage("\\n<Rigeo>She will probably lend us her power as long as we fight Nightmares.\n...Probably.")
  ShowMessageFace("byakunen_fc1",1,0,2,19)
  ShowMessage("\\n<Hakunen>I see...\nWhere is this Demon Lord?")
  ShowMessageFace("rejeo_fc1",0,0,2,20)
  ShowMessage("\\n<Rigeo>Actually, this Demonic Castle was originally her home... In other words, it's a place inside the Demon Lord's dream.")
  ShowMessageFace("rejeo_fc1",0,0,2,21)
  ShowMessage("\\n<Rigeo>Well, for a number of reasons, the castle has completely been taken over by Nightmares...")
  ShowMessageFace("rejeo_fc1",0,0,2,22)
  ShowMessage("\\n<Rigeo>Therefore, if this magical castle has been transported here, then its master, Gilgorn, must be somewhere as well.")
  ShowMessageFace("rejeo_fc1",0,0,2,23)
  ShowMessage("\\n<Rigeo>As for where she is...\nFrom what I've heard, she's probably in the deepest part of the Demonic Castle.")
  If(0,4,0)
   ShowMessageFace("alice_fc5",0,0,2,24)
   ShowMessage("\\n<Alice>A Demon Lord holed herself up in the deepest part of her own castle? What happened...?")
   0()
  EndIf()
  If(0,5,0)
   ShowMessageFace("iriasu_fc4",2,0,2,25)
   ShowMessage("\\n<Ilias>A shut-in Demon Lord...\nI wonder what happened.")
   0()
  EndIf()
  ShowMessageFace("rejeo_fc1",0,0,2,26)
  ShowMessage("\\n<Rigeo>Well, a lot happened...\nAnyway, why don't we win her over?")
  ShowMessageFace("kazuya_fc1",0,0,2,27)
  ShowMessage("\\n<Kazuya>Y-yeah, I agree with you.\nI'm sure a Demon Lord would be a valuable asset.")
  ShowMessageFace("kazuya_fc1",0,0,2,28)
  ShowMessage("\\n<Kazuya>(...Even though I say that, the closest thing to a Demon Lord I know is Hecate, the Demon Queen. And my impression of her is the worst...)")
  ShowMessageFace("rest_fc1",0,0,2,29)
  ShowMessage("\\n<Lest>The more companions we have, the better.\nAnd if she's strong, then she's more than welcome.")
  ShowMessageFace("lawrat_fc1",0,0,2,30)
  ShowMessage("\\n<Lauratt>............")
  PictureClear(5)
  ShowMessageFace("",0,0,2,31)
  ShowMessage("There is no objection, it seems.\nAnd now, we are on our way to find the Demon Lord Gilgorn.")
  PictureDisplay(5,"80_rovissa_st01",0,0,0,0,100,100,0,0)
  PictureMove(5,null,0,0,0,0,100,100,255,0,30,true)
  ShowMessageFace("rovissa_fc1",0,0,2,32)
  ShowMessage("\\n<Rovissa>This Demon Lord is in the deepest part of the castle. Um, shouldn't we go down to the room where the elevator is?")
  ShowMessageFace("daimeikai_fc1",1,0,2,33)
  ShowMessage("\\n<Daimyokai>Oh, that place...\nWe'll have to go back.")
  ShowMessageFace("rovissa_fc1",0,0,2,34)
  ShowMessage("\\n<Rovissa>Head south from here and take the stairs down to the basement.\nCome on, let's go!")
  ShowMessageFace("ruka_fc1",0,0,2,35)
  ShowMessage("\\n<Luka>Let's meet the Demon Lord Gilgorn!")
  PictureClear(5)
  ShowMessageFace("",0,0,2,36)
  ShowMessage("A Demon Lord from another world who is hostile to Nightmares... If she joins us, she will be of great help.")
  ShowMessageFace("",0,0,2,37)
  ShowMessage("Let's stay alert and go to this Demonic Castle's basement.\nThis Demon Lord is supposed to be in the deepest part of this castle...")
  ChangeSwitch(504,504,1)
  ChangeSwitch(3,3,1)
  ChangeVariable(1210,1210,0,0,1)
  ChangeSwitch(2912,2912,0)
  EndEventProcessing()
  0()
 PAGE   2
  // condition: variable 1210 >= 1
  0()



EVENT   12
 PAGE   1
  250(bytes(0x04,0x08,0x6f,0x3a,0x0c,0x52,0x50,0x47,0x3a,0x3a,0x53,0x45,0x08,0x3a,0x0a,0x40,0x6e,0x61,0x6d,0x65,0x49,0x22,0x0a,0x4f,0x70,0x65,0x6e,0x31,0x06,0x3a,0x06,0x45,0x54,0x3a,0x0b,0x40,0x70,0x69,0x74,0x63,0x68,0x69,0x69,0x3a,0x0c,0x40,0x76,0x6f,0x6c,0x75,0x6d,0x65,0x69,0x55))
  205(0,bytes(0x04,0x08,0x6f,0x3a,0x13,0x52,0x50,0x47,0x3a,0x3a,0x4d,0x6f,0x76,0x65,0x52,0x6f,0x75,0x74,0x65,0x09,0x3a,0x0c,0x40,0x72,0x65,0x70,0x65,0x61,0x74,0x46,0x3a,0x0f,0x40,0x73,0x6b,0x69,0x70,0x70,0x61,0x62,0x6c,0x65,0x46,0x3a,0x0a,0x40,0x77,0x61,0x69,0x74,0x54,0x3a,0x0a,0x40,0x6c,0x69,0x73,0x74,0x5b,0x0d,0x6f,0x3a,0x15,0x52,0x50,0x47,0x3a,0x3a,0x4d,0x6f,0x76,0x65,0x43,0x6f,0x6d,0x6d,0x61,0x6e,0x64,0x07,0x3a,0x0a,0x40,0x63,0x6f,0x64,0x65,0x69,0x2e,0x3a,0x10,0x40,0x70,0x61,0x72,0x61,0x6d,0x65,0x74,0x65,0x72,0x73,0x5b,0x07,0x49,0x22,0x12,0x24,0x21,0x6d,0x61,0x7a,0x79,0x6f,0x75,0x5f,0x64,0x6f,0x6f,0x72,0x06,0x3a,0x06,0x45,0x54,0x69,0x00,0x6f,0x3b,0x0a,0x07,0x3b,0x0b,0x69,0x16,0x3b,0x0c,0x5b,0x00,0x6f,0x3b,0x0a,0x07,0x3b,0x0b,0x69,0x14,0x3b,0x0c,0x5b,0x06,0x69,0x08,0x6f,0x3b,0x0a,0x07,0x3b,0x0b,0x69,0x17,0x3b,0x0c,0x5b,0x00,0x6f,0x3b,0x0a,0x07,0x3b,0x0b,0x69,0x14,0x3b,0x0c,0x5b,0x06,0x69,0x08,0x6f,0x3b,0x0a,0x07,0x3b,0x0b,0x69,0x18,0x3b,0x0c,0x5b,0x00,0x6f,0x3b,0x0a,0x07,0x3b,0x0b,0x69,0x2a,0x3b,0x0c,0x5b,0x00,0x6f,0x3b,0x0a,0x07,0x3b,0x0b,0x69,0x00,0x3b,0x0c,0x5b,0x00))
  205(-1,bytes(0x04,0x08,0x6f,0x3a,0x13,0x52,0x50,0x47,0x3a,0x3a,0x4d,0x6f,0x76,0x65,0x52,0x6f,0x75,0x74,0x65,0x09,0x3a,0x0c,0x40,0x72,0x65,0x70,0x65,0x61,0x74,0x46,0x3a,0x0f,0x40,0x73,0x6b,0x69,0x70,0x70,0x61,0x62,0x6c,0x65,0x54,0x3a,0x0a,0x40,0x77,0x61,0x69,0x74,0x54,0x3a,0x0a,0x40,0x6c,0x69,0x73,0x74,0x5b,0x09,0x6f,0x3a,0x15,0x52,0x50,0x47,0x3a,0x3a,0x4d,0x6f,0x76,0x65,0x43,0x6f,0x6d,0x6d,0x61,0x6e,0x64,0x07,0x3a,0x0a,0x40,0x63,0x6f,0x64,0x65,0x69,0x2a,0x3a,0x10,0x40,0x70,0x61,0x72,0x61,0x6d,0x65,0x74,0x65,0x72,0x73,0x5b,0x00,0x6f,0x3b,0x0a,0x07,0x3b,0x0b,0x69,0x11,0x3b,0x0c,0x5b,0x00,0x6f,0x3b,0x0a,0x07,0x3b,0x0b,0x69,0x2b,0x3b,0x0c,0x5b,0x00,0x6f,0x3b,0x0a,0x07,0x3b,0x0b,0x69,0x00,0x3b,0x0c,0x5b,0x00))
  250(bytes(0x04,0x08,0x6f,0x3a,0x0c,0x52,0x50,0x47,0x3a,0x3a,0x53,0x45,0x08,0x3a,0x0a,0x40,0x6e,0x61,0x6d,0x65,0x49,0x22,0x09,0x4d,0x6f,0x76,0x65,0x06,0x3a,0x06,0x45,0x54,0x3a,0x0b,0x40,0x70,0x69,0x74,0x63,0x68,0x69,0x69,0x3a,0x0c,0x40,0x76,0x6f,0x6c,0x75,0x6d,0x65,0x69,0x55))
  TeleportPlayer(0,894,10,12,0,0)
  0()



EVENT   11
 PAGE   1
  // condition: switch 4 is ON
  // condition: switch 35 is ON
  0()
 PAGE   2
  // condition: switch 5 is ON
  // condition: switch 35 is ON
  0()



EVENT   13
 PAGE   1
  // condition: switch 35 is ON
  0()



EVENT   14
 PAGE   1
  // condition: switch 35 is ON
  0()



EVENT   15
 PAGE   1
  // condition: switch 35 is ON
  0()



EVENT   16
 PAGE   1
  // condition: switch 35 is ON
  0()



EVENT   17
 PAGE   1
  // condition: switch 35 is ON
  0()



EVENT   18
 PAGE   1
  // condition: switch 35 is ON
  0()



EVENT   19
 PAGE   1
  // condition: switch 35 is ON
  0()



EVENT   20
 PAGE   1
  // condition: switch 35 is ON
  0()



EVENT   21
 PAGE   1
  // condition: switch 35 is ON
  0()



EVENT   22
 PAGE   1
  // condition: switch 35 is ON
  0()



EVENT   23
 PAGE   1
  // condition: switch 35 is ON
  0()
